%YAML 1.1
%TAG !u! tag:unity3d.com,2011:
--- !u!114 &11400000
MonoBehaviour:
  m_ObjectHideFlags: 0
  m_CorrespondingSourceObject: {fileID: 0}
  m_PrefabInstance: {fileID: 0}
  m_PrefabAsset: {fileID: 0}
  m_GameObject: {fileID: 0}
  m_Enabled: 1
  m_EditorHideFlags: 0
  m_Script: {fileID: 11500000, guid: cfb54f4e666c4752b4efafdac843fb15, type: 3}
  m_Name: Gold Small
  m_EditorClassIdentifier: 
  icon: {fileID: 21300000, guid: 69949fe0202274d4fba6686b91a5f76e, type: 3}
  id: d61ee486-6848-4ca2-b44b-6acf96ef0db2
  description: 
  itemType: 8
  level: 0
  star: 0
  price: 0
  speed: 0
  defense: 0
  clip: {fileID: 8300000, guid: e220c506f0f087141a6c00ea0bda9a81, type: 3}
  value: 15
  slowSpeed: 100
