%YAML 1.1
%TAG !u! tag:unity3d.com,2011:
--- !u!114 &11400000
MonoBehaviour:
  m_ObjectHideFlags: 0
  m_CorrespondingSourceObject: {fileID: 0}
  m_PrefabInstance: {fileID: 0}
  m_PrefabAsset: {fileID: 0}
  m_GameObject: {fileID: 0}
  m_Enabled: 1
  m_EditorHideFlags: 0
  m_Script: {fileID: 11500000, guid: cfb54f4e666c4752b4efafdac843fb15, type: 3}
  m_Name: Snake
  m_EditorClassIdentifier: 
  id: a3d491b1-a705-4e9e-b3ba-3eefd21d11f6
  itemType: 12
  icon: {fileID: 21300000, guid: e240420f18b752a44b9358af6d5af04a, type: 3}
  price: 0
  description: 
  clip: {fileID: 8300000, guid: e220c506f0f087141a6c00ea0bda9a81, type: 3}
  value: 0
  slowSpeed: 75
