%YAML 1.1
%TAG !u! tag:unity3d.com,2011:
--- !u!114 &11400000
MonoBehaviour:
  m_ObjectHideFlags: 0
  m_CorrespondingSourceObject: {fileID: 0}
  m_PrefabInstance: {fileID: 0}
  m_PrefabAsset: {fileID: 0}
  m_GameObject: {fileID: 0}
  m_Enabled: 1
  m_EditorHideFlags: 0
  m_Script: {fileID: 11500000, guid: 2a97ccdf23d39b446a25e5206bdb0cae, type: 3}
  m_Name: Level Maya 2
  m_EditorClassIdentifier: 
  icon: {fileID: 0}
  id: 7d519daf-2da4-490d-a91b-119efb218a8c
  description: 
  requires: []
  rewards:
  - item: {fileID: 11400000, guid: bd2c487ca6a516340bfa02d8785b7111, type: 2}
    amount: 600
    drop: 100
  - item: {fileID: 11400000, guid: 3a33f6efe840ad24ab531c2d9a12a2a2, type: 2}
    amount: 1
    drop: 100
  clip: {fileID: 8300000, guid: b1c579a84db5d0d4fb1b457553aab9e3, type: 3}
  prefab: {fileID: 6441958337733101670, guid: 0d9ee30437a3ecf4b98ddd1aa36bc919, type: 3}
  level: 5
  energy: 5
  time: 60
  gold1: 3000
  gold2: 3100
  completed: 0
