%YAML 1.1
%TAG !u! tag:unity3d.com,2011:
--- !u!114 &11400000
MonoBehaviour:
  m_ObjectHideFlags: 0
  m_CorrespondingSourceObject: {fileID: 0}
  m_PrefabInstance: {fileID: 0}
  m_PrefabAsset: {fileID: 0}
  m_GameObject: {fileID: 0}
  m_Enabled: 1
  m_EditorHideFlags: 0
  m_Script: {fileID: 11500000, guid: 2a97ccdf23d39b446a25e5206bdb0cae, type: 3}
  m_Name: Level Maya 1
  m_EditorClassIdentifier: 
  icon: {fileID: 0}
  id: 4358aceb-f9ed-4b60-b90b-4003eb680995
  description: 
  requires: []
  rewards:
  - item: {fileID: 11400000, guid: bd2c487ca6a516340bfa02d8785b7111, type: 2}
    amount: 400
    drop: 100
  - item: {fileID: 11400000, guid: 77f8fe9140380da4daba867c7f78afec, type: 2}
    amount: 1
    drop: 100
  clip: {fileID: 8300000, guid: b1c579a84db5d0d4fb1b457553aab9e3, type: 3}
  prefab: {fileID: 6441958337733101670, guid: 4595ee25e7d61a840aae08ddf6be50fb, type: 3}
  level: 4
  energy: 5
  time: 60
  gold1: 2000
  gold2: 2100
  completed: 0
