%YAML 1.1
%TAG !u! tag:unity3d.com,2011:
--- !u!114 &11400000
MonoBehaviour:
  m_ObjectHideFlags: 0
  m_CorrespondingSourceObject: {fileID: 0}
  m_PrefabInstance: {fileID: 0}
  m_PrefabAsset: {fileID: 0}
  m_GameObject: {fileID: 0}
  m_Enabled: 1
  m_EditorHideFlags: 0
  m_Script: {fileID: 11500000, guid: 2a97ccdf23d39b446a25e5206bdb0cae, type: 3}
  m_Name: Level Maya 3
  m_EditorClassIdentifier: 
  icon: {fileID: 0}
  id: c40b7b7c-660e-48e5-82eb-710840ce51f1
  description: 
  requires: []
  rewards:
  - item: {fileID: 11400000, guid: bd2c487ca6a516340bfa02d8785b7111, type: 2}
    amount: 1000
    drop: 100
  - item: {fileID: 11400000, guid: be7742f64aa33774fa60e9edaec2880e, type: 2}
    amount: 1
    drop: 100
  clip: {fileID: 8300000, guid: b1c579a84db5d0d4fb1b457553aab9e3, type: 3}
  prefab: {fileID: 6441958337733101670, guid: e779f9dd2f3fd8643ba9da99b31df62f, type: 3}
  level: 6
  energy: 72
  time: 72
  gold1: 5000
  gold2: 5100
  completed: 0
