%YAML 1.1
%TAG !u! tag:unity3d.com,2011:
--- !u!114 &11400000
MonoBehaviour:
  m_ObjectHideFlags: 0
  m_CorrespondingSourceObject: {fileID: 0}
  m_PrefabInstance: {fileID: 0}
  m_PrefabAsset: {fileID: 0}
  m_GameObject: {fileID: 0}
  m_Enabled: 1
  m_EditorHideFlags: 0
  m_Script: {fileID: 11500000, guid: 2a97ccdf23d39b446a25e5206bdb0cae, type: 3}
  m_Name: Level Viking 4
  m_EditorClassIdentifier: 
  icon: {fileID: 0}
  id: 2cf58055-10cb-48f1-895f-734b8ece8027
  description: 
  requires: []
  rewards:
  - item: {fileID: 11400000, guid: bd2c487ca6a516340bfa02d8785b7111, type: 2}
    amount: 2500
    drop: 100
  - item: {fileID: 11400000, guid: 9fdb664ebde694b42b0c609c92043d94, type: 2}
    amount: 1
    drop: 100
  clip: {fileID: 8300000, guid: ddd8f027214bfae4b9f68860530c6ac7, type: 3}
  prefab: {fileID: 7466982407926202642, guid: f2abed646e83d2346831281ab0718c90, type: 3}
  level: 13
  energy: 5
  time: 60
  gold1: 13000
  gold2: 13200
  completed: 0
