%YAML 1.1
%TAG !u! tag:unity3d.com,2011:
--- !u!687078895 &4343727234628468602
SpriteAtlas:
  m_ObjectHideFlags: 0
  m_CorrespondingSourceObject: {fileID: 0}
  m_PrefabInstance: {fileID: 0}
  m_PrefabAsset: {fileID: 0}
  m_Name: New Sprite Atlas
  m_EditorData:
    serializedVersion: 2
    textureSettings:
      serializedVersion: 2
      anisoLevel: 1
      compressionQuality: 50
      maxTextureSize: 2048
      textureCompression: 0
      filterMode: 1
      generateMipMaps: 0
      readable: 0
      crunchedCompression: 0
      sRGB: 1
    platformSettings:
    - serializedVersion: 3
      m_BuildTarget: DefaultTexturePlatform
      m_MaxTextureSize: 2048
      m_ResizeAlgorithm: 0
      m_TextureFormat: -1
      m_TextureCompression: 1
      m_CompressionQuality: 50
      m_CrunchedCompression: 1
      m_AllowsAlphaSplitting: 0
      m_Overridden: 0
      m_AndroidETC2FallbackOverride: 0
      m_ForceMaximumCompressionQuality_BC6H_BC7: 0
    packingSettings:
      serializedVersion: 2
      padding: 2
      blockOffset: 1
      allowAlphaSplitting: 0
      enableRotation: 1
      enableTightPacking: 0
    secondaryTextureSettings: {}
    variantMultiplier: 1
    packables:
    - {fileID: 2800000, guid: 534db6b8c637e254ab045cf45fb73863, type: 3}
    - {fileID: 2800000, guid: a8b01ae61a8f6294091f79dea59c2aea, type: 3}
    - {fileID: 2800000, guid: 58b7648876169b744b33859898f79fa3, type: 3}
    - {fileID: 2800000, guid: 9f0fb14aa5670034794bf9c995129c71, type: 3}
    - {fileID: 2800000, guid: eddeb950b11adea49a6b08358e7451e2, type: 3}
    - {fileID: 2800000, guid: 52c9824938894eb40b4336fa6b28e493, type: 3}
    - {fileID: 2800000, guid: fcf052b79b94fb34e854df5d45e339d1, type: 3}
    - {fileID: 2800000, guid: 427de045313e73c43832bee15b72a727, type: 3}
    - {fileID: 2800000, guid: 9f0908b4fee6f914089321e4280fe056, type: 3}
    - {fileID: 2800000, guid: ff1a7dd8442ab5e49ae6144f021839b5, type: 3}
    - {fileID: 2800000, guid: 1f4ff4dd053dc67449c4800a363d2452, type: 3}
    - {fileID: 2800000, guid: f5cd6be19769a514dbf0e06a8e788512, type: 3}
    totalSpriteSurfaceArea: 1803945
    bindAsDefault: 1
    isAtlasV2: 0
    cachedData: {fileID: 0}
  m_MasterAtlas: {fileID: 0}
  m_PackedSprites:
  - {fileID: 21300000, guid: eddeb950b11adea49a6b08358e7451e2, type: 3}
  - {fileID: 21300000, guid: f5cd6be19769a514dbf0e06a8e788512, type: 3}
  - {fileID: 21300000, guid: 9f0908b4fee6f914089321e4280fe056, type: 3}
  - {fileID: 21300000, guid: 427de045313e73c43832bee15b72a727, type: 3}
  - {fileID: 21300000, guid: a8b01ae61a8f6294091f79dea59c2aea, type: 3}
  - {fileID: 21300000, guid: fcf052b79b94fb34e854df5d45e339d1, type: 3}
  - {fileID: 21300000, guid: 58b7648876169b744b33859898f79fa3, type: 3}
  - {fileID: 21300000, guid: 534db6b8c637e254ab045cf45fb73863, type: 3}
  - {fileID: 21300000, guid: ff1a7dd8442ab5e49ae6144f021839b5, type: 3}
  - {fileID: 21300000, guid: 52c9824938894eb40b4336fa6b28e493, type: 3}
  - {fileID: 21300000, guid: 9f0fb14aa5670034794bf9c995129c71, type: 3}
  - {fileID: 21300000, guid: 1f4ff4dd053dc67449c4800a363d2452, type: 3}
  m_PackedSpriteNamesToIndex:
  - "3 \u0111\u1EA3o totural t\xE1ch-13"
  - Asset 11
  - Asset 7
  - Asset 6
  - 1Asset 13
  - Asset 5
  - 1Asset 14
  - 1Asset 13-2
  - Asset 8
  - Asset 3
  - 1Asset 15
  - Asset 10
  m_RenderDataMap: {}
  m_Tag: New Sprite Atlas
  m_IsVariant: 0
