%YAML 1.1
%TAG !u! tag:unity3d.com,2011:
--- !u!114 &11400000
MonoBehaviour:
  m_ObjectHideFlags: 0
  m_CorrespondingSourceObject: {fileID: 0}
  m_PrefabInstance: {fileID: 0}
  m_PrefabAsset: {fileID: 0}
  m_GameObject: {fileID: 0}
  m_Enabled: 1
  m_EditorHideFlags: 0
  m_Script: {fileID: 11500000, guid: d7db433b51414c7db1e97d05ea5dc356, type: 3}
  m_Name: Line hela
  m_EditorClassIdentifier: 
  icon: {fileID: -3960749610124731787, guid: 949735dc0159bae429eb94f65e850223, type: 3}
  id: 04382098-bbd9-40b7-a7a1-64e1009e73aa
  description: 
  itemType: 1
  level: 0
  star: 0
  price: 0
  speed: 0
  defense: 0
  iconEquip: {fileID: -3301859566451926146, guid: 5a1bfcd5a0130a746b1f7bdbef2dde22,
    type: 3}
  material: {fileID: 2100000, guid: 08cbc7b282d492644b71fc444ed38ad2, type: 2}
  special:
    items: []
    strength: 0
    pullSpeed: 0
    flySpeed: 0
    timerWhenDiamondBack: 0
    timerWhenGoldBack: 0
    damageToBoss: 0
    percentDamageToBoss: 0
    resourcePoint: 0
  strength: 0
  pullSpeed: 20
  stoneSpeed: 0
  flySpeed: 0
  goldWhenBack: 0
  timerWhenDiamondBack: 0
  timerWhenGoldBack: 0
  timerWhenStoneBack: 0
  damageToBoss: 0
  percentDamageToBoss: 0
  percentWinBoss: 0
  percentDestroyItem: 0
  stonePoint: 0
  resourcePoint: 15
  tntFree: 0
  strengthFree: 0
  seconds: 0
  secondWins: 0
  stonePercent: 0
  stoneValue: 0
  boss: {fileID: 0}
