%YAML 1.1
%TAG !u! tag:unity3d.com,2011:
--- !u!114 &11400000
MonoBehaviour:
  m_ObjectHideFlags: 0
  m_CorrespondingSourceObject: {fileID: 0}
  m_PrefabInstance: {fileID: 0}
  m_PrefabAsset: {fileID: 0}
  m_GameObject: {fileID: 0}
  m_Enabled: 1
  m_EditorHideFlags: 0
  m_Script: {fileID: 11500000, guid: d7db433b51414c7db1e97d05ea5dc356, type: 3}
  m_Name: Line Anasazi
  m_EditorClassIdentifier: 
  icon: {fileID: 1584208616371965697, guid: a1cc2843f6403704b976ef871be5604b, type: 3}
  id: 89d11e97-4438-45ca-9b64-63bb915afb54
  description: 
  itemType: 1
  level: 0
  star: 0
  price: 0
  speed: 0
  defense: 0
  iconEquip: {fileID: 6366510682051593997, guid: 9f3fd5324739c1b42b0a03786e90bafd,
    type: 3}
  material: {fileID: 2100000, guid: a5c27a73063160843a8194a22a9c96d5, type: 2}
  special:
    items: []
    strength: 0
    pullSpeed: 0
    flySpeed: 0
    timerWhenDiamondBack: 0
    timerWhenGoldBack: 0
    damageToBoss: 0
    percentDamageToBoss: 0
    resourcePoint: 0
  strength: 0
  pullSpeed: 0
  stoneSpeed: 0
  flySpeed: 0
  goldWhenBack: 0
  timerWhenDiamondBack: 5
  timerWhenGoldBack: 0
  timerWhenStoneBack: 0
  damageToBoss: 0
  percentDamageToBoss: 0
  percentWinBoss: 0
  percentDestroyItem: 0
  stonePoint: 0
  resourcePoint: 0
  tntFree: 0
  strengthFree: 0
  seconds: 0
  secondWins: 0
  stonePercent: 0
  stoneValue: 0
  boss: {fileID: 0}
