%YAML 1.1
%TAG !u! tag:unity3d.com,2011:
--- !u!114 &11400000
MonoBehaviour:
  m_ObjectHideFlags: 0
  m_CorrespondingSourceObject: {fileID: 0}
  m_PrefabInstance: {fileID: 0}
  m_PrefabAsset: {fileID: 0}
  m_GameObject: {fileID: 0}
  m_Enabled: 1
  m_EditorHideFlags: 0
  m_Script: {fileID: 11500000, guid: d7db433b51414c7db1e97d05ea5dc356, type: 3}
  m_Name: Line God Rah
  m_EditorClassIdentifier: 
  icon: {fileID: 2837032944966586681, guid: 88256a278e930bb409c363ce45b7dc9a, type: 3}
  id: ca215b41-d2e7-4e2a-acfa-e36a8a7e8485
  description: 
  itemType: 1
  level: 0
  star: 0
  price: 0
  speed: 0
  defense: 0
  iconEquip: {fileID: 2286409811331961578, guid: 92cb530bcb39f5840a7e29d36a2f57c9,
    type: 3}
  material: {fileID: 2100000, guid: b016064f3f183964081d973eb00d8221, type: 2}
  special:
    items: []
    strength: 0
    pullSpeed: 0
    flySpeed: 0
    timerWhenDiamondBack: 0
    timerWhenGoldBack: 0
    damageToBoss: 0
    percentDamageToBoss: 0
    resourcePoint: 0
  strength: 0
  pullSpeed: 0
  stoneSpeed: 0
  flySpeed: 0
  goldWhenBack: 0
  timerWhenDiamondBack: 0
  timerWhenGoldBack: 0
  timerWhenStoneBack: 0
  damageToBoss: 0
  percentDamageToBoss: 0
  percentWinBoss: 0
  percentDestroyItem: 70
  stonePoint: 0
  resourcePoint: 0
  tntFree: 0
  strengthFree: 0
  seconds: 0
  secondWins: 0
  stonePercent: 0
  stoneValue: 0
  boss: {fileID: 0}
