%YAML 1.1
%TAG !u! tag:unity3d.com,2011:
--- !u!687078895 &4343727234628468602
SpriteAtlas:
  m_ObjectHideFlags: 0
  m_CorrespondingSourceObject: {fileID: 0}
  m_PrefabInstance: {fileID: 0}
  m_PrefabAsset: {fileID: 0}
  m_Name: New Sprite Atlas
  m_EditorData:
    serializedVersion: 2
    textureSettings:
      serializedVersion: 2
      anisoLevel: 1
      compressionQuality: 50
      maxTextureSize: 2048
      textureCompression: 0
      filterMode: 1
      generateMipMaps: 0
      readable: 0
      crunchedCompression: 0
      sRGB: 1
    platformSettings:
    - serializedVersion: 3
      m_BuildTarget: DefaultTexturePlatform
      m_MaxTextureSize: 2048
      m_ResizeAlgorithm: 0
      m_TextureFormat: -1
      m_TextureCompression: 1
      m_CompressionQuality: 50
      m_CrunchedCompression: 1
      m_AllowsAlphaSplitting: 0
      m_Overridden: 0
      m_AndroidETC2FallbackOverride: 0
      m_ForceMaximumCompressionQuality_BC6H_BC7: 0
    packingSettings:
      serializedVersion: 2
      padding: 2
      blockOffset: 1
      allowAlphaSplitting: 0
      enableRotation: 1
      enableTightPacking: 0
    secondaryTextureSettings: {}
    variantMultiplier: 1
    packables:
    - {fileID: 2800000, guid: 0b6252565baf55544acfd54b0f582fa4, type: 3}
    - {fileID: 2800000, guid: 68c4d91cc065cf24d8bd562cb46e9f4b, type: 3}
    - {fileID: 2800000, guid: ec73d452aa4f4554394f4fd5b68ed8a2, type: 3}
    - {fileID: 2800000, guid: 47c4f203086453347beb3579acf630b2, type: 3}
    totalSpriteSurfaceArea: 1194195
    bindAsDefault: 1
    isAtlasV2: 0
    cachedData: {fileID: 0}
  m_MasterAtlas: {fileID: 0}
  m_PackedSprites:
  - {fileID: 21300000, guid: ec73d452aa4f4554394f4fd5b68ed8a2, type: 3}
  - {fileID: 21300000, guid: 47c4f203086453347beb3579acf630b2, type: 3}
  - {fileID: 21300000, guid: 0b6252565baf55544acfd54b0f582fa4, type: 3}
  - {fileID: 21300000, guid: 68c4d91cc065cf24d8bd562cb46e9f4b, type: 3}
  m_PackedSpriteNamesToIndex:
  - Asset 10
  - Asset 11
  - Asset 12
  - Asset 9
  m_RenderDataMap: {}
  m_Tag: New Sprite Atlas
  m_IsVariant: 0
