%YAML 1.1
%TAG !u! tag:unity3d.com,2011:
--- !u!114 &11400000
MonoBehaviour:
  m_ObjectHideFlags: 0
  m_CorrespondingSourceObject: {fileID: 0}
  m_PrefabInstance: {fileID: 0}
  m_PrefabAsset: {fileID: 0}
  m_GameObject: {fileID: 0}
  m_Enabled: 1
  m_EditorHideFlags: 0
  m_Script: {fileID: 11500000, guid: b045a2f189eb4f5995499b6907e939f5, type: 3}
  m_Name: Piece Greek
  m_EditorClassIdentifier: 
  itemType: 4
  icon: {fileID: 21300000, guid: b47c92eea001fb74f9d0a19cf949dfae, type: 3}
  price: 0
  id: d72f889b-8bf7-4ad5-bad9-74e8ca2bb3e9
  description: Greek map
