%YAML 1.1
%TAG !u! tag:unity3d.com,2011:
--- !u!114 &11400000
MonoBehaviour:
  m_ObjectHideFlags: 0
  m_CorrespondingSourceObject: {fileID: 0}
  m_PrefabInstance: {fileID: 0}
  m_PrefabAsset: {fileID: 0}
  m_GameObject: {fileID: 0}
  m_Enabled: 1
  m_EditorHideFlags: 0
  m_Script: {fileID: 11500000, guid: b045a2f189eb4f5995499b6907e939f5, type: 3}
  m_Name: Piece Maya
  m_EditorClassIdentifier: 
  itemType: 4
  icon: {fileID: 21300000, guid: 75c24132095c531428a30b2e5d6a1d00, type: 3}
  price: 0
  id: 09d4d5a6-34e4-4000-9022-94977b3855cc
  description: Maya map
