%YAML 1.1
%TAG !u! tag:unity3d.com,2011:
--- !u!114 &11400000
MonoBehaviour:
  m_ObjectHideFlags: 0
  m_CorrespondingSourceObject: {fileID: 0}
  m_PrefabInstance: {fileID: 0}
  m_PrefabAsset: {fileID: 0}
  m_GameObject: {fileID: 0}
  m_Enabled: 1
  m_EditorHideFlags: 0
  m_Script: {fileID: 11500000, guid: 2a97ccdf23d39b446a25e5206bdb0cae, type: 3}
  m_Name: Level Greek 4
  m_EditorClassIdentifier: 
  icon: {fileID: 0}
  id: a726f370-45d3-46b3-86e2-8961fe6c5ad6
  description: 
  requires: []
  rewards:
  - item: {fileID: 11400000, guid: 2532891358e063a4894ced6efe2f7090, type: 2}
    amount: 1
    drop: 100
  - item: {fileID: 11400000, guid: bd2c487ca6a516340bfa02d8785b7111, type: 2}
    amount: 3100
    drop: 100
  clip: {fileID: 8300000, guid: dcd242df06bdb654b8e9ffe3843d6ea9, type: 3}
  prefab: {fileID: 2394080308817819835, guid: 77f21bc482e5097459ecac5162d74f39, type: 3}
  level: 30
  energy: 5
  time: 60
  gold1: 16000
  gold2: 16300
  completed: 0
