%YAML 1.1
%TAG !u! tag:unity3d.com,2011:
--- !u!687078895 &4343727234628468602
SpriteAtlas:
  m_ObjectHideFlags: 0
  m_CorrespondingSourceObject: {fileID: 0}
  m_PrefabInstance: {fileID: 0}
  m_PrefabAsset: {fileID: 0}
  m_Name: New Sprite Atlas
  m_EditorData:
    serializedVersion: 2
    textureSettings:
      serializedVersion: 2
      anisoLevel: 1
      compressionQuality: 50
      maxTextureSize: 2048
      textureCompression: 0
      filterMode: 1
      generateMipMaps: 0
      readable: 0
      crunchedCompression: 0
      sRGB: 1
    platformSettings:
    - serializedVersion: 3
      m_BuildTarget: DefaultTexturePlatform
      m_MaxTextureSize: 2048
      m_ResizeAlgorithm: 0
      m_TextureFormat: -1
      m_TextureCompression: 1
      m_CompressionQuality: 50
      m_CrunchedCompression: 1
      m_AllowsAlphaSplitting: 0
      m_Overridden: 0
      m_AndroidETC2FallbackOverride: 0
      m_ForceMaximumCompressionQuality_BC6H_BC7: 0
    packingSettings:
      serializedVersion: 2
      padding: 2
      blockOffset: 1
      allowAlphaSplitting: 0
      enableRotation: 1
      enableTightPacking: 0
    secondaryTextureSettings: {}
    variantMultiplier: 1
    packables:
    - {fileID: 2800000, guid: ec0df3382e081004dace1a5814dd21b2, type: 3}
    - {fileID: 2800000, guid: 8f60c8ce3b0a6f645839e3bdd8a53e87, type: 3}
    - {fileID: 2800000, guid: d09fc5ef3a2cf354da9bceaf55541d59, type: 3}
    - {fileID: 2800000, guid: d0352d0bac0e5d2418b288af39a9e0d3, type: 3}
    - {fileID: 2800000, guid: 0c0787507b4de814197257113299d62c, type: 3}
    - {fileID: 2800000, guid: 226c9c19ec5427d48a5641a4acea71af, type: 3}
    - {fileID: 2800000, guid: b6c176f92189bcc44b32cd5a85557511, type: 3}
    - {fileID: 2800000, guid: ab4a5767bbcb7234aa4128c8aed13ef4, type: 3}
    - {fileID: 2800000, guid: fe6bc2b1de2661e459133268e89ecf32, type: 3}
    - {fileID: 2800000, guid: 17734ec34f06f1a41b8af7447595c0c3, type: 3}
    - {fileID: 2800000, guid: 1caf817efe91a33469b4a3f3798896dd, type: 3}
    - {fileID: 2800000, guid: c352c557fad0ad6458481be7d2984bf7, type: 3}
    - {fileID: 2800000, guid: f5b04a196684ff74988d128ba34ffb22, type: 3}
    - {fileID: 2800000, guid: da1da4c3348523a4799fe2ec8b8eff39, type: 3}
    - {fileID: 2800000, guid: 6357379d27740cf4881bf4532dcae7c5, type: 3}
    - {fileID: 2800000, guid: ecbd45829b988dc4c942d83304b3c51d, type: 3}
    - {fileID: 2800000, guid: 8b45584e61e916a4295ed9493dd8b126, type: 3}
    - {fileID: 2800000, guid: 76f31f3230737384d8fd23c21acd6a72, type: 3}
    - {fileID: 2800000, guid: 07b8a248901a6a74597b98871db16e85, type: 3}
    - {fileID: 2800000, guid: a4ae08359a9e00745aeafebb445bb183, type: 3}
    - {fileID: 2800000, guid: 43bfd3556ced933439a9d9c7148028ff, type: 3}
    - {fileID: 2800000, guid: 8441b9965882fe44eb2b9f8cd1fc87ee, type: 3}
    - {fileID: 2800000, guid: e4824fc14c93a894d816849d36d7c771, type: 3}
    - {fileID: 2800000, guid: 07ad18b52bdacca4aae21c52f2e3255d, type: 3}
    - {fileID: 2800000, guid: 8f73977a9db622e4b97b3972bcfccfc3, type: 3}
    - {fileID: 2800000, guid: b730265871938694a9de1fb8dc9cc790, type: 3}
    - {fileID: 2800000, guid: 883614f2ea7f31a4dbf21e585e712b5d, type: 3}
    - {fileID: 2800000, guid: 756dfa5a312cca44b95532bc28c6beb5, type: 3}
    - {fileID: 2800000, guid: c22e254a434a47d4aa0451f6cbd1a683, type: 3}
    - {fileID: 2800000, guid: 225a504956fe1db44af3f11d73542f2d, type: 3}
    - {fileID: 2800000, guid: 746fd9a154671d540966dffa64130bd4, type: 3}
    - {fileID: 2800000, guid: 6264208acdc6e8940a94ceca324cc995, type: 3}
    - {fileID: 2800000, guid: 610d60f613e56f041a562c3976a179f8, type: 3}
    - {fileID: 2800000, guid: 28194da954ca16b43ba76f4a26cf6277, type: 3}
    - {fileID: 2800000, guid: a0acc177c72a6e54e84d9001aca87f06, type: 3}
    - {fileID: 2800000, guid: 1689dfc3fdf3e3a4e87afc477d2974af, type: 3}
    - {fileID: 2800000, guid: 3524130290e77fe409518ebad72881af, type: 3}
    - {fileID: 2800000, guid: 31bda4b69cdf5804fb2df5e37c61fde8, type: 3}
    - {fileID: 2800000, guid: c7d985e67280c1e45b814c47cc4a8b84, type: 3}
    - {fileID: 2800000, guid: fe040ae85af9f2f4cb94014ecdc4220e, type: 3}
    - {fileID: 2800000, guid: d1d840c38e3c85148ad705696a3b82eb, type: 3}
    - {fileID: 2800000, guid: e5c82265889c3ad409ef163dc8026431, type: 3}
    - {fileID: 2800000, guid: e9b5e6e7bdfbf9246b7430934aae6392, type: 3}
    - {fileID: 2800000, guid: 1e799a27b5bf334439870cd864314751, type: 3}
    - {fileID: 2800000, guid: 97f830f791fb91647876a3935787334a, type: 3}
    - {fileID: 2800000, guid: baa4432666993cf48902e3f27819eabe, type: 3}
    - {fileID: 2800000, guid: c44bc07515460b747a0f99dcd476924c, type: 3}
    - {fileID: 2800000, guid: bc8869d90be7b6647a95224d7841fee8, type: 3}
    - {fileID: 2800000, guid: f21074e76bbf08147850b5883aa662c1, type: 3}
    - {fileID: 2800000, guid: cfcd9781b1a5bb54faa3af8883b8b674, type: 3}
    - {fileID: 2800000, guid: 4028a504d250749498db3a3e5cdf9b8e, type: 3}
    - {fileID: 2800000, guid: 477454b7e63b91a4c89dc2a9976129de, type: 3}
    totalSpriteSurfaceArea: 6052800
    bindAsDefault: 1
    isAtlasV2: 0
    cachedData: {fileID: 0}
  m_MasterAtlas: {fileID: 0}
  m_PackedSprites:
  - {fileID: 21300000, guid: 0c0787507b4de814197257113299d62c, type: 3}
  - {fileID: 21300000, guid: cfcd9781b1a5bb54faa3af8883b8b674, type: 3}
  - {fileID: 21300000, guid: 746fd9a154671d540966dffa64130bd4, type: 3}
  - {fileID: 21300000, guid: fe6bc2b1de2661e459133268e89ecf32, type: 3}
  - {fileID: 21300000, guid: e4824fc14c93a894d816849d36d7c771, type: 3}
  - {fileID: 21300000, guid: 3524130290e77fe409518ebad72881af, type: 3}
  - {fileID: 21300000, guid: 76f31f3230737384d8fd23c21acd6a72, type: 3}
  - {fileID: 21300000, guid: ecbd45829b988dc4c942d83304b3c51d, type: 3}
  - {fileID: 21300000, guid: 883614f2ea7f31a4dbf21e585e712b5d, type: 3}
  - {fileID: 21300000, guid: d1d840c38e3c85148ad705696a3b82eb, type: 3}
  - {fileID: 21300000, guid: da1da4c3348523a4799fe2ec8b8eff39, type: 3}
  - {fileID: 21300000, guid: 17734ec34f06f1a41b8af7447595c0c3, type: 3}
  - {fileID: 21300000, guid: 1689dfc3fdf3e3a4e87afc477d2974af, type: 3}
  - {fileID: 21300000, guid: 4028a504d250749498db3a3e5cdf9b8e, type: 3}
  - {fileID: 21300000, guid: a4ae08359a9e00745aeafebb445bb183, type: 3}
  - {fileID: 21300000, guid: 43bfd3556ced933439a9d9c7148028ff, type: 3}
  - {fileID: 21300000, guid: e5c82265889c3ad409ef163dc8026431, type: 3}
  - {fileID: 21300000, guid: c44bc07515460b747a0f99dcd476924c, type: 3}
  - {fileID: 21300000, guid: 07ad18b52bdacca4aae21c52f2e3255d, type: 3}
  - {fileID: 21300000, guid: baa4432666993cf48902e3f27819eabe, type: 3}
  - {fileID: 21300000, guid: 8441b9965882fe44eb2b9f8cd1fc87ee, type: 3}
  - {fileID: 21300000, guid: 31bda4b69cdf5804fb2df5e37c61fde8, type: 3}
  - {fileID: 21300000, guid: c7d985e67280c1e45b814c47cc4a8b84, type: 3}
  - {fileID: 21300000, guid: 610d60f613e56f041a562c3976a179f8, type: 3}
  - {fileID: 21300000, guid: 1e799a27b5bf334439870cd864314751, type: 3}
  - {fileID: 21300000, guid: c352c557fad0ad6458481be7d2984bf7, type: 3}
  - {fileID: 21300000, guid: ab4a5767bbcb7234aa4128c8aed13ef4, type: 3}
  - {fileID: 21300000, guid: a0acc177c72a6e54e84d9001aca87f06, type: 3}
  - {fileID: 21300000, guid: 477454b7e63b91a4c89dc2a9976129de, type: 3}
  - {fileID: 21300000, guid: f21074e76bbf08147850b5883aa662c1, type: 3}
  - {fileID: 21300000, guid: e9b5e6e7bdfbf9246b7430934aae6392, type: 3}
  - {fileID: 21300000, guid: 97f830f791fb91647876a3935787334a, type: 3}
  - {fileID: 21300000, guid: ec0df3382e081004dace1a5814dd21b2, type: 3}
  - {fileID: 21300000, guid: 07b8a248901a6a74597b98871db16e85, type: 3}
  - {fileID: 21300000, guid: b730265871938694a9de1fb8dc9cc790, type: 3}
  - {fileID: 21300000, guid: fe040ae85af9f2f4cb94014ecdc4220e, type: 3}
  - {fileID: 21300000, guid: f5b04a196684ff74988d128ba34ffb22, type: 3}
  - {fileID: 21300000, guid: 226c9c19ec5427d48a5641a4acea71af, type: 3}
  - {fileID: 21300000, guid: 225a504956fe1db44af3f11d73542f2d, type: 3}
  - {fileID: 21300000, guid: 28194da954ca16b43ba76f4a26cf6277, type: 3}
  - {fileID: 21300000, guid: bc8869d90be7b6647a95224d7841fee8, type: 3}
  - {fileID: 21300000, guid: b6c176f92189bcc44b32cd5a85557511, type: 3}
  - {fileID: 21300000, guid: c22e254a434a47d4aa0451f6cbd1a683, type: 3}
  - {fileID: 21300000, guid: 756dfa5a312cca44b95532bc28c6beb5, type: 3}
  - {fileID: 21300000, guid: 8f73977a9db622e4b97b3972bcfccfc3, type: 3}
  - {fileID: 21300000, guid: 6264208acdc6e8940a94ceca324cc995, type: 3}
  - {fileID: 21300000, guid: d0352d0bac0e5d2418b288af39a9e0d3, type: 3}
  - {fileID: 21300000, guid: 6357379d27740cf4881bf4532dcae7c5, type: 3}
  - {fileID: 21300000, guid: 8b45584e61e916a4295ed9493dd8b126, type: 3}
  - {fileID: 21300000, guid: 1caf817efe91a33469b4a3f3798896dd, type: 3}
  - {fileID: 21300000, guid: 8f60c8ce3b0a6f645839e3bdd8a53e87, type: 3}
  - {fileID: 21300000, guid: d09fc5ef3a2cf354da9bceaf55541d59, type: 3}
  m_PackedSpriteNamesToIndex:
  - "ca sau x\xF3a ch\xE2n_00003"
  - "ca sau x\xF3a ch\xE2n_00048"
  - "ca sau x\xF3a ch\xE2n_00029"
  - "ca sau x\xF3a ch\xE2n_00007"
  - "ca sau x\xF3a ch\xE2n_00021"
  - "ca sau x\xF3a ch\xE2n_00035"
  - "ca sau x\xF3a ch\xE2n_00016"
  - "ca sau x\xF3a ch\xE2n_00014"
  - "ca sau x\xF3a ch\xE2n_00025"
  - "ca sau x\xF3a ch\xE2n_00039"
  - "ca sau x\xF3a ch\xE2n_00012"
  - "ca sau x\xF3a ch\xE2n_00008"
  - "ca sau x\xF3a ch\xE2n_00034"
  - "ca sau x\xF3a ch\xE2n_00049"
  - "ca sau x\xF3a ch\xE2n_00018"
  - "ca sau x\xF3a ch\xE2n_00019"
  - "ca sau x\xF3a ch\xE2n_00040"
  - "ca sau x\xF3a ch\xE2n_00045"
  - "ca sau x\xF3a ch\xE2n_00022"
  - "ca sau x\xF3a ch\xE2n_00044"
  - "ca sau x\xF3a ch\xE2n_00020"
  - "ca sau x\xF3a ch\xE2n_00036"
  - "ca sau x\xF3a ch\xE2n_00037"
  - "ca sau x\xF3a ch\xE2n_00031"
  - "ca sau x\xF3a ch\xE2n_00042"
  - "ca sau x\xF3a ch\xE2n_00010"
  - "ca sau x\xF3a ch\xE2n_00006"
  - "ca sau x\xF3a ch\xE2n_00033"
  - "ca sau x\xF3a ch\xE2n_00050"
  - "ca sau x\xF3a ch\xE2n_00047"
  - "ca sau x\xF3a ch\xE2n_00041"
  - "ca sau x\xF3a ch\xE2n_00043"
  - "ca sau x\xF3a ch\xE2n_00051"
  - "ca sau x\xF3a ch\xE2n_00017"
  - "ca sau x\xF3a ch\xE2n_00024"
  - "ca sau x\xF3a ch\xE2n_00038"
  - "ca sau x\xF3a ch\xE2n_00011"
  - "ca sau x\xF3a ch\xE2n_00004"
  - "ca sau x\xF3a ch\xE2n_00028"
  - "ca sau x\xF3a ch\xE2n_00032"
  - "ca sau x\xF3a ch\xE2n_00046"
  - "ca sau x\xF3a ch\xE2n_00005"
  - "ca sau x\xF3a ch\xE2n_00027"
  - "ca sau x\xF3a ch\xE2n_00026"
  - "ca sau x\xF3a ch\xE2n_00023"
  - "ca sau x\xF3a ch\xE2n_00030"
  - "ca sau x\xF3a ch\xE2n_00002"
  - "ca sau x\xF3a ch\xE2n_00013"
  - "ca sau x\xF3a ch\xE2n_00015"
  - "ca sau x\xF3a ch\xE2n_00009"
  - "ca sau x\xF3a ch\xE2n_00000"
  - "ca sau x\xF3a ch\xE2n_00001"
  m_RenderDataMap: {}
  m_Tag: New Sprite Atlas
  m_IsVariant: 0
