%YAML 1.1
%TAG !u! tag:unity3d.com,2011:
--- !u!114 &11400000
MonoBehaviour:
  m_ObjectHideFlags: 0
  m_CorrespondingSourceObject: {fileID: 0}
  m_PrefabInstance: {fileID: 0}
  m_PrefabAsset: {fileID: 0}
  m_GameObject: {fileID: 0}
  m_Enabled: 1
  m_EditorHideFlags: 0
  m_Script: {fileID: 11500000, guid: ffcc26ac2b9a47199fb2ba40069c48bf, type: 3}
  m_Name: Quest Egypt  1
  m_EditorClassIdentifier: 
  rewards:
  - rewards:
    - item: {fileID: 11400000, guid: 9175e51bc898e184b8cea460ea035229, type: 2}
      amount: 1
      drop: 100
    drop: 100
    random: 0
  requires:
  - itemRequire: {fileID: 11400000, guid: 9175e51bc898e184b8cea460ea035229, type: 2}
    requireAmount: 1
    currentAmount: 0
  listQuestType: 0
  questType: 0
  id: bba63c5a-7a25-410b-915b-a04a1db51002
  title: "TH\xC1M HI\u1EC2M L\u0102NG M\u1ED8 "
  description: "S\u1ED0NG S\xD3T QUA \u0110\u01AF\u1EE2C 1 V\xD2NG L\u0102NG M\u1ED8"
  daily: 1
  received: 0
