%YAML 1.1
%TAG !u! tag:unity3d.com,2011:
--- !u!114 &11400000
MonoBehaviour:
  m_ObjectHideFlags: 0
  m_CorrespondingSourceObject: {fileID: 0}
  m_PrefabInstance: {fileID: 0}
  m_PrefabAsset: {fileID: 0}
  m_GameObject: {fileID: 0}
  m_Enabled: 1
  m_EditorHideFlags: 0
  m_Script: {fileID: 11500000, guid: eeb73ff7c9dd45b198d30576216739fd, type: 3}
  m_Name: Booster Bomb
  m_EditorClassIdentifier: 
  id: 056b7ead-5a1b-4895-b1e3-739aedaeee47
  itemType: 5
  icon: {fileID: 21300000, guid: defe87e1621cbcc458b53729d9274bda, type: 3}
  price: 350
  description: 
  boosterType: 0
  clip: {fileID: 8300000, guid: 41d30b6eeba574d4a8c5d4fbde9c1fe0, type: 3}
  strength: 0
  lucky: 0
  timer: 0
