%YAML 1.1
%TAG !u! tag:unity3d.com,2011:
--- !u!114 &11400000
MonoBehaviour:
  m_ObjectHideFlags: 0
  m_CorrespondingSourceObject: {fileID: 0}
  m_PrefabInstance: {fileID: 0}
  m_PrefabAsset: {fileID: 0}
  m_GameObject: {fileID: 0}
  m_Enabled: 1
  m_EditorHideFlags: 0
  m_Script: {fileID: 11500000, guid: eefd331cc0fc48b1b769dead51d5e969, type: 3}
  m_Name: Treasure Stone Maya
  m_EditorClassIdentifier: 
  id: 996664ef-93fa-4cb5-9bfd-766ab3ab8139
  itemType: 3
  icon: {fileID: 8989361065008294666, guid: 260327d5cbc8fe749979373a65044895, type: 3}
  price: 0
  description: 
  rewards:
  - rewards:
    - item: {fileID: 11400000, guid: 0fb620da2d3a35a49b8a8fbd1fb6bb2f, type: 2}
      amount: 1
      drop: 100
    - item: {fileID: 11400000, guid: 76bc09d5c59d21b4c9b6dbdb7ddb8411, type: 2}
      amount: 1
      drop: 100
    - item: {fileID: 11400000, guid: 8d8a068ae8d43034a84360fc8e2eabb7, type: 2}
      amount: 1
      drop: 100
    drop: 100
    random: 0
  opened: {fileID: -6340853938334259188, guid: 260327d5cbc8fe749979373a65044895, type: 3}
  showChance: 10
