%YAML 1.1
%TAG !u! tag:unity3d.com,2011:
--- !u!114 &11400000
MonoBehaviour:
  m_ObjectHideFlags: 0
  m_CorrespondingSourceObject: {fileID: 0}
  m_PrefabInstance: {fileID: 0}
  m_PrefabAsset: {fileID: 0}
  m_GameObject: {fileID: 0}
  m_Enabled: 1
  m_EditorHideFlags: 0
  m_Script: {fileID: 11500000, guid: eefd331cc0fc48b1b769dead51d5e969, type: 3}
  m_Name: Treasure Gold Indus
  m_EditorClassIdentifier: 
  id: 630a8d57-3f5a-4417-bd6c-29e80ca5f38e
  itemType: 3
  icon: {fileID: 7473280513640920875, guid: 260327d5cbc8fe749979373a65044895, type: 3}
  price: 0
  description: 
  rewards:
  - rewards:
    - item: {fileID: 11400000, guid: e25b3912d5a26174e865607be1251114, type: 2}
      amount: 3
      drop: 100
    - item: {fileID: 11400000, guid: c0a63c32d0d272e478ca141b2688398c, type: 2}
      amount: 2
      drop: 100
    - item: {fileID: 11400000, guid: 1ba71a40fa24fe74d8b4838021e2f7d2, type: 2}
      amount: 2
      drop: 100
    drop: 100
    random: 0
  opened: {fileID: 6356346659145058599, guid: 260327d5cbc8fe749979373a65044895, type: 3}
  showChance: 16
