%YAML 1.1
%TAG !u! tag:unity3d.com,2011:
--- !u!114 &11400000
MonoBehaviour:
  m_ObjectHideFlags: 0
  m_CorrespondingSourceObject: {fileID: 0}
  m_PrefabInstance: {fileID: 0}
  m_PrefabAsset: {fileID: 0}
  m_GameObject: {fileID: 0}
  m_Enabled: 1
  m_EditorHideFlags: 0
  m_Script: {fileID: 11500000, guid: eefd331cc0fc48b1b769dead51d5e969, type: 3}
  m_Name: Treasure Truth
  m_EditorClassIdentifier: 
  id: 085becab-5225-448d-80ba-e3d033629ec1
  itemType: 3
  icon: {fileID: -2249447615418406293, guid: 260327d5cbc8fe749979373a65044895, type: 3}
  price: 0
  description: 
  rewards:
  - rewards:
    - item: {fileID: 11400000, guid: 2ec4a43e005026740b3e9d152e036143, type: 2}
      amount: 1
      drop: 15
    - item: {fileID: 11400000, guid: 00c7cc226067a0c47a782d2a8a016e08, type: 2}
      amount: 1
      drop: 15
    - item: {fileID: 11400000, guid: 73d975ddb9c59bf4c815fc2e282df7a9, type: 2}
      amount: 1
      drop: 15
    - item: {fileID: 11400000, guid: 48cbdc678ea51b142a36e46a27b2a020, type: 2}
      amount: 1
      drop: 15
    - item: {fileID: 11400000, guid: cc8c183a16bd8d44aa8adb03df8917d9, type: 2}
      amount: 1
      drop: 15
    - item: {fileID: 11400000, guid: 2b93de8be7e03ab4a9a161607894cec3, type: 2}
      amount: 1
      drop: 15
    - item: {fileID: 11400000, guid: 1c224a4a9c442e041b343cc2f3528016, type: 2}
      amount: 1
      drop: 15
    - item: {fileID: 11400000, guid: 02fff9ba5df5a0243b97a1c7f79ba688, type: 2}
      amount: 1
      drop: 15
    - item: {fileID: 0}
      amount: 1
      drop: 85
    drop: 100
    random: 1
  - rewards:
    - item: {fileID: 11400000, guid: a1ce9930b5d169540a14edd5e0fa26aa, type: 2}
      amount: 3
      drop: 100
    - item: {fileID: 11400000, guid: 273c7e65c42f34244b479eca4d350a7a, type: 2}
      amount: 1
      drop: 100
    - item: {fileID: 11400000, guid: 01873848a924d1b429d1700937bd4e1d, type: 2}
      amount: 20
      drop: 100
    - item: {fileID: 11400000, guid: 8d8a068ae8d43034a84360fc8e2eabb7, type: 2}
      amount: 1
      drop: 100
    - item: {fileID: 11400000, guid: c0a63c32d0d272e478ca141b2688398c, type: 2}
      amount: 1
      drop: 100
    drop: 100
    random: 0
  opened: {fileID: -6482762035192434451, guid: 260327d5cbc8fe749979373a65044895, type: 3}
  showChance: 5
