%YAML 1.1
%TAG !u! tag:unity3d.com,2011:
--- !u!114 &11400000
MonoBehaviour:
  m_ObjectHideFlags: 0
  m_CorrespondingSourceObject: {fileID: 0}
  m_PrefabInstance: {fileID: 0}
  m_PrefabAsset: {fileID: 0}
  m_GameObject: {fileID: 0}
  m_Enabled: 1
  m_EditorHideFlags: 0
  m_Script: {fileID: 11500000, guid: ffcc26ac2b9a47199fb2ba40069c48bf, type: 3}
  m_Name: quest maya 1-2
  m_EditorClassIdentifier: 
  rewards: []
  requires:
  - itemRequire: {fileID: 11400000, guid: befd7eb0a8156b440b6fd4577a7a34a1, type: 2}
    requireAmount: 2
    currentAmount: 0
  filterType: 0
  questType: 2
  id: b58c7121-cdf0-4625-ab72-6a925f056d35
  title: 
  description: "ho\xE0n th\xE0nh level maya 1: 2 l\u1EA7n"
  daily: 0
  received: 0
