%YAML 1.1
%TAG !u! tag:unity3d.com,2011:
--- !u!1 &5467622446989235244
GameObject:
  m_ObjectHideFlags: 0
  m_CorrespondingSourceObject: {fileID: 0}
  m_PrefabInstance: {fileID: 0}
  m_PrefabAsset: {fileID: 0}
  serializedVersion: 6
  m_Component:
  - component: {fileID: 5467622446989235241}
  - component: {fileID: 5467622446989235246}
  - component: {fileID: 5467622446989235247}
  - component: {fileID: 5467622446989235240}
  - component: {fileID: 3789218349034321683}
  m_Layer: 8
  m_Name: Rabbit
  m_TagString: Resource
  m_Icon: {fileID: 0}
  m_NavMeshLayer: 0
  m_StaticEditorFlags: 0
  m_IsActive: 1
--- !u!4 &5467622446989235241
Transform:
  m_ObjectHideFlags: 0
  m_CorrespondingSourceObject: {fileID: 0}
  m_PrefabInstance: {fileID: 0}
  m_PrefabAsset: {fileID: 0}
  m_GameObject: {fileID: 5467622446989235244}
  m_LocalRotation: {x: 0, y: 1, z: 0, w: 0}
  m_LocalPosition: {x: 0, y: 0, z: 0}
  m_LocalScale: {x: 0.2, y: 0.2, z: 0.2}
  m_Children: []
  m_Father: {fileID: 0}
  m_RootOrder: 0
  m_LocalEulerAnglesHint: {x: 0, y: 180, z: 0}
--- !u!212 &5467622446989235246
SpriteRenderer:
  m_ObjectHideFlags: 0
  m_CorrespondingSourceObject: {fileID: 0}
  m_PrefabInstance: {fileID: 0}
  m_PrefabAsset: {fileID: 0}
  m_GameObject: {fileID: 5467622446989235244}
  m_Enabled: 1
  m_CastShadows: 0
  m_ReceiveShadows: 0
  m_DynamicOccludee: 1
  m_MotionVectors: 1
  m_LightProbeUsage: 1
  m_ReflectionProbeUsage: 1
  m_RayTracingMode: 0
  m_RayTraceProcedural: 0
  m_RenderingLayerMask: 1
  m_RendererPriority: 0
  m_Materials:
  - {fileID: 10754, guid: 0000000000000000f000000000000000, type: 0}
  m_StaticBatchInfo:
    firstSubMesh: 0
    subMeshCount: 0
  m_StaticBatchRoot: {fileID: 0}
  m_ProbeAnchor: {fileID: 0}
  m_LightProbeVolumeOverride: {fileID: 0}
  m_ScaleInLightmap: 1
  m_ReceiveGI: 1
  m_PreserveUVs: 0
  m_IgnoreNormalsForChartDetection: 0
  m_ImportantGI: 0
  m_StitchLightmapSeams: 1
  m_SelectedEditorRenderState: 0
  m_MinimumChartSize: 4
  m_AutoUVMaxDistance: 0.5
  m_AutoUVMaxAngle: 89
  m_LightmapParameters: {fileID: 0}
  m_SortingLayerID: 0
  m_SortingLayer: 0
  m_SortingOrder: 15
  m_Sprite: {fileID: 21300000, guid: 7d43fa9b1f6fbda49a9cc86b65056995, type: 3}
  m_Color: {r: 1, g: 1, b: 1, a: 1}
  m_FlipX: 1
  m_FlipY: 0
  m_DrawMode: 0
  m_Size: {x: 6.41, y: 6.98}
  m_AdaptiveModeThreshold: 0.5
  m_SpriteTileMode: 0
  m_WasSpriteAssigned: 1
  m_MaskInteraction: 0
  m_SpriteSortPoint: 0
--- !u!95 &5467622446989235247
Animator:
  serializedVersion: 3
  m_ObjectHideFlags: 0
  m_CorrespondingSourceObject: {fileID: 0}
  m_PrefabInstance: {fileID: 0}
  m_PrefabAsset: {fileID: 0}
  m_GameObject: {fileID: 5467622446989235244}
  m_Enabled: 1
  m_Avatar: {fileID: 0}
  m_Controller: {fileID: 9100000, guid: 9e513e8a33b3449488f90a76a4eb6957, type: 2}
  m_CullingMode: 0
  m_UpdateMode: 0
  m_ApplyRootMotion: 0
  m_LinearVelocityBlending: 0
  m_WarningMessage: 
  m_HasTransformHierarchy: 1
  m_AllowConstantClipSamplingOptimization: 1
  m_KeepAnimatorControllerStateOnDisable: 0
--- !u!114 &5467622446989235240
MonoBehaviour:
  m_ObjectHideFlags: 0
  m_CorrespondingSourceObject: {fileID: 0}
  m_PrefabInstance: {fileID: 0}
  m_PrefabAsset: {fileID: 0}
  m_GameObject: {fileID: 5467622446989235244}
  m_Enabled: 1
  m_EditorHideFlags: 0
  m_Script: {fileID: 11500000, guid: 5946f8dbc120242418d6260bf371904a, type: 3}
  m_Name: 
  m_EditorClassIdentifier: 
  resource: {fileID: 11400000, guid: ca620bc65b322f04fb22b3eb02971d85, type: 2}
  icSnakeCrawl: {fileID: 0}
  snakeCanCrawl: 0
  minX: 0
  maxX: 3.15
  moveSpeed: 0.5
  idleTime: 1
--- !u!60 &3789218349034321683
PolygonCollider2D:
  m_ObjectHideFlags: 0
  m_CorrespondingSourceObject: {fileID: 0}
  m_PrefabInstance: {fileID: 0}
  m_PrefabAsset: {fileID: 0}
  m_GameObject: {fileID: 5467622446989235244}
  m_Enabled: 1
  m_Density: 1
  m_Material: {fileID: 0}
  m_IsTrigger: 1
  m_UsedByEffector: 0
  m_UsedByComposite: 0
  m_Offset: {x: 0, y: 0}
  m_SpriteTilingProperty:
    border: {x: 0, y: 0, z: 0, w: 0}
    pivot: {x: 0.5, y: 0.5}
    oldSize: {x: 5.96, y: 8.42}
    newSize: {x: 6.41, y: 6.98}
    adaptiveTilingThreshold: 0.5
    drawMode: 0
    adaptiveTiling: 0
  m_AutoTiling: 0
  m_Points:
    m_Paths:
    - - {x: 1.56, y: -2.97}
      - {x: 1.66, y: -2.9399998}
      - {x: 1.8, y: -2.81}
      - {x: 1.8399999, y: -2.74}
      - {x: 1.8299999, y: -2.56}
      - {x: 1.6999999, y: -2.26}
      - {x: 1.8299999, y: -2.18}
      - {x: 1.9399999, y: -2.1399999}
      - {x: 2.07, y: -2.08}
      - {x: 2.22, y: -1.9599999}
      - {x: 2.33, y: -1.79}
      - {x: 2.4099998, y: -1.62}
      - {x: 2.44, y: -1.4599999}
      - {x: 2.44, y: -1.05}
      - {x: 2.37, y: -0.79999995}
      - {x: 2.27, y: -0.62}
      - {x: 2.1599998, y: -0.47}
      - {x: 2.03, y: -0.34}
      - {x: 1.9399999, y: -0.28}
      - {x: 1.73, y: -0.19}
      - {x: 1.61, y: -0.16}
      - {x: 1.28, y: -0.12}
      - {x: 1.14, y: -0.11}
      - {x: 0.69, y: -0.11}
      - {x: 0.68, y: -0.12}
      - {x: 0.04, y: -0.12}
      - {x: 0.03, y: -0.11}
      - {x: -0.48, y: -0.049999997}
      - {x: -0.87, y: 0.04}
      - {x: -0.9, y: 0.19}
      - {x: -0.95, y: 0.26999998}
      - {x: -0.84999996, y: 0.35}
      - {x: -0.58, y: 0.48999998}
      - {x: -0.39, y: 0.64}
      - {x: -0.19, y: 0.84}
      - {x: -0.04, y: 1.0799999}
      - {x: 0.06, y: 1.26}
      - {x: 0.16, y: 1.51}
      - {x: 0.14999999, y: 1.6899999}
      - {x: 0.08, y: 1.75}
      - {x: 0.03, y: 1.78}
      - {x: -0.089999996, y: 1.78}
      - {x: -0.22, y: 1.75}
      - {x: -0.32, y: 1.74}
      - {x: -0.32999998, y: 1.88}
      - {x: -0.35999998, y: 1.91}
      - {x: -0.53, y: 1.91}
      - {x: -0.81, y: 1.74}
      - {x: -0.96999997, y: 1.62}
      - {x: -1.1, y: 1.5}
      - {x: -1.29, y: 1.31}
      - {x: -1.37, y: 1.2099999}
      - {x: -1.4499999, y: 1}
      - {x: -1.51, y: 0.78999996}
      - {x: -1.5899999, y: 0.62}
      - {x: -1.9, y: 0.63}
      - {x: -2.1, y: 0.59}
      - {x: -2.19, y: 0.53}
      - {x: -2.34, y: 0.42}
      - {x: -2.54, y: 0.22}
      - {x: -2.62, y: 0.08}
      - {x: -2.73, y: -0.17999999}
      - {x: -2.84, y: -0.32}
      - {x: -2.84, y: -0.42999998}
      - {x: -2.83, y: -0.47}
      - {x: -2.74, y: -0.69}
      - {x: -2.55, y: -0.9}
      - {x: -2.48, y: -0.94}
      - {x: -2.33, y: -1.01}
      - {x: -2.18, y: -1.05}
      - {x: -2.05, y: -1.0699999}
      - {x: -1.73, y: -1.0799999}
      - {x: -1.53, y: -1.29}
      - {x: -1.4399999, y: -1.37}
      - {x: -1.3399999, y: -1.4399999}
      - {x: -1.41, y: -1.49}
      - {x: -1.53, y: -1.67}
      - {x: -1.55, y: -1.74}
      - {x: -1.56, y: -1.8399999}
      - {x: -1.56, y: -2.01}
      - {x: -1.55, y: -2.12}
      - {x: -1.4599999, y: -2.25}
      - {x: -1.43, y: -2.28}
      - {x: -1.3, y: -2.28}
      - {x: -1.2099999, y: -2.12}
      - {x: -1.13, y: -1.86}
      - {x: -1.01, y: -1.79}
      - {x: -0.81, y: -1.74}
      - {x: -0.69, y: -1.8}
      - {x: -0.68, y: -1.88}
      - {x: -0.65999997, y: -1.99}
      - {x: -0.61, y: -2.1499999}
      - {x: -0.51, y: -2.36}
      - {x: -0.48, y: -2.3899999}
      - {x: -0.38, y: -2.5}
      - {x: -0.32999998, y: -2.53}
      - {x: -0.24, y: -2.54}
      - {x: -0.19, y: -2.51}
      - {x: -0.12, y: -2.4299998}
      - {x: -0.099999994, y: -2.35}
      - {x: -0.12, y: -2.09}
      - {x: -0.19999999, y: -1.9399999}
      - {x: 0.03, y: -2.02}
      - {x: 0.5, y: -2.12}
      - {x: 0.85999995, y: -2.2}
      - {x: 1, y: -2.34}
      - {x: 1.25, y: -2.55}
      - {x: 1.06, y: -2.53}
      - {x: 0.82, y: -2.53}
      - {x: 0.62, y: -2.58}
      - {x: 0.48999998, y: -2.6599998}
      - {x: 0.38, y: -2.8}
      - {x: 0.41, y: -2.95}
      - {x: 0.52, y: -3.03}
      - {x: 0.57, y: -3.04}
      - {x: 1.13, y: -3.04}
      - {x: 1.26, y: -3.03}
      - {x: 1.4, y: -3.01}
      - {x: 1.49, y: -2.99}
