%YAML 1.1
%TAG !u! tag:unity3d.com,2011:
--- !u!687078895 &4343727234628468602
SpriteAtlas:
  m_ObjectHideFlags: 0
  m_CorrespondingSourceObject: {fileID: 0}
  m_PrefabInstance: {fileID: 0}
  m_PrefabAsset: {fileID: 0}
  m_Name: New Sprite Atlas
  m_EditorData:
    serializedVersion: 2
    textureSettings:
      serializedVersion: 2
      anisoLevel: 1
      compressionQuality: 50
      maxTextureSize: 2048
      textureCompression: 0
      filterMode: 1
      generateMipMaps: 0
      readable: 0
      crunchedCompression: 0
      sRGB: 1
    platformSettings:
    - serializedVersion: 3
      m_BuildTarget: DefaultTexturePlatform
      m_MaxTextureSize: 2048
      m_ResizeAlgorithm: 0
      m_TextureFormat: -1
      m_TextureCompression: 1
      m_CompressionQuality: 50
      m_CrunchedCompression: 1
      m_AllowsAlphaSplitting: 0
      m_Overridden: 0
      m_AndroidETC2FallbackOverride: 0
      m_ForceMaximumCompressionQuality_BC6H_BC7: 0
    packingSettings:
      serializedVersion: 2
      padding: 2
      blockOffset: 1
      allowAlphaSplitting: 0
      enableRotation: 1
      enableTightPacking: 0
    secondaryTextureSettings: {}
    variantMultiplier: 1
    packables:
    - {fileID: 2800000, guid: 32eb28ebc0e6eda44a06692dff219d9e, type: 3}
    - {fileID: 2800000, guid: f029b4e60802f404cb020acb3bdd6837, type: 3}
    - {fileID: 2800000, guid: 7b9625c6842e9294980af5c0d800dc5d, type: 3}
    - {fileID: 2800000, guid: f013211cfff985a49ac3303a28d1ea59, type: 3}
    - {fileID: 2800000, guid: d79d88157e180504e8ccafa9d95ee4cb, type: 3}
    - {fileID: 2800000, guid: 02cddddcef16dca479e5add411c357f9, type: 3}
    - {fileID: 2800000, guid: 30762aadcc8fc6445afc01140c02111b, type: 3}
    - {fileID: 2800000, guid: 92e91091c727b1a4d9c4e097ce4d18ef, type: 3}
    - {fileID: 2800000, guid: 2664e1a06010e8e4b9e9db3c768ae8e8, type: 3}
    - {fileID: 2800000, guid: f2e4f7fd3b321604fb8a38ff71645ae2, type: 3}
    - {fileID: 2800000, guid: c0ceca954ec7e0345a02eee28dabe791, type: 3}
    - {fileID: 2800000, guid: d1081053649f35e44bcb317486f9410a, type: 3}
    - {fileID: 2800000, guid: 7e7535f21e239f248a1aa785f245b5fd, type: 3}
    - {fileID: 2800000, guid: 542e479b9eed979478bb3b1374224b50, type: 3}
    - {fileID: 2800000, guid: 5f448b5481928fb48b86537662f8d2b3, type: 3}
    - {fileID: 2800000, guid: fa7859d4173544e4a8bdab48b410e811, type: 3}
    - {fileID: 2800000, guid: 003130fb224597a4f8d4b29a0569bebf, type: 3}
    - {fileID: 2800000, guid: eb7438f70019d8a4f9ce7e84b293efde, type: 3}
    - {fileID: 2800000, guid: 52de05391aef5c1499f90f41027d1389, type: 3}
    - {fileID: 2800000, guid: 3d05cc413fd09c4438ba872bae4ba19b, type: 3}
    - {fileID: 2800000, guid: d2182a7e4bb1e8d4193a346c92bd7ac9, type: 3}
    - {fileID: 2800000, guid: ae02a4fc44405b8478c2ab99cd75900f, type: 3}
    - {fileID: 2800000, guid: 0e0a7befcc0471c49b0a7634c3aef58f, type: 3}
    - {fileID: 2800000, guid: 20e8422ba113bb44daa9b82bfc6fd2ab, type: 3}
    - {fileID: 2800000, guid: a09fbb0fd8931b44582a72e568bcd0a9, type: 3}
    - {fileID: 2800000, guid: 7e6f456cc52e5884797bc30c6818345a, type: 3}
    - {fileID: 2800000, guid: 9dfe00466d9ac3445be87cf3fd5dc430, type: 3}
    - {fileID: 2800000, guid: bfed44cfa3bea5142bfa00cdc0024bc2, type: 3}
    - {fileID: 2800000, guid: 98b39ed698315b8409757de1a9974609, type: 3}
    - {fileID: 2800000, guid: 974e27aff6ecfbc4c92cfa289cd0f336, type: 3}
    - {fileID: 2800000, guid: 6544e6204ffa432478d430c394f8219b, type: 3}
    - {fileID: 2800000, guid: 652c89229cdffd840be8a7346e410d49, type: 3}
    - {fileID: 2800000, guid: e8561164658ad674e8568f5ab463d746, type: 3}
    - {fileID: 2800000, guid: a0a3a205176034e43bb5d7b8aa93eecb, type: 3}
    - {fileID: 2800000, guid: 3441e46e501e45040a5b48bf3092feb0, type: 3}
    - {fileID: 2800000, guid: 415cd65cb627bde4c9c401e9df51ff9f, type: 3}
    - {fileID: 2800000, guid: e39766438d4015147ba1d1bb4280e713, type: 3}
    - {fileID: 2800000, guid: a3b3510eedb8a7749b7e8973c14bdb43, type: 3}
    - {fileID: 2800000, guid: 42e9e27cfa87d244e8b0949e6480f517, type: 3}
    - {fileID: 2800000, guid: 93f5aacdc8230dd44b37be5e40760c75, type: 3}
    - {fileID: 2800000, guid: d3ba65a886f2bbc4d8f0ee7273c0450a, type: 3}
    - {fileID: 2800000, guid: a3f60e0d79a0fd64db45f28991e03ad8, type: 3}
    - {fileID: 2800000, guid: 43899046ab154d44381ada62382361a2, type: 3}
    - {fileID: 2800000, guid: 8b8ad8154681e2a4aa850a903867a962, type: 3}
    - {fileID: 2800000, guid: 6064dae168330a347ac9002b82627f95, type: 3}
    - {fileID: 2800000, guid: a4739d1344a0034479672ee5d06f5fad, type: 3}
    - {fileID: 2800000, guid: aca742c9c37a359428daa0c0aabd296b, type: 3}
    - {fileID: 2800000, guid: 29a651a7dd0100447b29ed3d0c0effd0, type: 3}
    - {fileID: 2800000, guid: 27474cda43a3d8d4db2c37ccd79017e2, type: 3}
    - {fileID: 2800000, guid: 4c1997fbe34aa764fb082ac7f6fc27d6, type: 3}
    - {fileID: 2800000, guid: 3ca13320f7f64044683e84d1f837437d, type: 3}
    - {fileID: 2800000, guid: a760eae703dd3ee488ad9a9cd031185e, type: 3}
    - {fileID: 2800000, guid: 4234fe0c7da70934b9f1109c3106a23a, type: 3}
    - {fileID: 2800000, guid: e907958f5299c6040972b53d68aeae14, type: 3}
    - {fileID: 2800000, guid: ccfaa4015c42fb34997955f9ee6823d7, type: 3}
    - {fileID: 2800000, guid: 0925c61b47b8acf4da448703cdbac733, type: 3}
    - {fileID: 2800000, guid: aa34073a9f9dcab449541b796220d867, type: 3}
    - {fileID: 2800000, guid: f19bc1ac744ab1344b0d66e3c9c4897c, type: 3}
    - {fileID: 2800000, guid: b41cca987d21bcf4f802e7bd7575bfb0, type: 3}
    - {fileID: 2800000, guid: c432e39df35be884b81bfbefa22fc9bf, type: 3}
    totalSpriteSurfaceArea: 4783320
    bindAsDefault: 1
    isAtlasV2: 0
    cachedData: {fileID: 0}
  m_MasterAtlas: {fileID: 0}
  m_PackedSprites:
  - {fileID: 21300000, guid: 3ca13320f7f64044683e84d1f837437d, type: 3}
  - {fileID: 21300000, guid: 6544e6204ffa432478d430c394f8219b, type: 3}
  - {fileID: 21300000, guid: 2664e1a06010e8e4b9e9db3c768ae8e8, type: 3}
  - {fileID: 21300000, guid: ccfaa4015c42fb34997955f9ee6823d7, type: 3}
  - {fileID: 21300000, guid: 3d05cc413fd09c4438ba872bae4ba19b, type: 3}
  - {fileID: 21300000, guid: 92e91091c727b1a4d9c4e097ce4d18ef, type: 3}
  - {fileID: 21300000, guid: 6064dae168330a347ac9002b82627f95, type: 3}
  - {fileID: 21300000, guid: 652c89229cdffd840be8a7346e410d49, type: 3}
  - {fileID: 21300000, guid: 7e7535f21e239f248a1aa785f245b5fd, type: 3}
  - {fileID: 21300000, guid: a4739d1344a0034479672ee5d06f5fad, type: 3}
  - {fileID: 21300000, guid: e39766438d4015147ba1d1bb4280e713, type: 3}
  - {fileID: 21300000, guid: d1081053649f35e44bcb317486f9410a, type: 3}
  - {fileID: 21300000, guid: 5f448b5481928fb48b86537662f8d2b3, type: 3}
  - {fileID: 21300000, guid: e8561164658ad674e8568f5ab463d746, type: 3}
  - {fileID: 21300000, guid: fa7859d4173544e4a8bdab48b410e811, type: 3}
  - {fileID: 21300000, guid: a0a3a205176034e43bb5d7b8aa93eecb, type: 3}
  - {fileID: 21300000, guid: d79d88157e180504e8ccafa9d95ee4cb, type: 3}
  - {fileID: 21300000, guid: 8b8ad8154681e2a4aa850a903867a962, type: 3}
  - {fileID: 21300000, guid: c0ceca954ec7e0345a02eee28dabe791, type: 3}
  - {fileID: 21300000, guid: 9dfe00466d9ac3445be87cf3fd5dc430, type: 3}
  - {fileID: 21300000, guid: 43899046ab154d44381ada62382361a2, type: 3}
  - {fileID: 21300000, guid: 7b9625c6842e9294980af5c0d800dc5d, type: 3}
  - {fileID: 21300000, guid: 98b39ed698315b8409757de1a9974609, type: 3}
  - {fileID: 21300000, guid: f029b4e60802f404cb020acb3bdd6837, type: 3}
  - {fileID: 21300000, guid: 29a651a7dd0100447b29ed3d0c0effd0, type: 3}
  - {fileID: 21300000, guid: a760eae703dd3ee488ad9a9cd031185e, type: 3}
  - {fileID: 21300000, guid: eb7438f70019d8a4f9ce7e84b293efde, type: 3}
  - {fileID: 21300000, guid: b41cca987d21bcf4f802e7bd7575bfb0, type: 3}
  - {fileID: 21300000, guid: d3ba65a886f2bbc4d8f0ee7273c0450a, type: 3}
  - {fileID: 21300000, guid: 52de05391aef5c1499f90f41027d1389, type: 3}
  - {fileID: 21300000, guid: aca742c9c37a359428daa0c0aabd296b, type: 3}
  - {fileID: 21300000, guid: aa34073a9f9dcab449541b796220d867, type: 3}
  - {fileID: 21300000, guid: 27474cda43a3d8d4db2c37ccd79017e2, type: 3}
  - {fileID: 21300000, guid: 0925c61b47b8acf4da448703cdbac733, type: 3}
  - {fileID: 21300000, guid: 20e8422ba113bb44daa9b82bfc6fd2ab, type: 3}
  - {fileID: 21300000, guid: 542e479b9eed979478bb3b1374224b50, type: 3}
  - {fileID: 21300000, guid: 32eb28ebc0e6eda44a06692dff219d9e, type: 3}
  - {fileID: 21300000, guid: 003130fb224597a4f8d4b29a0569bebf, type: 3}
  - {fileID: 21300000, guid: 4c1997fbe34aa764fb082ac7f6fc27d6, type: 3}
  - {fileID: 21300000, guid: 4234fe0c7da70934b9f1109c3106a23a, type: 3}
  - {fileID: 21300000, guid: f013211cfff985a49ac3303a28d1ea59, type: 3}
  - {fileID: 21300000, guid: 415cd65cb627bde4c9c401e9df51ff9f, type: 3}
  - {fileID: 21300000, guid: 7e6f456cc52e5884797bc30c6818345a, type: 3}
  - {fileID: 21300000, guid: 42e9e27cfa87d244e8b0949e6480f517, type: 3}
  - {fileID: 21300000, guid: f19bc1ac744ab1344b0d66e3c9c4897c, type: 3}
  - {fileID: 21300000, guid: 02cddddcef16dca479e5add411c357f9, type: 3}
  - {fileID: 21300000, guid: ae02a4fc44405b8478c2ab99cd75900f, type: 3}
  - {fileID: 21300000, guid: a3f60e0d79a0fd64db45f28991e03ad8, type: 3}
  - {fileID: 21300000, guid: c432e39df35be884b81bfbefa22fc9bf, type: 3}
  - {fileID: 21300000, guid: 30762aadcc8fc6445afc01140c02111b, type: 3}
  - {fileID: 21300000, guid: 93f5aacdc8230dd44b37be5e40760c75, type: 3}
  - {fileID: 21300000, guid: f2e4f7fd3b321604fb8a38ff71645ae2, type: 3}
  - {fileID: 21300000, guid: a3b3510eedb8a7749b7e8973c14bdb43, type: 3}
  - {fileID: 21300000, guid: 3441e46e501e45040a5b48bf3092feb0, type: 3}
  - {fileID: 21300000, guid: d2182a7e4bb1e8d4193a346c92bd7ac9, type: 3}
  - {fileID: 21300000, guid: a09fbb0fd8931b44582a72e568bcd0a9, type: 3}
  - {fileID: 21300000, guid: e907958f5299c6040972b53d68aeae14, type: 3}
  - {fileID: 21300000, guid: 974e27aff6ecfbc4c92cfa289cd0f336, type: 3}
  - {fileID: 21300000, guid: bfed44cfa3bea5142bfa00cdc0024bc2, type: 3}
  - {fileID: 21300000, guid: 0e0a7befcc0471c49b0a7634c3aef58f, type: 3}
  m_PackedSpriteNamesToIndex:
  - Odin_00050
  - Odin_00030
  - Odin_00008
  - Odin_00054
  - Odin_00019
  - Odin_00007
  - Odin_00044
  - Odin_00031
  - Odin_00012
  - Odin_00045
  - Odin_00036
  - Odin_00011
  - Odin_00014
  - Odin_00032
  - Odin_00015
  - Odin_00033
  - Odin_00004
  - Odin_00043
  - Odin_00010
  - Odin_00026
  - Odin_00042
  - Odin_00002
  - Odin_00028
  - Odin_00001
  - Odin_00047
  - Odin_00051
  - Odin_00017
  - Odin_00058
  - Odin_00040
  - Odin_00018
  - Odin_00046
  - Odin_00056
  - Odin_00048
  - Odin_00055
  - Odin_00023
  - Odin_00013
  - Odin_00000
  - Odin_00016
  - Odin_00049
  - Odin_00052
  - Odin_00003
  - Odin_00035
  - Odin_00025
  - Odin_00038
  - Odin_00057
  - Odin_00005
  - Odin_00021
  - Odin_00041
  - Odin_00059
  - Odin_00006
  - Odin_00039
  - Odin_00009
  - Odin_00037
  - Odin_00034
  - Odin_00020
  - Odin_00024
  - Odin_00053
  - Odin_00029
  - Odin_00027
  - Odin_00022
  m_RenderDataMap: {}
  m_Tag: New Sprite Atlas
  m_IsVariant: 0
