%YAML 1.1
%TAG !u! tag:unity3d.com,2011:
--- !u!687078895 &4343727234628468602
SpriteAtlas:
  m_ObjectHideFlags: 0
  m_CorrespondingSourceObject: {fileID: 0}
  m_PrefabInstance: {fileID: 0}
  m_PrefabAsset: {fileID: 0}
  m_Name: New Sprite Atlas
  m_EditorData:
    serializedVersion: 2
    textureSettings:
      serializedVersion: 2
      anisoLevel: 1
      compressionQuality: 50
      maxTextureSize: 2048
      textureCompression: 0
      filterMode: 1
      generateMipMaps: 0
      readable: 0
      crunchedCompression: 0
      sRGB: 1
    platformSettings:
    - serializedVersion: 3
      m_BuildTarget: DefaultTexturePlatform
      m_MaxTextureSize: 2048
      m_ResizeAlgorithm: 0
      m_TextureFormat: -1
      m_TextureCompression: 1
      m_CompressionQuality: 50
      m_CrunchedCompression: 1
      m_AllowsAlphaSplitting: 0
      m_Overridden: 0
      m_AndroidETC2FallbackOverride: 0
      m_ForceMaximumCompressionQuality_BC6H_BC7: 0
    packingSettings:
      serializedVersion: 2
      padding: 2
      blockOffset: 1
      allowAlphaSplitting: 0
      enableRotation: 1
      enableTightPacking: 0
    secondaryTextureSettings: {}
    variantMultiplier: 1
    packables:
    - {fileID: 2800000, guid: f01de02d0fa46d44b898ee3fce97908d, type: 3}
    - {fileID: 2800000, guid: bc33612aafe0ae74faa330d3acb4942f, type: 3}
    - {fileID: 2800000, guid: 33301349566502b41bd33491b08e2b8f, type: 3}
    - {fileID: 2800000, guid: 5c66ece2dbdca4248beb8df32ad1f0a2, type: 3}
    - {fileID: 2800000, guid: cb459b0eb58d52c419c89ec752afe2c7, type: 3}
    - {fileID: 2800000, guid: 427cd7c29aed29141bbaaf013035ae4f, type: 3}
    - {fileID: 2800000, guid: 28abd03cb018c62459f8765febdd31bb, type: 3}
    - {fileID: 2800000, guid: bf5a7e058b2aa9040a9b046e4a82e6c6, type: 3}
    - {fileID: 2800000, guid: be42a54c66f26c04aa3844eac75320e5, type: 3}
    - {fileID: 2800000, guid: c6191562dab041a4e990be70fde9c1f4, type: 3}
    - {fileID: 2800000, guid: f70a292696b20a549b89c02a79ee45dd, type: 3}
    - {fileID: 2800000, guid: e06f31d87e7b3424e822ffb2f7a3ebda, type: 3}
    - {fileID: 2800000, guid: 8c83b6fe99bc77744a44cb466f5f3493, type: 3}
    - {fileID: 2800000, guid: 3cf3ae1cbf1bdae40a28f5edf6f33f0b, type: 3}
    - {fileID: 2800000, guid: 54cecc9e6c6b5ca4d89e94d4c01500bc, type: 3}
    - {fileID: 2800000, guid: 882429d98146fdb49a6960be23b38e6b, type: 3}
    - {fileID: 2800000, guid: 37513f82427a3b146b68416fd49cf4cc, type: 3}
    - {fileID: 2800000, guid: 82aa579763df53742be7f88841c1ef43, type: 3}
    - {fileID: 2800000, guid: 54b42d385f0b15746b3c83233f37c0e0, type: 3}
    - {fileID: 2800000, guid: 52418b44bed81154483e5e81873f4c11, type: 3}
    - {fileID: 2800000, guid: ac7e30ff8332ed843b9f3cb059153815, type: 3}
    - {fileID: 2800000, guid: c3b540f69cf77644d99027484eee1382, type: 3}
    - {fileID: 2800000, guid: af5d898b7982e3a429f81037aa0ad442, type: 3}
    - {fileID: 2800000, guid: fc2a96e4f2da2594f8dbe13889fbd2e6, type: 3}
    - {fileID: 2800000, guid: 30fbb66a31156b54fb8dcad6a520eadd, type: 3}
    - {fileID: 2800000, guid: e63b00e111658d24ea51ff5f0a7fd15d, type: 3}
    - {fileID: 2800000, guid: f28a50ce325ed9b4c92ac91cc8788120, type: 3}
    - {fileID: 2800000, guid: c4c6661f97793524693eadcdf9220637, type: 3}
    - {fileID: 2800000, guid: 87aba00cdee1be6408ea62ab8e14fd54, type: 3}
    - {fileID: 2800000, guid: a8eb5f3574678c84d984b150ffe28b4a, type: 3}
    - {fileID: 2800000, guid: 0f4e9dd05636cd04d83230dcebf455d9, type: 3}
    - {fileID: 2800000, guid: 258f394ec6c657446a3f1209c014f834, type: 3}
    - {fileID: 2800000, guid: e9ff2c3eab12c104ea85bd3e59e7bed4, type: 3}
    - {fileID: 2800000, guid: de542e30ba2cf0540a8578b0b932183a, type: 3}
    - {fileID: 2800000, guid: fabf9072089248d4f81d317caa377bf3, type: 3}
    - {fileID: 2800000, guid: c7981c565b9685b4d9d056d89b2290d7, type: 3}
    - {fileID: 2800000, guid: 7c020f1d654ec374ba691c3437be90b3, type: 3}
    - {fileID: 2800000, guid: aef5ff3acafaf854db156868a29aae89, type: 3}
    - {fileID: 2800000, guid: 264b193872f98d045ad04a2dc3882ec5, type: 3}
    totalSpriteSurfaceArea: 872216
    bindAsDefault: 1
    isAtlasV2: 0
    cachedData: {fileID: 0}
  m_MasterAtlas: {fileID: 0}
  m_PackedSprites:
  - {fileID: 21300000, guid: de542e30ba2cf0540a8578b0b932183a, type: 3}
  - {fileID: 21300000, guid: 0f4e9dd05636cd04d83230dcebf455d9, type: 3}
  - {fileID: 21300000, guid: e63b00e111658d24ea51ff5f0a7fd15d, type: 3}
  - {fileID: 21300000, guid: c6191562dab041a4e990be70fde9c1f4, type: 3}
  - {fileID: 21300000, guid: fabf9072089248d4f81d317caa377bf3, type: 3}
  - {fileID: 21300000, guid: 37513f82427a3b146b68416fd49cf4cc, type: 3}
  - {fileID: 21300000, guid: 427cd7c29aed29141bbaaf013035ae4f, type: 3}
  - {fileID: 21300000, guid: 5c66ece2dbdca4248beb8df32ad1f0a2, type: 3}
  - {fileID: 21300000, guid: 52418b44bed81154483e5e81873f4c11, type: 3}
  - {fileID: 21300000, guid: fc2a96e4f2da2594f8dbe13889fbd2e6, type: 3}
  - {fileID: 21300000, guid: bf5a7e058b2aa9040a9b046e4a82e6c6, type: 3}
  - {fileID: 21300000, guid: a8eb5f3574678c84d984b150ffe28b4a, type: 3}
  - {fileID: 21300000, guid: f70a292696b20a549b89c02a79ee45dd, type: 3}
  - {fileID: 21300000, guid: c7981c565b9685b4d9d056d89b2290d7, type: 3}
  - {fileID: 21300000, guid: c3b540f69cf77644d99027484eee1382, type: 3}
  - {fileID: 21300000, guid: 82aa579763df53742be7f88841c1ef43, type: 3}
  - {fileID: 21300000, guid: 264b193872f98d045ad04a2dc3882ec5, type: 3}
  - {fileID: 21300000, guid: 54b42d385f0b15746b3c83233f37c0e0, type: 3}
  - {fileID: 21300000, guid: e06f31d87e7b3424e822ffb2f7a3ebda, type: 3}
  - {fileID: 21300000, guid: 33301349566502b41bd33491b08e2b8f, type: 3}
  - {fileID: 21300000, guid: 882429d98146fdb49a6960be23b38e6b, type: 3}
  - {fileID: 21300000, guid: bc33612aafe0ae74faa330d3acb4942f, type: 3}
  - {fileID: 21300000, guid: aef5ff3acafaf854db156868a29aae89, type: 3}
  - {fileID: 21300000, guid: 30fbb66a31156b54fb8dcad6a520eadd, type: 3}
  - {fileID: 21300000, guid: af5d898b7982e3a429f81037aa0ad442, type: 3}
  - {fileID: 21300000, guid: 87aba00cdee1be6408ea62ab8e14fd54, type: 3}
  - {fileID: 21300000, guid: 3cf3ae1cbf1bdae40a28f5edf6f33f0b, type: 3}
  - {fileID: 21300000, guid: 28abd03cb018c62459f8765febdd31bb, type: 3}
  - {fileID: 21300000, guid: be42a54c66f26c04aa3844eac75320e5, type: 3}
  - {fileID: 21300000, guid: 7c020f1d654ec374ba691c3437be90b3, type: 3}
  - {fileID: 21300000, guid: f01de02d0fa46d44b898ee3fce97908d, type: 3}
  - {fileID: 21300000, guid: cb459b0eb58d52c419c89ec752afe2c7, type: 3}
  - {fileID: 21300000, guid: e9ff2c3eab12c104ea85bd3e59e7bed4, type: 3}
  - {fileID: 21300000, guid: 258f394ec6c657446a3f1209c014f834, type: 3}
  - {fileID: 21300000, guid: 54cecc9e6c6b5ca4d89e94d4c01500bc, type: 3}
  - {fileID: 21300000, guid: f28a50ce325ed9b4c92ac91cc8788120, type: 3}
  - {fileID: 21300000, guid: 8c83b6fe99bc77744a44cb466f5f3493, type: 3}
  - {fileID: 21300000, guid: c4c6661f97793524693eadcdf9220637, type: 3}
  - {fileID: 21300000, guid: ac7e30ff8332ed843b9f3cb059153815, type: 3}
  m_PackedSpriteNamesToIndex:
  - Asset 35
  - Asset 32
  - Asset 27
  - Asset 11
  - Asset 36
  - Asset 18
  - Asset 5
  - Asset 3
  - Asset 21
  - Asset 25
  - Asset 7
  - Asset 31
  - Asset 12
  - Asset 37
  - Asset 23
  - Asset 19
  - Asset 40
  - Asset 20
  - Asset 13
  - Asset 2
  - Asset 17
  - Asset 1
  - Asset 39
  - Asset 26
  - Asset 24
  - Asset 30
  - Asset 15
  - Asset 6
  - Asset 8
  - Asset 38
  - Asset 41
  - Asset 4
  - Asset 34
  - Asset 33
  - Asset 16
  - Asset 28
  - Asset 14
  - Asset 29
  - Asset 22
  m_RenderDataMap: {}
  m_Tag: New Sprite Atlas
  m_IsVariant: 0
