%YAML 1.1
%TAG !u! tag:unity3d.com,2011:
--- !u!687078895 &4343727234628468602
SpriteAtlas:
  m_ObjectHideFlags: 0
  m_CorrespondingSourceObject: {fileID: 0}
  m_PrefabInstance: {fileID: 0}
  m_PrefabAsset: {fileID: 0}
  m_Name: tutorial atlas
  m_EditorData:
    serializedVersion: 2
    textureSettings:
      serializedVersion: 2
      anisoLevel: 1
      compressionQuality: 50
      maxTextureSize: 2048
      textureCompression: 0
      filterMode: 1
      generateMipMaps: 0
      readable: 0
      crunchedCompression: 0
      sRGB: 1
    platformSettings:
    - serializedVersion: 3
      m_BuildTarget: DefaultTexturePlatform
      m_MaxTextureSize: 2048
      m_ResizeAlgorithm: 0
      m_TextureFormat: -1
      m_TextureCompression: 2
      m_CompressionQuality: 50
      m_CrunchedCompression: 1
      m_AllowsAlphaSplitting: 0
      m_Overridden: 0
      m_AndroidETC2FallbackOverride: 0
      m_ForceMaximumCompressionQuality_BC6H_BC7: 0
    packingSettings:
      serializedVersion: 2
      padding: 2
      blockOffset: 1
      allowAlphaSplitting: 0
      enableRotation: 1
      enableTightPacking: 0
    secondaryTextureSettings: {}
    variantMultiplier: 1
    packables:
    - {fileID: 2800000, guid: 8456137d1171f3f4cadd1284c91ba0a5, type: 3}
    - {fileID: 2800000, guid: d6c6d52fb1fc36647bf66dda8ad9d7c5, type: 3}
    - {fileID: 2800000, guid: e7384fdee22534c41a15665d1431a7e3, type: 3}
    - {fileID: 2800000, guid: e3c48790b5519774e969e0b6be419a71, type: 3}
    - {fileID: 2800000, guid: 337a1a278611c9343b2398c3f9027e47, type: 3}
    totalSpriteSurfaceArea: 1146840
    bindAsDefault: 1
    isAtlasV2: 0
    cachedData: {fileID: 0}
  m_MasterAtlas: {fileID: 0}
  m_PackedSprites:
  - {fileID: 21300000, guid: e3c48790b5519774e969e0b6be419a71, type: 3}
  - {fileID: 21300000, guid: 337a1a278611c9343b2398c3f9027e47, type: 3}
  - {fileID: 21300000, guid: 8456137d1171f3f4cadd1284c91ba0a5, type: 3}
  - {fileID: 21300000, guid: e7384fdee22534c41a15665d1431a7e3, type: 3}
  - {fileID: 21300000, guid: d6c6d52fb1fc36647bf66dda8ad9d7c5, type: 3}
  m_PackedSpriteNamesToIndex:
  - Map tutorial
  - Background Play tutorial
  - "\u0111\u1EA3o 2"
  - "\u0110\u1EA3o 3"
  - "\u0110\u1EA3o 1"
  m_RenderDataMap: {}
  m_Tag: tutorial atlas
  m_IsVariant: 0
