%YAML 1.1
%TAG !u! tag:unity3d.com,2011:
--- !u!687078895 &4343727234628468602
SpriteAtlas:
  m_ObjectHideFlags: 0
  m_CorrespondingSourceObject: {fileID: 0}
  m_PrefabInstance: {fileID: 0}
  m_PrefabAsset: {fileID: 0}
  m_Name: New Sprite Atlas
  m_EditorData:
    serializedVersion: 2
    textureSettings:
      serializedVersion: 2
      anisoLevel: 1
      compressionQuality: 50
      maxTextureSize: 2048
      textureCompression: 0
      filterMode: 1
      generateMipMaps: 0
      readable: 0
      crunchedCompression: 0
      sRGB: 1
    platformSettings:
    - serializedVersion: 3
      m_BuildTarget: DefaultTexturePlatform
      m_MaxTextureSize: 2048
      m_ResizeAlgorithm: 0
      m_TextureFormat: -1
      m_TextureCompression: 1
      m_CompressionQuality: 50
      m_CrunchedCompression: 1
      m_AllowsAlphaSplitting: 0
      m_Overridden: 0
      m_AndroidETC2FallbackOverride: 0
      m_ForceMaximumCompressionQuality_BC6H_BC7: 0
    packingSettings:
      serializedVersion: 2
      padding: 2
      blockOffset: 1
      allowAlphaSplitting: 0
      enableRotation: 1
      enableTightPacking: 0
    secondaryTextureSettings: {}
    variantMultiplier: 1
    packables:
    - {fileID: 2800000, guid: 2c2a3028e017aac47b28fc632037b2ae, type: 3}
    - {fileID: 2800000, guid: ca881a9ad2a562c4a81b2e51cedca6f5, type: 3}
    - {fileID: 2800000, guid: 2d59e73472e8c674d98d5e6c7d9195bd, type: 3}
    - {fileID: 2800000, guid: 5e826edab3aca1d44bd871ae8638c122, type: 3}
    - {fileID: 2800000, guid: d0b4d4e242803da49b67d5243baf0011, type: 3}
    - {fileID: 2800000, guid: 9d8b8101fffdf79439e1ed374dd70b76, type: 3}
    - {fileID: 2800000, guid: 10c0cb211f80a9a49ab34ce4046f9712, type: 3}
    - {fileID: 2800000, guid: 8958c045fb5c4944e92bad8ce3f9302d, type: 3}
    - {fileID: 2800000, guid: 3ef30dbd0317352448a01485cbda9c43, type: 3}
    - {fileID: 2800000, guid: 529012d8141e01343807666687565580, type: 3}
    - {fileID: 2800000, guid: d7f5b616035f4a74eb2a212021203fdf, type: 3}
    - {fileID: 2800000, guid: 1dd95b3007e42054a8bb8cadff196db9, type: 3}
    - {fileID: 2800000, guid: 869b0d91542fe8f49941499f7b235200, type: 3}
    - {fileID: 2800000, guid: 9cb35d27bdfed31478206043909bf575, type: 3}
    - {fileID: 2800000, guid: 05ce41ce5d259f94f9a5142e0556f204, type: 3}
    - {fileID: 2800000, guid: 9739ff4998f694643a05624e734ee0d3, type: 3}
    - {fileID: 2800000, guid: d9fae473b9135114fb497589d4f92532, type: 3}
    - {fileID: 2800000, guid: 690d6c5b98aba7143a9849f0c54484d7, type: 3}
    - {fileID: 2800000, guid: ed7588435b590574386e69ff584a9424, type: 3}
    - {fileID: 2800000, guid: 2a7cb55318421ab449c77b89b2505fc8, type: 3}
    - {fileID: 2800000, guid: 80f5d563a824ce34883be33a8c86c88f, type: 3}
    - {fileID: 2800000, guid: 6c974468af7cefe4bbfdbf88a6831843, type: 3}
    - {fileID: 2800000, guid: 45ce4f9732b730748a5e42234ad0d682, type: 3}
    - {fileID: 2800000, guid: bcf51d99fc415fa428fe06d335ffcd0f, type: 3}
    - {fileID: 2800000, guid: 3e922aed4d382ba46a04915cb76dd161, type: 3}
    - {fileID: 2800000, guid: 8ed67dce3090ad240850e4cd9c6e8020, type: 3}
    - {fileID: 2800000, guid: 0bb204e0bcfe70e4e9830e585dbe8ff0, type: 3}
    - {fileID: 2800000, guid: 96353dd64f0e3dd439a4fe125899b382, type: 3}
    - {fileID: 2800000, guid: 5592e423c87c7b144881f229759ae2cc, type: 3}
    - {fileID: 2800000, guid: 859fa23c99d45d3409eff5281d70c485, type: 3}
    - {fileID: 2800000, guid: d71c18b097641d24d9bccbc63005cedd, type: 3}
    - {fileID: 2800000, guid: 5c25a92731efc0f4daba668bfec8d8f4, type: 3}
    - {fileID: 2800000, guid: 11db53bb67e24af4c866cdb95815b61c, type: 3}
    - {fileID: 2800000, guid: 429941c2be5ebeb41bf499d27d6e6d7f, type: 3}
    - {fileID: 2800000, guid: c3f7adbd412f6ed4883e935407502ab3, type: 3}
    - {fileID: 2800000, guid: 492ae4d407785be43a3c96eebaeaea73, type: 3}
    - {fileID: 2800000, guid: 9a6530fbb8835e84c921cd8165ec5c88, type: 3}
    - {fileID: 2800000, guid: 4dd3de0662f4fb14eab601512fe01a3a, type: 3}
    - {fileID: 2800000, guid: 428c21870e712ec4f94c6ca9feefb57b, type: 3}
    - {fileID: 2800000, guid: 0b1b0ad88a7a0b04dbabb05a0b4147cf, type: 3}
    - {fileID: 2800000, guid: bb8f3445395ba8f40830f280f55873f8, type: 3}
    - {fileID: 2800000, guid: d926fd69cbeea8644a51d9f232f08967, type: 3}
    - {fileID: 2800000, guid: d6e70513a44a3294ca5c46de03c7c412, type: 3}
    - {fileID: 2800000, guid: 716af04bb23fbc54f9303673b378206f, type: 3}
    - {fileID: 2800000, guid: ddf2abf8b6829d64d9a158c46aec894c, type: 3}
    - {fileID: 2800000, guid: df27f3a40575f2e4ba5cc57c6397e6f3, type: 3}
    - {fileID: 2800000, guid: 6ede70ada6b47464b8d7e1f8e34c5ffc, type: 3}
    - {fileID: 2800000, guid: e173e3b2633799a4dbe8c81041f749b2, type: 3}
    - {fileID: 2800000, guid: cb67c242984f4a14babe9c036caa45a7, type: 3}
    - {fileID: 2800000, guid: 80847e7953cda3049b8cf272e87a32a3, type: 3}
    - {fileID: 2800000, guid: 20e569073c69d28438589a3a19d3dde4, type: 3}
    - {fileID: 2800000, guid: 2026f746a4f7d7e438138d1f4b05e2c0, type: 3}
    - {fileID: 2800000, guid: 2a6bde98c90146b468455ae3b65503ab, type: 3}
    - {fileID: 2800000, guid: a2c0f95af3ad44e40bcf6449d698e71b, type: 3}
    - {fileID: 2800000, guid: 42c5e8808d6098d429d1b7197f634480, type: 3}
    - {fileID: 2800000, guid: 28a9ee9bc53d9c946a01c2e283c28ea9, type: 3}
    - {fileID: 2800000, guid: f85e485395be3d5438a3724340f9576e, type: 3}
    - {fileID: 2800000, guid: ac7772dd5827e874f8f24eb47fd856d5, type: 3}
    - {fileID: 2800000, guid: 1d21321441df2f94bad477b5d535bd8a, type: 3}
    - {fileID: 2800000, guid: 7c85cff598666db4094747d323be315d, type: 3}
    - {fileID: 2800000, guid: 0229bfdbee2096242aa8f18c79b3b4ad, type: 3}
    - {fileID: 2800000, guid: 9076e3ef7882f804899943282025715c, type: 3}
    - {fileID: 2800000, guid: 1114a2bbdaa1bc94fa26fbf0369109f1, type: 3}
    - {fileID: 2800000, guid: db3592824d64ebb4bb3388369540600d, type: 3}
    - {fileID: 2800000, guid: ec2288231fd02c046990f475fdb60b87, type: 3}
    - {fileID: 2800000, guid: 92ff04743e4cd0940896c13b6fc04c7a, type: 3}
    - {fileID: 2800000, guid: 93cabd22b734e494b9abfb215e510dcf, type: 3}
    - {fileID: 2800000, guid: 898ee0544fb355a4e8ece60c96ab346b, type: 3}
    - {fileID: 2800000, guid: dc2563b94507bba41b45de28c2dd5559, type: 3}
    - {fileID: 2800000, guid: 7cc47950e1f9c964dac38883a9a0daad, type: 3}
    - {fileID: 2800000, guid: d098b2a99ce08f746ad3d61a1ab68480, type: 3}
    - {fileID: 2800000, guid: aca2e433d7ecd7b4b8d010a8c7c2d5d5, type: 3}
    - {fileID: 2800000, guid: a50fac936ac4fd04f8d4e64366caa72e, type: 3}
    - {fileID: 2800000, guid: 35aa033156c0449479d8a60811cc3b88, type: 3}
    - {fileID: 2800000, guid: 32f99eb511f09f54499107e22d022d65, type: 3}
    - {fileID: 2800000, guid: 99a6bb08ad165154ca6f5cd39e0a3801, type: 3}
    - {fileID: 2800000, guid: e51741713eba0fa4e87c4855c79c3a66, type: 3}
    - {fileID: 2800000, guid: f28a740b303fda447a13f4d4104df328, type: 3}
    - {fileID: 2800000, guid: 14d2b91e433cf5c4c916c7a6cf0263f0, type: 3}
    - {fileID: 2800000, guid: f3776000835eaa84fae2c0fb2ed48b69, type: 3}
    - {fileID: 2800000, guid: 41e88f2d5123e8142826609fff669066, type: 3}
    - {fileID: 2800000, guid: 7b29b3ce74d34914c84e67e8d104f065, type: 3}
    - {fileID: 2800000, guid: 4b34a784a76f7b5469ab44c727fe805d, type: 3}
    - {fileID: 2800000, guid: bd969eb9f7b36594ea6edf27ec903904, type: 3}
    - {fileID: 2800000, guid: 82a7cef757c693d4baed1ad02c962f81, type: 3}
    - {fileID: 2800000, guid: 6147bf4ddbc7365428cafd2f7142f0ed, type: 3}
    - {fileID: 2800000, guid: 2c91c9a009dbbec4bba4a74d621f5883, type: 3}
    - {fileID: 2800000, guid: b8305c5aa2d6ca345b8cedb632c1da5c, type: 3}
    - {fileID: 2800000, guid: 7b5b0494cb85f324198713de5e1e9a8c, type: 3}
    - {fileID: 2800000, guid: 0a56a19ed5156ba48948630a1374b07f, type: 3}
    - {fileID: 2800000, guid: a5e66887e9044674aa55ef1c96d45008, type: 3}
    - {fileID: 2800000, guid: 9e607df13c9e25141a50ddebe6ad0b91, type: 3}
    - {fileID: 2800000, guid: c1f38bb17f768d84c9e707c7800bd21f, type: 3}
    - {fileID: 2800000, guid: 69ec52009760b054b9268d4bdf9d1285, type: 3}
    - {fileID: 2800000, guid: d7fd2286ddbdecb45ab91dca2955509b, type: 3}
    - {fileID: 2800000, guid: d28bf08845670a740882f27cdc63d1b9, type: 3}
    - {fileID: 2800000, guid: d3b9d311ca07e5c4f90e2a1665aa03a0, type: 3}
    - {fileID: 2800000, guid: ebeb183086db892449b2fe4e7748797c, type: 3}
    - {fileID: 2800000, guid: 60d30329b1a92b645b2b674023b4b505, type: 3}
    - {fileID: 2800000, guid: 81e8f66a689a9994bbd1ed90edadf0be, type: 3}
    - {fileID: 2800000, guid: bd0bd30c77e870a47ab93ae316dceaf9, type: 3}
    - {fileID: 2800000, guid: 13c8255572f311a4aae7917c58d24edd, type: 3}
    - {fileID: 2800000, guid: 63c09007c860be2418e904c33762b10f, type: 3}
    - {fileID: 2800000, guid: 66b33c48699053546a3425fc8d0b3f12, type: 3}
    - {fileID: 2800000, guid: 7f98fb3d9687fbe44bb5ca3671dfbc72, type: 3}
    - {fileID: 2800000, guid: e2acb8f93c950764e8dae2f034e48dfa, type: 3}
    - {fileID: 2800000, guid: e05c653055fe3e8468ac598edcf1fe1f, type: 3}
    - {fileID: 2800000, guid: c334e63f7177c0e46b3bcdf0a406aa61, type: 3}
    - {fileID: 2800000, guid: bc808f9532d7599448838af07711686d, type: 3}
    - {fileID: 2800000, guid: 5a7ee246a12416044b7e7ccf7d4843a6, type: 3}
    - {fileID: 2800000, guid: e21610a4176ed544d936c2104687de75, type: 3}
    - {fileID: 2800000, guid: 140e8013bc0d5d84287583a2065bc1b4, type: 3}
    - {fileID: 2800000, guid: 0cba0467132ac8e4384dfddea09659b5, type: 3}
    - {fileID: 2800000, guid: b994f449e192fc848abe5600c760eeb1, type: 3}
    - {fileID: 2800000, guid: 503f51a354a0a204cb62f53df3beb5f9, type: 3}
    - {fileID: 2800000, guid: d311ae8dd68ff274fa4fb00bc1bd9cb8, type: 3}
    - {fileID: 2800000, guid: fe4523f06cab8f14389d940e9d693e7c, type: 3}
    - {fileID: 2800000, guid: 52d84d9c6ae216b4e92447485bd2a726, type: 3}
    - {fileID: 2800000, guid: 90f0124d151dcf94487f90d0b3750fa3, type: 3}
    - {fileID: 2800000, guid: 8e4c1782d0ce52140bddfdea7b5d7208, type: 3}
    totalSpriteSurfaceArea: 354355200
    bindAsDefault: 1
    isAtlasV2: 0
    cachedData: {fileID: 0}
  m_MasterAtlas: {fileID: 0}
  m_PackedSprites:
  - {fileID: 21300000, guid: f3776000835eaa84fae2c0fb2ed48b69, type: 3}
  - {fileID: 21300000, guid: 69ec52009760b054b9268d4bdf9d1285, type: 3}
  - {fileID: 21300000, guid: e05c653055fe3e8468ac598edcf1fe1f, type: 3}
  - {fileID: 21300000, guid: ebeb183086db892449b2fe4e7748797c, type: 3}
  - {fileID: 21300000, guid: 1dd95b3007e42054a8bb8cadff196db9, type: 3}
  - {fileID: 21300000, guid: 7cc47950e1f9c964dac38883a9a0daad, type: 3}
  - {fileID: 21300000, guid: 42c5e8808d6098d429d1b7197f634480, type: 3}
  - {fileID: 21300000, guid: 2c91c9a009dbbec4bba4a74d621f5883, type: 3}
  - {fileID: 21300000, guid: d71c18b097641d24d9bccbc63005cedd, type: 3}
  - {fileID: 21300000, guid: 0bb204e0bcfe70e4e9830e585dbe8ff0, type: 3}
  - {fileID: 21300000, guid: fe4523f06cab8f14389d940e9d693e7c, type: 3}
  - {fileID: 21300000, guid: 9d8b8101fffdf79439e1ed374dd70b76, type: 3}
  - {fileID: 21300000, guid: d3b9d311ca07e5c4f90e2a1665aa03a0, type: 3}
  - {fileID: 21300000, guid: 10c0cb211f80a9a49ab34ce4046f9712, type: 3}
  - {fileID: 21300000, guid: 35aa033156c0449479d8a60811cc3b88, type: 3}
  - {fileID: 21300000, guid: e51741713eba0fa4e87c4855c79c3a66, type: 3}
  - {fileID: 21300000, guid: 869b0d91542fe8f49941499f7b235200, type: 3}
  - {fileID: 21300000, guid: c1f38bb17f768d84c9e707c7800bd21f, type: 3}
  - {fileID: 21300000, guid: 9e607df13c9e25141a50ddebe6ad0b91, type: 3}
  - {fileID: 21300000, guid: 93cabd22b734e494b9abfb215e510dcf, type: 3}
  - {fileID: 21300000, guid: cb67c242984f4a14babe9c036caa45a7, type: 3}
  - {fileID: 21300000, guid: db3592824d64ebb4bb3388369540600d, type: 3}
  - {fileID: 21300000, guid: 8e4c1782d0ce52140bddfdea7b5d7208, type: 3}
  - {fileID: 21300000, guid: e173e3b2633799a4dbe8c81041f749b2, type: 3}
  - {fileID: 21300000, guid: 429941c2be5ebeb41bf499d27d6e6d7f, type: 3}
  - {fileID: 21300000, guid: d0b4d4e242803da49b67d5243baf0011, type: 3}
  - {fileID: 21300000, guid: 140e8013bc0d5d84287583a2065bc1b4, type: 3}
  - {fileID: 21300000, guid: d6e70513a44a3294ca5c46de03c7c412, type: 3}
  - {fileID: 21300000, guid: 5592e423c87c7b144881f229759ae2cc, type: 3}
  - {fileID: 21300000, guid: ec2288231fd02c046990f475fdb60b87, type: 3}
  - {fileID: 21300000, guid: aca2e433d7ecd7b4b8d010a8c7c2d5d5, type: 3}
  - {fileID: 21300000, guid: ed7588435b590574386e69ff584a9424, type: 3}
  - {fileID: 21300000, guid: 2a7cb55318421ab449c77b89b2505fc8, type: 3}
  - {fileID: 21300000, guid: f85e485395be3d5438a3724340f9576e, type: 3}
  - {fileID: 21300000, guid: 80f5d563a824ce34883be33a8c86c88f, type: 3}
  - {fileID: 21300000, guid: d9fae473b9135114fb497589d4f92532, type: 3}
  - {fileID: 21300000, guid: a50fac936ac4fd04f8d4e64366caa72e, type: 3}
  - {fileID: 21300000, guid: 503f51a354a0a204cb62f53df3beb5f9, type: 3}
  - {fileID: 21300000, guid: 1d21321441df2f94bad477b5d535bd8a, type: 3}
  - {fileID: 21300000, guid: 2d59e73472e8c674d98d5e6c7d9195bd, type: 3}
  - {fileID: 21300000, guid: 898ee0544fb355a4e8ece60c96ab346b, type: 3}
  - {fileID: 21300000, guid: 92ff04743e4cd0940896c13b6fc04c7a, type: 3}
  - {fileID: 21300000, guid: 4b34a784a76f7b5469ab44c727fe805d, type: 3}
  - {fileID: 21300000, guid: 7b5b0494cb85f324198713de5e1e9a8c, type: 3}
  - {fileID: 21300000, guid: e21610a4176ed544d936c2104687de75, type: 3}
  - {fileID: 21300000, guid: df27f3a40575f2e4ba5cc57c6397e6f3, type: 3}
  - {fileID: 21300000, guid: 492ae4d407785be43a3c96eebaeaea73, type: 3}
  - {fileID: 21300000, guid: 8958c045fb5c4944e92bad8ce3f9302d, type: 3}
  - {fileID: 21300000, guid: bb8f3445395ba8f40830f280f55873f8, type: 3}
  - {fileID: 21300000, guid: 13c8255572f311a4aae7917c58d24edd, type: 3}
  - {fileID: 21300000, guid: bc808f9532d7599448838af07711686d, type: 3}
  - {fileID: 21300000, guid: 32f99eb511f09f54499107e22d022d65, type: 3}
  - {fileID: 21300000, guid: 7c85cff598666db4094747d323be315d, type: 3}
  - {fileID: 21300000, guid: 4dd3de0662f4fb14eab601512fe01a3a, type: 3}
  - {fileID: 21300000, guid: d7f5b616035f4a74eb2a212021203fdf, type: 3}
  - {fileID: 21300000, guid: 5a7ee246a12416044b7e7ccf7d4843a6, type: 3}
  - {fileID: 21300000, guid: 2026f746a4f7d7e438138d1f4b05e2c0, type: 3}
  - {fileID: 21300000, guid: d7fd2286ddbdecb45ab91dca2955509b, type: 3}
  - {fileID: 21300000, guid: 96353dd64f0e3dd439a4fe125899b382, type: 3}
  - {fileID: 21300000, guid: 63c09007c860be2418e904c33762b10f, type: 3}
  - {fileID: 21300000, guid: 20e569073c69d28438589a3a19d3dde4, type: 3}
  - {fileID: 21300000, guid: 5c25a92731efc0f4daba668bfec8d8f4, type: 3}
  - {fileID: 21300000, guid: 9cb35d27bdfed31478206043909bf575, type: 3}
  - {fileID: 21300000, guid: 0cba0467132ac8e4384dfddea09659b5, type: 3}
  - {fileID: 21300000, guid: 428c21870e712ec4f94c6ca9feefb57b, type: 3}
  - {fileID: 21300000, guid: a5e66887e9044674aa55ef1c96d45008, type: 3}
  - {fileID: 21300000, guid: 45ce4f9732b730748a5e42234ad0d682, type: 3}
  - {fileID: 21300000, guid: 82a7cef757c693d4baed1ad02c962f81, type: 3}
  - {fileID: 21300000, guid: 99a6bb08ad165154ca6f5cd39e0a3801, type: 3}
  - {fileID: 21300000, guid: 2c2a3028e017aac47b28fc632037b2ae, type: 3}
  - {fileID: 21300000, guid: 66b33c48699053546a3425fc8d0b3f12, type: 3}
  - {fileID: 21300000, guid: 6c974468af7cefe4bbfdbf88a6831843, type: 3}
  - {fileID: 21300000, guid: d28bf08845670a740882f27cdc63d1b9, type: 3}
  - {fileID: 21300000, guid: 2a6bde98c90146b468455ae3b65503ab, type: 3}
  - {fileID: 21300000, guid: 529012d8141e01343807666687565580, type: 3}
  - {fileID: 21300000, guid: 0b1b0ad88a7a0b04dbabb05a0b4147cf, type: 3}
  - {fileID: 21300000, guid: ddf2abf8b6829d64d9a158c46aec894c, type: 3}
  - {fileID: 21300000, guid: 60d30329b1a92b645b2b674023b4b505, type: 3}
  - {fileID: 21300000, guid: b994f449e192fc848abe5600c760eeb1, type: 3}
  - {fileID: 21300000, guid: 9739ff4998f694643a05624e734ee0d3, type: 3}
  - {fileID: 21300000, guid: d926fd69cbeea8644a51d9f232f08967, type: 3}
  - {fileID: 21300000, guid: 80847e7953cda3049b8cf272e87a32a3, type: 3}
  - {fileID: 21300000, guid: bcf51d99fc415fa428fe06d335ffcd0f, type: 3}
  - {fileID: 21300000, guid: d098b2a99ce08f746ad3d61a1ab68480, type: 3}
  - {fileID: 21300000, guid: dc2563b94507bba41b45de28c2dd5559, type: 3}
  - {fileID: 21300000, guid: bd969eb9f7b36594ea6edf27ec903904, type: 3}
  - {fileID: 21300000, guid: e2acb8f93c950764e8dae2f034e48dfa, type: 3}
  - {fileID: 21300000, guid: a2c0f95af3ad44e40bcf6449d698e71b, type: 3}
  - {fileID: 21300000, guid: b8305c5aa2d6ca345b8cedb632c1da5c, type: 3}
  - {fileID: 21300000, guid: 81e8f66a689a9994bbd1ed90edadf0be, type: 3}
  - {fileID: 21300000, guid: ca881a9ad2a562c4a81b2e51cedca6f5, type: 3}
  - {fileID: 21300000, guid: 5e826edab3aca1d44bd871ae8638c122, type: 3}
  - {fileID: 21300000, guid: f28a740b303fda447a13f4d4104df328, type: 3}
  - {fileID: 21300000, guid: 716af04bb23fbc54f9303673b378206f, type: 3}
  - {fileID: 21300000, guid: 690d6c5b98aba7143a9849f0c54484d7, type: 3}
  - {fileID: 21300000, guid: 28a9ee9bc53d9c946a01c2e283c28ea9, type: 3}
  - {fileID: 21300000, guid: 1114a2bbdaa1bc94fa26fbf0369109f1, type: 3}
  - {fileID: 21300000, guid: 11db53bb67e24af4c866cdb95815b61c, type: 3}
  - {fileID: 21300000, guid: 0229bfdbee2096242aa8f18c79b3b4ad, type: 3}
  - {fileID: 21300000, guid: 9a6530fbb8835e84c921cd8165ec5c88, type: 3}
  - {fileID: 21300000, guid: bd0bd30c77e870a47ab93ae316dceaf9, type: 3}
  - {fileID: 21300000, guid: 859fa23c99d45d3409eff5281d70c485, type: 3}
  - {fileID: 21300000, guid: 52d84d9c6ae216b4e92447485bd2a726, type: 3}
  - {fileID: 21300000, guid: 41e88f2d5123e8142826609fff669066, type: 3}
  - {fileID: 21300000, guid: 7f98fb3d9687fbe44bb5ca3671dfbc72, type: 3}
  - {fileID: 21300000, guid: 90f0124d151dcf94487f90d0b3750fa3, type: 3}
  - {fileID: 21300000, guid: 6147bf4ddbc7365428cafd2f7142f0ed, type: 3}
  - {fileID: 21300000, guid: d311ae8dd68ff274fa4fb00bc1bd9cb8, type: 3}
  - {fileID: 21300000, guid: 6ede70ada6b47464b8d7e1f8e34c5ffc, type: 3}
  - {fileID: 21300000, guid: 3ef30dbd0317352448a01485cbda9c43, type: 3}
  - {fileID: 21300000, guid: c3f7adbd412f6ed4883e935407502ab3, type: 3}
  - {fileID: 21300000, guid: ac7772dd5827e874f8f24eb47fd856d5, type: 3}
  - {fileID: 21300000, guid: 3e922aed4d382ba46a04915cb76dd161, type: 3}
  - {fileID: 21300000, guid: 14d2b91e433cf5c4c916c7a6cf0263f0, type: 3}
  - {fileID: 21300000, guid: 0a56a19ed5156ba48948630a1374b07f, type: 3}
  - {fileID: 21300000, guid: 05ce41ce5d259f94f9a5142e0556f204, type: 3}
  - {fileID: 21300000, guid: 7b29b3ce74d34914c84e67e8d104f065, type: 3}
  - {fileID: 21300000, guid: 8ed67dce3090ad240850e4cd9c6e8020, type: 3}
  - {fileID: 21300000, guid: c334e63f7177c0e46b3bcdf0a406aa61, type: 3}
  - {fileID: 21300000, guid: 9076e3ef7882f804899943282025715c, type: 3}
  m_PackedSpriteNamesToIndex:
  - anubisdung im_00078
  - anubisdung im_00092
  - anubisdung im_00105
  - anubisdung im_00096
  - anubisdung im_00010
  - anubisdung im_00068
  - anubisdung im_00053
  - anubisdung im_00085
  - anubisdung im_00029
  - anubisdung im_00025
  - anubisdung im_00115
  - anubisdung im_00004
  - anubisdung im_00095
  - anubisdung im_00005
  - anubisdung im_00072
  - anubisdung im_00075
  - anubisdung im_00011
  - anubisdung im_00091
  - anubisdung im_00090
  - anubisdung im_00065
  - anubisdung im_00047
  - anubisdung im_00062
  - anubisdung im_00118
  - anubisdung im_00046
  - anubisdung im_00032
  - anubisdung im_00003
  - anubisdung im_00110
  - anubisdung im_00041
  - anubisdung im_00027
  - anubisdung im_00063
  - anubisdung im_00070
  - anubisdung im_00017
  - anubisdung im_00018
  - anubisdung im_00055
  - anubisdung im_00019
  - anubisdung im_00015
  - anubisdung im_00071
  - anubisdung im_00113
  - anubisdung im_00057
  - anubisdung im_00001
  - anubisdung im_00066
  - anubisdung im_00064
  - anubisdung im_00081
  - anubisdung im_00087
  - anubisdung im_00109
  - anubisdung im_00044
  - anubisdung im_00034
  - anubisdung im_00006
  - anubisdung im_00039
  - anubisdung im_00100
  - anubisdung im_00107
  - anubisdung im_00073
  - anubisdung im_00058
  - anubisdung im_00036
  - anubisdung im_00009
  - anubisdung im_00108
  - anubisdung im_00050
  - anubisdung im_00093
  - anubisdung im_00026
  - anubisdung im_00101
  - anubisdung im_00049
  - anubisdung im_00030
  - anubisdung im_00012
  - anubisdung im_00111
  - anubisdung im_00037
  - anubisdung im_00089
  - anubisdung im_00021
  - anubisdung im_00083
  - anubisdung im_00074
  - anubisdung im_00119
  - anubisdung im_00102
  - anubisdung im_00020
  - anubisdung im_00094
  - anubisdung im_00051
  - anubisdung im_00008
  - anubisdung im_00038
  - anubisdung im_00043
  - anubisdung im_00097
  - anubisdung im_00112
  - anubisdung im_00014
  - anubisdung im_00040
  - anubisdung im_00048
  - anubisdung im_00022
  - anubisdung im_00069
  - anubisdung im_00067
  - anubisdung im_00082
  - anubisdung im_00104
  - anubisdung im_00052
  - anubisdung im_00086
  - anubisdung im_00098
  - anubisdung im_00000
  - anubisdung im_00002
  - anubisdung im_00076
  - anubisdung im_00042
  - anubisdung im_00016
  - anubisdung im_00054
  - anubisdung im_00061
  - anubisdung im_00031
  - anubisdung im_00059
  - anubisdung im_00035
  - anubisdung im_00099
  - anubisdung im_00028
  - anubisdung im_00116
  - anubisdung im_00079
  - anubisdung im_00103
  - anubisdung im_00117
  - anubisdung im_00084
  - anubisdung im_00114
  - anubisdung im_00045
  - anubisdung im_00007
  - anubisdung im_00033
  - anubisdung im_00056
  - anubisdung im_00023
  - anubisdung im_00077
  - anubisdung im_00088
  - anubisdung im_00013
  - anubisdung im_00080
  - anubisdung im_00024
  - anubisdung im_00106
  - anubisdung im_00060
  m_RenderDataMap: {}
  m_Tag: New Sprite Atlas
  m_IsVariant: 0
