%YAML 1.1
%TAG !u! tag:unity3d.com,2011:
--- !u!114 &11400000
MonoBehaviour:
  m_ObjectHideFlags: 0
  m_CorrespondingSourceObject: {fileID: 0}
  m_PrefabInstance: {fileID: 0}
  m_PrefabAsset: {fileID: 0}
  m_GameObject: {fileID: 0}
  m_Enabled: 1
  m_EditorHideFlags: 0
  m_Script: {fileID: 11500000, guid: b045a2f189eb4f5995499b6907e939f5, type: 3}
  m_Name: Asgard Stone
  m_EditorClassIdentifier: 
  icon: {fileID: 4475936245777615809, guid: fe9332dc8b3f6234e945d2d84a690528, type: 3}
  id: 3d10031b-0077-4b08-bc4d-8fc0fc90a1a2
  description: 
  itemType: 7
  level: 0
  star: 0
  price: 0
  speed: 0
  defense: 0
