%YAML 1.1
%TAG !u! tag:unity3d.com,2011:
--- !u!114 &11400000
MonoBehaviour:
  m_ObjectHideFlags: 0
  m_CorrespondingSourceObject: {fileID: 0}
  m_PrefabInstance: {fileID: 0}
  m_PrefabAsset: {fileID: 0}
  m_GameObject: {fileID: 0}
  m_Enabled: 1
  m_EditorHideFlags: 0
  m_Script: {fileID: 11500000, guid: b045a2f189eb4f5995499b6907e939f5, type: 3}
  m_Name: Day cuong nandi
  m_EditorClassIdentifier: 
  icon: {fileID: 21300000, guid: 964e347eafba84b4885f82d58ae636ea, type: 3}
  id: 1d2fdd9a-297e-445f-9713-5cff15cc7b48
  description: 
  itemType: 7
  level: 0
  star: 0
  price: 0
  speed: 0
  defense: 0
