%YAML 1.1
%TAG !u! tag:unity3d.com,2011:
--- !u!114 &11400000
MonoBehaviour:
  m_ObjectHideFlags: 0
  m_CorrespondingSourceObject: {fileID: 0}
  m_PrefabInstance: {fileID: 0}
  m_PrefabAsset: {fileID: 0}
  m_GameObject: {fileID: 0}
  m_Enabled: 1
  m_EditorHideFlags: 0
  m_Script: {fileID: 11500000, guid: ffcc26ac2b9a47199fb2ba40069c48bf, type: 3}
  m_Name: Quest Viking 1
  m_EditorClassIdentifier: 
  rewards:
  - rewards:
    - item: {fileID: 11400000, guid: b375868a23d3a914c9897d9c616212b5, type: 2}
      amount: 3
      drop: 100
    - item: {fileID: 11400000, guid: 01873848a924d1b429d1700937bd4e1d, type: 2}
      amount: 10
      drop: 100
    drop: 100
    random: 0
  requires:
  - itemRequire: {fileID: 11400000, guid: b0d8b911da6de324e89044d0ecab7041, type: 2}
    requireAmount: 10
    currentAmount: 0
  listQuestType: 0
  questType: 0
  id: 9311cf8b-cc7d-4d5b-8e74-906cd6efc2ee
  title: "NHI\u1EC6M V\u1EE4 \u0110\u1EA6U L\xC2U"
  description: "10 \u0110\u1EA6U L\xC2U"
  daily: 1
  received: 0
