%YAML 1.1
%TAG !u! tag:unity3d.com,2011:
--- !u!114 &11400000
MonoBehaviour:
  m_ObjectHideFlags: 0
  m_CorrespondingSourceObject: {fileID: 0}
  m_PrefabInstance: {fileID: 0}
  m_PrefabAsset: {fileID: 0}
  m_GameObject: {fileID: 0}
  m_Enabled: 1
  m_EditorHideFlags: 0
  m_Script: {fileID: 11500000, guid: 2a97ccdf23d39b446a25e5206bdb0cae, type: 3}
  m_Name: Level Tutorial 2
  m_EditorClassIdentifier: 
  icon: {fileID: 0}
  id: 71e05e9b-5a46-41de-8cfe-2f2cdef5246a
  description: 
  requires: []
  rewards:
  - item: {fileID: 11400000, guid: bd2c487ca6a516340bfa02d8785b7111, type: 2}
    amount: 400
    drop: 100
  - item: {fileID: 11400000, guid: 0791074866de5a540a766097be77678e, type: 2}
    amount: 1
    drop: 100
  clip: {fileID: 8300000, guid: 674a94b96c0e83949960864fc3e31046, type: 3}
  prefab: {fileID: 8830654008074310897, guid: 7ad8610307116dd48a5245faada3032b, type: 3}
  level: 2
  energy: 5
  time: 60
  gold1: 2000
  gold2: 2100
  completed: 0
