%YAML 1.1
%TAG !u! tag:unity3d.com,2011:
--- !u!687078895 &4343727234628468602
SpriteAtlas:
  m_ObjectHideFlags: 0
  m_CorrespondingSourceObject: {fileID: 0}
  m_PrefabInstance: {fileID: 0}
  m_PrefabAsset: {fileID: 0}
  m_Name: New Sprite Atlas
  m_EditorData:
    serializedVersion: 2
    textureSettings:
      serializedVersion: 2
      anisoLevel: 1
      compressionQuality: 50
      maxTextureSize: 2048
      textureCompression: 0
      filterMode: 1
      generateMipMaps: 0
      readable: 0
      crunchedCompression: 0
      sRGB: 1
    platformSettings:
    - serializedVersion: 3
      m_BuildTarget: DefaultTexturePlatform
      m_MaxTextureSize: 2048
      m_ResizeAlgorithm: 0
      m_TextureFormat: -1
      m_TextureCompression: 1
      m_CompressionQuality: 50
      m_CrunchedCompression: 1
      m_AllowsAlphaSplitting: 0
      m_Overridden: 0
      m_AndroidETC2FallbackOverride: 0
      m_ForceMaximumCompressionQuality_BC6H_BC7: 0
    packingSettings:
      serializedVersion: 2
      padding: 2
      blockOffset: 1
      allowAlphaSplitting: 0
      enableRotation: 1
      enableTightPacking: 0
    secondaryTextureSettings: {}
    variantMultiplier: 1
    packables:
    - {fileID: 2800000, guid: 4cbe11c72671297438c0bf7fdd24a8d6, type: 3}
    - {fileID: 2800000, guid: 496a98143db4bcb4092f48c2944aeef9, type: 3}
    - {fileID: 2800000, guid: 23dc215d698db81478f2fb7ebe3cddb9, type: 3}
    - {fileID: 2800000, guid: 840387d88a1b9d54193c8db4ac789637, type: 3}
    - {fileID: 2800000, guid: d9af31a6f49e6ba4594f08350cda4a85, type: 3}
    - {fileID: 2800000, guid: 95cb2e2c0d6a51d4f86559eaf5a3c998, type: 3}
    - {fileID: 2800000, guid: 469b944f8086c4d4690086ab625fad4d, type: 3}
    - {fileID: 2800000, guid: e2f0fc172a0b6b446bbab020781ecbc6, type: 3}
    - {fileID: 2800000, guid: 25ea73a4c5e15b84ab9f32d7d950018a, type: 3}
    - {fileID: 2800000, guid: 4f2313c63efaa0349b4e7b97ffcac078, type: 3}
    - {fileID: 2800000, guid: 00a7b22196ca9ad489f1ea14659a32c1, type: 3}
    - {fileID: 2800000, guid: 0a2d9a0af405f0940bd615698ccf4c71, type: 3}
    - {fileID: 2800000, guid: 95fa95375a91baa42be272917c6956f4, type: 3}
    - {fileID: 2800000, guid: 7532b3cf069ee0e40992b8866ad91eab, type: 3}
    - {fileID: 2800000, guid: a248905653ab6e948b14eb9f20aef448, type: 3}
    - {fileID: 2800000, guid: f2c2788e80c36ff4693fd7e2b41e18f9, type: 3}
    - {fileID: 2800000, guid: 0c487af684bf6bb40a9421c83cfe6fec, type: 3}
    - {fileID: 2800000, guid: 2cb91ce8faf62334687b6b281deb67ce, type: 3}
    - {fileID: 2800000, guid: 4d4a7fba85660054293a3eb837adab16, type: 3}
    - {fileID: 2800000, guid: 1105d8995402ffd44af0a8a134641af3, type: 3}
    - {fileID: 2800000, guid: e0880d7cb48756c4eafab48509bf9eeb, type: 3}
    - {fileID: 2800000, guid: b01b4da112e85b14c8285a34c450298c, type: 3}
    - {fileID: 2800000, guid: 2d8967428ae2bf04d9afcafae17ad9d2, type: 3}
    - {fileID: 2800000, guid: 72bab995c6c9b9946ac33a51fed04756, type: 3}
    - {fileID: 2800000, guid: 98f5dd74201d37b49bb05328f07764f5, type: 3}
    - {fileID: 2800000, guid: be6383fdd29fafd4cb370007173d8cf1, type: 3}
    - {fileID: 2800000, guid: 72bc887cf39241d42acdf59b1aac8c08, type: 3}
    - {fileID: 2800000, guid: 00b98f58ea7601d458bc079118a218af, type: 3}
    - {fileID: 2800000, guid: 4600e9c28236fc340b44e830f2fb349f, type: 3}
    - {fileID: 2800000, guid: 9cb6127f0c5effb40a11502489441cee, type: 3}
    - {fileID: 2800000, guid: a9cebb5272ae55f41a28f629338dabad, type: 3}
    - {fileID: 2800000, guid: 1555f3a1f57094f42b702de714e4c4cf, type: 3}
    - {fileID: 2800000, guid: 0125f6423802bb541a492e06ff2e556c, type: 3}
    - {fileID: 2800000, guid: 3c652f902cc802d4bb39a86c8c06ebf0, type: 3}
    - {fileID: 2800000, guid: 2d75075541603f948a567bae0c5c0db6, type: 3}
    - {fileID: 2800000, guid: 3ae07ab104274e04cb14deb33222e6be, type: 3}
    - {fileID: 2800000, guid: 14d3f253d1ad6c947adde872f024a2d1, type: 3}
    - {fileID: 2800000, guid: ebd7189a5b790d949b63395a7ed4baee, type: 3}
    - {fileID: 2800000, guid: badc2a532fb87d243b291e4a8fdf4cd1, type: 3}
    - {fileID: 2800000, guid: 67da48b73704d1b41a98a5e7b2b009dc, type: 3}
    - {fileID: 2800000, guid: 6ffe3e41264c88144b23a4d40168bee6, type: 3}
    - {fileID: 2800000, guid: 591f51620d32e8e4280cfc72c8b52130, type: 3}
    - {fileID: 2800000, guid: 76f2ad20c702b694c85c76740f8f803a, type: 3}
    - {fileID: 2800000, guid: 23bd5f93939196a4c8090dad05785f10, type: 3}
    totalSpriteSurfaceArea: 8995326
    bindAsDefault: 1
    isAtlasV2: 0
    cachedData: {fileID: 0}
  m_MasterAtlas: {fileID: 0}
  m_PackedSprites:
  - {fileID: 21300000, guid: 76f2ad20c702b694c85c76740f8f803a, type: 3}
  - {fileID: 21300000, guid: 3c652f902cc802d4bb39a86c8c06ebf0, type: 3}
  - {fileID: 21300000, guid: 00a7b22196ca9ad489f1ea14659a32c1, type: 3}
  - {fileID: 21300000, guid: 6ffe3e41264c88144b23a4d40168bee6, type: 3}
  - {fileID: 21300000, guid: 1555f3a1f57094f42b702de714e4c4cf, type: 3}
  - {fileID: 21300000, guid: b01b4da112e85b14c8285a34c450298c, type: 3}
  - {fileID: 21300000, guid: 3ae07ab104274e04cb14deb33222e6be, type: 3}
  - {fileID: 21300000, guid: 0125f6423802bb541a492e06ff2e556c, type: 3}
  - {fileID: 21300000, guid: 2d8967428ae2bf04d9afcafae17ad9d2, type: 3}
  - {fileID: 21300000, guid: a9cebb5272ae55f41a28f629338dabad, type: 3}
  - {fileID: 21300000, guid: 591f51620d32e8e4280cfc72c8b52130, type: 3}
  - {fileID: 21300000, guid: 4600e9c28236fc340b44e830f2fb349f, type: 3}
  - {fileID: 21300000, guid: 14d3f253d1ad6c947adde872f024a2d1, type: 3}
  - {fileID: 21300000, guid: badc2a532fb87d243b291e4a8fdf4cd1, type: 3}
  - {fileID: 21300000, guid: 23bd5f93939196a4c8090dad05785f10, type: 3}
  - {fileID: 21300000, guid: 496a98143db4bcb4092f48c2944aeef9, type: 3}
  - {fileID: 21300000, guid: 98f5dd74201d37b49bb05328f07764f5, type: 3}
  - {fileID: 21300000, guid: 25ea73a4c5e15b84ab9f32d7d950018a, type: 3}
  - {fileID: 21300000, guid: 2d75075541603f948a567bae0c5c0db6, type: 3}
  - {fileID: 21300000, guid: 72bab995c6c9b9946ac33a51fed04756, type: 3}
  - {fileID: 21300000, guid: a248905653ab6e948b14eb9f20aef448, type: 3}
  - {fileID: 21300000, guid: d9af31a6f49e6ba4594f08350cda4a85, type: 3}
  - {fileID: 21300000, guid: 4f2313c63efaa0349b4e7b97ffcac078, type: 3}
  - {fileID: 21300000, guid: 0c487af684bf6bb40a9421c83cfe6fec, type: 3}
  - {fileID: 21300000, guid: e2f0fc172a0b6b446bbab020781ecbc6, type: 3}
  - {fileID: 21300000, guid: 95fa95375a91baa42be272917c6956f4, type: 3}
  - {fileID: 21300000, guid: 67da48b73704d1b41a98a5e7b2b009dc, type: 3}
  - {fileID: 21300000, guid: 4cbe11c72671297438c0bf7fdd24a8d6, type: 3}
  - {fileID: 21300000, guid: 00b98f58ea7601d458bc079118a218af, type: 3}
  - {fileID: 21300000, guid: 840387d88a1b9d54193c8db4ac789637, type: 3}
  - {fileID: 21300000, guid: 2cb91ce8faf62334687b6b281deb67ce, type: 3}
  - {fileID: 21300000, guid: 1105d8995402ffd44af0a8a134641af3, type: 3}
  - {fileID: 21300000, guid: 0a2d9a0af405f0940bd615698ccf4c71, type: 3}
  - {fileID: 21300000, guid: ebd7189a5b790d949b63395a7ed4baee, type: 3}
  - {fileID: 21300000, guid: 4d4a7fba85660054293a3eb837adab16, type: 3}
  - {fileID: 21300000, guid: 95cb2e2c0d6a51d4f86559eaf5a3c998, type: 3}
  - {fileID: 21300000, guid: 72bc887cf39241d42acdf59b1aac8c08, type: 3}
  - {fileID: 21300000, guid: e0880d7cb48756c4eafab48509bf9eeb, type: 3}
  - {fileID: 21300000, guid: 23dc215d698db81478f2fb7ebe3cddb9, type: 3}
  - {fileID: 21300000, guid: be6383fdd29fafd4cb370007173d8cf1, type: 3}
  - {fileID: 21300000, guid: f2c2788e80c36ff4693fd7e2b41e18f9, type: 3}
  - {fileID: 21300000, guid: 469b944f8086c4d4690086ab625fad4d, type: 3}
  - {fileID: 21300000, guid: 9cb6127f0c5effb40a11502489441cee, type: 3}
  - {fileID: 21300000, guid: 7532b3cf069ee0e40992b8866ad91eab, type: 3}
  m_PackedSpriteNamesToIndex:
  - Asset 376
  - Asset 367
  - Asset 36
  - Asset 374
  - Asset 364
  - Asset 51
  - Asset 369
  - Asset 366
  - Asset 272
  - Asset 362
  - Asset 375
  - Asset 360
  - Asset 370
  - Asset 372
  - Asset 377
  - 1Asset 27
  - Asset 352
  - Asset 32
  - Asset 368
  - Asset 282
  - Asset 42
  - Asset 2-7
  - Asset 35
  - Asset 44
  - Asset 31
  - Asset 39
  - Asset 373
  - Asset 378
  - Asset 359
  - 1Asset 29
  - Asset 45
  - Asset 49
  - Asset 37
  - Asset 371
  - Asset 46
  - Asset 27
  - Asset 354
  - Asset 50
  - 1Asset 28
  - Asset 353
  - Asset 43
  - Asset 30
  - Asset 361
  - Asset 42-2
  m_RenderDataMap: {}
  m_Tag: New Sprite Atlas
  m_IsVariant: 0
