%YAML 1.1
%TAG !u! tag:unity3d.com,2011:
--- !u!687078895 &4343727234628468602
SpriteAtlas:
  m_ObjectHideFlags: 0
  m_CorrespondingSourceObject: {fileID: 0}
  m_PrefabInstance: {fileID: 0}
  m_PrefabAsset: {fileID: 0}
  m_Name: New Sprite Atlas
  m_EditorData:
    serializedVersion: 2
    textureSettings:
      serializedVersion: 2
      anisoLevel: 1
      compressionQuality: 50
      maxTextureSize: 2048
      textureCompression: 0
      filterMode: 1
      generateMipMaps: 0
      readable: 0
      crunchedCompression: 0
      sRGB: 1
    platformSettings:
    - serializedVersion: 3
      m_BuildTarget: DefaultTexturePlatform
      m_MaxTextureSize: 2048
      m_ResizeAlgorithm: 0
      m_TextureFormat: -1
      m_TextureCompression: 1
      m_CompressionQuality: 50
      m_CrunchedCompression: 1
      m_AllowsAlphaSplitting: 0
      m_Overridden: 0
      m_AndroidETC2FallbackOverride: 0
      m_ForceMaximumCompressionQuality_BC6H_BC7: 0
    packingSettings:
      serializedVersion: 2
      padding: 2
      blockOffset: 1
      allowAlphaSplitting: 0
      enableRotation: 1
      enableTightPacking: 0
    secondaryTextureSettings: {}
    variantMultiplier: 1
    packables:
    - {fileID: 2800000, guid: fc7dc9be1e0e02844b9ec44eca503ce6, type: 3}
    - {fileID: 2800000, guid: f3fc8266d5327fb4687ca5959cec062e, type: 3}
    - {fileID: 2800000, guid: d6a50f5f15170e34fb6eed603007217b, type: 3}
    - {fileID: 2800000, guid: 3a2dc6d1b55abb042ab97598a0ded73c, type: 3}
    - {fileID: 2800000, guid: 769a9d82bed95794f99550dcd8b98f01, type: 3}
    - {fileID: 2800000, guid: 59eea98585d08024d958525b05d79a64, type: 3}
    - {fileID: 2800000, guid: efe54b6e8a72c6b4eb56fcb67690760e, type: 3}
    - {fileID: 2800000, guid: 2a350462be6023542bb80998d757ab5f, type: 3}
    - {fileID: 2800000, guid: 32ab4aa06e50ae14a8ed8c1217987da5, type: 3}
    - {fileID: 2800000, guid: c9c9235bcf0d3284ca28e097f6c57970, type: 3}
    - {fileID: 2800000, guid: 9bf4429b5c683b848a7953e6209d865b, type: 3}
    - {fileID: 2800000, guid: 4e5c945f6bc12024dbc634adb9fc18f1, type: 3}
    - {fileID: 2800000, guid: 3afadc039643a7045aeb1dd0fd3f9125, type: 3}
    - {fileID: 2800000, guid: 709c040cf76c36e4fb29cffd23f9713c, type: 3}
    - {fileID: 2800000, guid: dd6d5f89341361e48b19e7a4887b2d34, type: 3}
    - {fileID: 2800000, guid: f7eabbb8f6f67fe47b82ddc5a524e15e, type: 3}
    - {fileID: 2800000, guid: fdde72899db58f44faa112f237e4a2d9, type: 3}
    - {fileID: 2800000, guid: 0fe51fee67daf9943b15c7f34bb2ad0c, type: 3}
    - {fileID: 2800000, guid: f2b6faf9acf8f9b4085d64b67c881fa1, type: 3}
    - {fileID: 2800000, guid: 9e987b85a0c823d499fcf5f968b23d51, type: 3}
    - {fileID: 2800000, guid: 2de0e5c81cdf1a2429db9e317a44eeb7, type: 3}
    - {fileID: 2800000, guid: dc98131599756f04998f1fb0f198225b, type: 3}
    totalSpriteSurfaceArea: 45619200
    bindAsDefault: 1
    isAtlasV2: 0
    cachedData: {fileID: 0}
  m_MasterAtlas: {fileID: 0}
  m_PackedSprites:
  - {fileID: 21300000, guid: 32ab4aa06e50ae14a8ed8c1217987da5, type: 3}
  - {fileID: 21300000, guid: 3a2dc6d1b55abb042ab97598a0ded73c, type: 3}
  - {fileID: 21300000, guid: 2a350462be6023542bb80998d757ab5f, type: 3}
  - {fileID: 21300000, guid: 769a9d82bed95794f99550dcd8b98f01, type: 3}
  - {fileID: 21300000, guid: 3afadc039643a7045aeb1dd0fd3f9125, type: 3}
  - {fileID: 21300000, guid: dc98131599756f04998f1fb0f198225b, type: 3}
  - {fileID: 21300000, guid: 59eea98585d08024d958525b05d79a64, type: 3}
  - {fileID: 21300000, guid: 9e987b85a0c823d499fcf5f968b23d51, type: 3}
  - {fileID: 21300000, guid: f3fc8266d5327fb4687ca5959cec062e, type: 3}
  - {fileID: 21300000, guid: f7eabbb8f6f67fe47b82ddc5a524e15e, type: 3}
  - {fileID: 21300000, guid: 2de0e5c81cdf1a2429db9e317a44eeb7, type: 3}
  - {fileID: 21300000, guid: fdde72899db58f44faa112f237e4a2d9, type: 3}
  - {fileID: 21300000, guid: dd6d5f89341361e48b19e7a4887b2d34, type: 3}
  - {fileID: 21300000, guid: f2b6faf9acf8f9b4085d64b67c881fa1, type: 3}
  - {fileID: 21300000, guid: c9c9235bcf0d3284ca28e097f6c57970, type: 3}
  - {fileID: 21300000, guid: 9bf4429b5c683b848a7953e6209d865b, type: 3}
  - {fileID: 21300000, guid: 709c040cf76c36e4fb29cffd23f9713c, type: 3}
  - {fileID: 21300000, guid: efe54b6e8a72c6b4eb56fcb67690760e, type: 3}
  - {fileID: 21300000, guid: fc7dc9be1e0e02844b9ec44eca503ce6, type: 3}
  - {fileID: 21300000, guid: 0fe51fee67daf9943b15c7f34bb2ad0c, type: 3}
  - {fileID: 21300000, guid: 4e5c945f6bc12024dbc634adb9fc18f1, type: 3}
  - {fileID: 21300000, guid: d6a50f5f15170e34fb6eed603007217b, type: 3}
  m_PackedSpriteNamesToIndex:
  - Fenrir-sua_00125
  - Fenrir-sua_00120
  - Fenrir-sua_00124
  - Fenrir-sua_00121
  - Fenrir-sua_00129
  - Fenrir-sua_00138
  - Fenrir-sua_00122
  - Fenrir-sua_00136
  - Fenrir-sua_00118
  - Fenrir-sua_00132
  - Fenrir-sua_00137
  - Fenrir-sua_00133
  - Fenrir-sua_00131
  - Fenrir-sua_00135
  - Fenrir-sua_00126
  - Fenrir-sua_00127
  - Fenrir-sua_00130
  - Fenrir-sua_00123
  - Fenrir-sua_00139
  - Fenrir-sua_00134
  - Fenrir-sua_00128
  - Fenrir-sua_00119
  m_RenderDataMap: {}
  m_Tag: New Sprite Atlas
  m_IsVariant: 0
