%YAML 1.1
%TAG !u! tag:unity3d.com,2011:
--- !u!114 &11400000
MonoBehaviour:
  m_ObjectHideFlags: 0
  m_CorrespondingSourceObject: {fileID: 0}
  m_PrefabInstance: {fileID: 0}
  m_PrefabAsset: {fileID: 0}
  m_GameObject: {fileID: 0}
  m_Enabled: 1
  m_EditorHideFlags: 0
  m_Script: {fileID: 11500000, guid: 2a97ccdf23d39b446a25e5206bdb0cae, type: 3}
  m_Name: Level Atlantic 7
  m_EditorClassIdentifier: 
  icon: {fileID: 0}
  id: 3e4cd945-5a2a-4267-a30b-817acbfda5f4
  description: 
  requires: []
  rewards:
  - item: {fileID: 11400000, guid: bd2c487ca6a516340bfa02d8785b7111, type: 2}
    amount: 6500
    drop: 100
  - item: {fileID: 11400000, guid: b9177de6ccc12e24ebc71aedfbcf4ef1, type: 2}
    amount: 1
    drop: 100
  clip: {fileID: 8300000, guid: 28d4864ad767c4a468db49fcc7bec655, type: 3}
  prefab: {fileID: 2056764099668184759, guid: ed6b656591318e944892fee3e24a110c, type: 3}
  level: 40
  energy: 72
  time: 72
  gold1: 35000
  gold2: 36000
  completed: 0
