%YAML 1.1
%TAG !u! tag:unity3d.com,2011:
--- !u!114 &11400000
MonoBehaviour:
  m_ObjectHideFlags: 0
  m_CorrespondingSourceObject: {fileID: 0}
  m_PrefabInstance: {fileID: 0}
  m_PrefabAsset: {fileID: 0}
  m_GameObject: {fileID: 0}
  m_Enabled: 1
  m_EditorHideFlags: 0
  m_Script: {fileID: 11500000, guid: 2a97ccdf23d39b446a25e5206bdb0cae, type: 3}
  m_Name: Level Atlantic 5
  m_EditorClassIdentifier: 
  icon: {fileID: 0}
  id: 11d514ae-8e04-4649-a7e8-4629453243d0
  description: 
  requires: []
  rewards:
  - item: {fileID: 11400000, guid: bd2c487ca6a516340bfa02d8785b7111, type: 2}
    amount: 3500
    drop: 100
  - item: {fileID: 11400000, guid: 4b4118f13a853b64d9ce72b1b3a68ee1, type: 2}
    amount: 1
    drop: 100
  clip: {fileID: 8300000, guid: 28d4864ad767c4a468db49fcc7bec655, type: 3}
  prefab: {fileID: 2056764099668184759, guid: c58d49bf7f298214ea05aaf7f8beea87, type: 3}
  level: 38
  energy: 5
  time: 60
  gold1: 20000
  gold2: 21000
  completed: 0
