%YAML 1.1
%TAG !u! tag:unity3d.com,2011:
--- !u!114 &11400000
MonoBehaviour:
  m_ObjectHideFlags: 0
  m_CorrespondingSourceObject: {fileID: 0}
  m_PrefabInstance: {fileID: 0}
  m_PrefabAsset: {fileID: 0}
  m_GameObject: {fileID: 0}
  m_Enabled: 1
  m_EditorHideFlags: 0
  m_Script: {fileID: 11500000, guid: 2a97ccdf23d39b446a25e5206bdb0cae, type: 3}
  m_Name: Level Atlantic 2
  m_EditorClassIdentifier: 
  icon: {fileID: 0}
  id: cbb80823-3931-4f2d-984a-e2a6336401da
  description: 
  requires: []
  rewards:
  - item: {fileID: 11400000, guid: bd2c487ca6a516340bfa02d8785b7111, type: 2}
    amount: 3000
    drop: 100
  - item: {fileID: 11400000, guid: 337ce3b987a410843ba8c3fd8e2bf5c8, type: 2}
    amount: 1
    drop: 100
  clip: {fileID: 8300000, guid: 28d4864ad767c4a468db49fcc7bec655, type: 3}
  prefab: {fileID: 2056764099668184759, guid: 0e9223e154b640c429ac820f7446a683, type: 3}
  level: 35
  energy: 5
  time: 60
  gold1: 14000
  gold2: 15000
  completed: 0
