%YAML 1.1
%TAG !u! tag:unity3d.com,2011:
--- !u!114 &11400000
MonoBehaviour:
  m_ObjectHideFlags: 0
  m_CorrespondingSourceObject: {fileID: 0}
  m_PrefabInstance: {fileID: 0}
  m_PrefabAsset: {fileID: 0}
  m_GameObject: {fileID: 0}
  m_Enabled: 1
  m_EditorHideFlags: 0
  m_Script: {fileID: 11500000, guid: d7db433b51414c7db1e97d05ea5dc356, type: 3}
  m_Name: Skin Pharaoh
  m_EditorClassIdentifier: 
  id: a40108f2-55a7-48f5-9bf0-9cb34024419c
  itemType: 6
  icon: {fileID: 21300000, guid: 46624ecca40a5694bb1a52b699cd68b8, type: 3}
  price: 0
  description: 
  iconEquip: {fileID: 0}
  material: {fileID: 0}
  special:
    items:
    - {fileID: 11400000, guid: 9175e51bc898e184b8cea460ea035229, type: 2}
    - {fileID: 11400000, guid: 037f80396ddc9d04db805585bb533f2c, type: 2}
    strength: 100
    pullSpeed: 0
    flySpeed: 0
    timerWhenDiamondBack: 0
    timerWhenGoldBack: 0
    damageToBoss: 0
    percentDamageToBoss: 0
    resourcePoint: 0
  strength: 0
  pullSpeed: 0
  stoneSpeed: 0
  flySpeed: 0
  goldWhenBack: 0
  timerWhenDiamondBack: 2
  timerWhenGoldBack: 1
  timerWhenStoneBack: 0
  damageToBoss: 0
  percentDamageToBoss: 0
  percentWinBoss: 0
  percentDestroyItem: 0
  stonePoint: 0
  resourcePoint: 8
  tntFree: 0
  strengthFree: 0
  seconds: 0
  secondWins: 0
