%YAML 1.1
%TAG !u! tag:unity3d.com,2011:
--- !u!687078895 &4343727234628468602
SpriteAtlas:
  m_ObjectHideFlags: 0
  m_CorrespondingSourceObject: {fileID: 0}
  m_PrefabInstance: {fileID: 0}
  m_PrefabAsset: {fileID: 0}
  m_Name: New Sprite Atlas
  m_EditorData:
    serializedVersion: 2
    textureSettings:
      serializedVersion: 2
      anisoLevel: 1
      compressionQuality: 50
      maxTextureSize: 2048
      textureCompression: 0
      filterMode: 1
      generateMipMaps: 0
      readable: 0
      crunchedCompression: 0
      sRGB: 1
    platformSettings:
    - serializedVersion: 3
      m_BuildTarget: DefaultTexturePlatform
      m_MaxTextureSize: 2048
      m_ResizeAlgorithm: 0
      m_TextureFormat: -1
      m_TextureCompression: 1
      m_CompressionQuality: 50
      m_CrunchedCompression: 1
      m_AllowsAlphaSplitting: 0
      m_Overridden: 0
      m_AndroidETC2FallbackOverride: 0
      m_ForceMaximumCompressionQuality_BC6H_BC7: 0
    packingSettings:
      serializedVersion: 2
      padding: 2
      blockOffset: 1
      allowAlphaSplitting: 0
      enableRotation: 1
      enableTightPacking: 0
    secondaryTextureSettings: {}
    variantMultiplier: 1
    packables:
    - {fileID: 2800000, guid: 585d9a67c68f06341a2ebb695bea7345, type: 3}
    - {fileID: 2800000, guid: 602ee1d318ce6c644b0fd82bff369728, type: 3}
    - {fileID: 2800000, guid: ccbca1cbd9beb754ab3258879a7ab18f, type: 3}
    - {fileID: 2800000, guid: f35813752eb100f47854a03eba12b0aa, type: 3}
    - {fileID: 2800000, guid: df33d5ee26b84cb448e1a7345b189b0e, type: 3}
    - {fileID: 2800000, guid: 0169ed128677c7646891d774163d43f4, type: 3}
    - {fileID: 2800000, guid: 2254eeaf5c86b0445b60fbfcaf8056d0, type: 3}
    - {fileID: 2800000, guid: 1d09dd75075976d4ca34c8a6f5d4c378, type: 3}
    - {fileID: 2800000, guid: 31418b15597d2504095c189f895a3f23, type: 3}
    - {fileID: 2800000, guid: efa4526bcaa86994384b720fd64c23d9, type: 3}
    - {fileID: 2800000, guid: ecd8ec4f075b15a4ab9d7d7d74023cae, type: 3}
    - {fileID: 2800000, guid: 96ad46a3af2518244b22fcd8b19985e3, type: 3}
    - {fileID: 2800000, guid: ec4bfe06057a82a499103ca7670f3ce3, type: 3}
    - {fileID: 2800000, guid: e56cbb731b94c484fba751e5df77cf2b, type: 3}
    - {fileID: 2800000, guid: 5c9aacdacaa7b5343a45322bd19c277d, type: 3}
    - {fileID: 2800000, guid: a954a8db140ea514cb13ede34a588ea5, type: 3}
    - {fileID: 2800000, guid: bdcaba7c791de7640926f7b511549930, type: 3}
    - {fileID: 2800000, guid: 268ce8abc77982d47b90f64fdc98a033, type: 3}
    - {fileID: 2800000, guid: 739a93150fb8efe4393c5cf04c010fea, type: 3}
    - {fileID: 2800000, guid: 10701c7f9880f6f49a5ee241ab7a23d5, type: 3}
    - {fileID: 2800000, guid: 872f339f635334243b4784d442202652, type: 3}
    - {fileID: 2800000, guid: fee20087dc5ed8a49b34eade471b862e, type: 3}
    - {fileID: 2800000, guid: 034cbaa8b774ce14d8abfd961c933a99, type: 3}
    - {fileID: 2800000, guid: 76c380d1c535d524fb4b9618324a7ddd, type: 3}
    - {fileID: 2800000, guid: 63772156cb38efa4aaf7c36922183c00, type: 3}
    - {fileID: 2800000, guid: 422d8cb62f5e3aa488376bb554cb2415, type: 3}
    - {fileID: 2800000, guid: d7985f2f6ed716c4d93c5512a7f80591, type: 3}
    - {fileID: 2800000, guid: 023d8697de2a13c4ca45f0c34996f33b, type: 3}
    - {fileID: 2800000, guid: fea7cfa656ee5a147963a3ffb041958f, type: 3}
    - {fileID: 2800000, guid: 1a27eebaf04dea54392b173f7eaf2614, type: 3}
    - {fileID: 2800000, guid: 5506200e451ab1746a85f0b91bc019f7, type: 3}
    - {fileID: 2800000, guid: 58109641a67b9fc43be6d01335a96970, type: 3}
    - {fileID: 2800000, guid: f3ee2fa82d21af14f93acc1815dae529, type: 3}
    - {fileID: 2800000, guid: d22802baa9d059b42abf20867570e54e, type: 3}
    - {fileID: 2800000, guid: 27b2542ba9930dc4c928a7591621c7b8, type: 3}
    - {fileID: 2800000, guid: 7eb7d2a8fd83450408b8147f62b56fd7, type: 3}
    - {fileID: 2800000, guid: a4479483893d5634380942dda983fdf9, type: 3}
    - {fileID: 2800000, guid: 7a399d5a313cf294b90f173e973d9937, type: 3}
    - {fileID: 2800000, guid: f27c5df8ad2a1674784ea3873a1abacc, type: 3}
    - {fileID: 2800000, guid: 1f20c03d4bdad314aa7adda07c1884a0, type: 3}
    - {fileID: 2800000, guid: 90b1e4fb89faf1a49b33e1a1f42b79b9, type: 3}
    - {fileID: 2800000, guid: 4354e4b73e11dff4ab89689777d2efce, type: 3}
    - {fileID: 2800000, guid: 95f336d6bd33f364da99e53c0212a67e, type: 3}
    - {fileID: 2800000, guid: a863d5b5e1b6daa468e1e9d7f91fba24, type: 3}
    - {fileID: 2800000, guid: 6cd179b8510ad844d9f08eccee39cab7, type: 3}
    - {fileID: 2800000, guid: 196bc309a8228f446a9f0f1841992391, type: 3}
    - {fileID: 2800000, guid: f33cbb02a352f45499e2fa8e33a9818a, type: 3}
    - {fileID: 2800000, guid: aceba221e101af2498e9c3c669126233, type: 3}
    - {fileID: 2800000, guid: 8a3edd794d1bf1a499ece883a2eac9cc, type: 3}
    - {fileID: 2800000, guid: 0e7a37c954f5bde4883f8c630d4d8aad, type: 3}
    - {fileID: 2800000, guid: 11296fc53f03fc34eaaa8cba0ac3ebc7, type: 3}
    - {fileID: 2800000, guid: fddda8927acc5814f8b0c14b7369ab9d, type: 3}
    - {fileID: 2800000, guid: fda3866a3fba2b14495117715186b396, type: 3}
    - {fileID: 2800000, guid: 3c4526f01be6a5744a29191fa5bbb04a, type: 3}
    - {fileID: 2800000, guid: af1cbe7f6e543d94790c802ffdae3d0e, type: 3}
    - {fileID: 2800000, guid: d63a2779ef22e434c9b4836b7a85e80d, type: 3}
    - {fileID: 2800000, guid: 0a9b2aa7343b3b548a519d7862f7253f, type: 3}
    - {fileID: 2800000, guid: acf9c1b48f809f3449eba8bd28f0de25, type: 3}
    - {fileID: 2800000, guid: 294728054a3ea43449095433b92f1b08, type: 3}
    - {fileID: 2800000, guid: 9f5f13f259dfc6444b290c1012ba3473, type: 3}
    totalSpriteSurfaceArea: 4070400
    bindAsDefault: 1
    isAtlasV2: 0
    cachedData: {fileID: 0}
  m_MasterAtlas: {fileID: 0}
  m_PackedSprites:
  - {fileID: 21300000, guid: 3c4526f01be6a5744a29191fa5bbb04a, type: 3}
  - {fileID: 21300000, guid: aceba221e101af2498e9c3c669126233, type: 3}
  - {fileID: 21300000, guid: 58109641a67b9fc43be6d01335a96970, type: 3}
  - {fileID: 21300000, guid: 76c380d1c535d524fb4b9618324a7ddd, type: 3}
  - {fileID: 21300000, guid: f33cbb02a352f45499e2fa8e33a9818a, type: 3}
  - {fileID: 21300000, guid: 0169ed128677c7646891d774163d43f4, type: 3}
  - {fileID: 21300000, guid: fddda8927acc5814f8b0c14b7369ab9d, type: 3}
  - {fileID: 21300000, guid: 9f5f13f259dfc6444b290c1012ba3473, type: 3}
  - {fileID: 21300000, guid: e56cbb731b94c484fba751e5df77cf2b, type: 3}
  - {fileID: 21300000, guid: a4479483893d5634380942dda983fdf9, type: 3}
  - {fileID: 21300000, guid: 96ad46a3af2518244b22fcd8b19985e3, type: 3}
  - {fileID: 21300000, guid: 602ee1d318ce6c644b0fd82bff369728, type: 3}
  - {fileID: 21300000, guid: acf9c1b48f809f3449eba8bd28f0de25, type: 3}
  - {fileID: 21300000, guid: 294728054a3ea43449095433b92f1b08, type: 3}
  - {fileID: 21300000, guid: 739a93150fb8efe4393c5cf04c010fea, type: 3}
  - {fileID: 21300000, guid: 31418b15597d2504095c189f895a3f23, type: 3}
  - {fileID: 21300000, guid: f35813752eb100f47854a03eba12b0aa, type: 3}
  - {fileID: 21300000, guid: 1d09dd75075976d4ca34c8a6f5d4c378, type: 3}
  - {fileID: 21300000, guid: a863d5b5e1b6daa468e1e9d7f91fba24, type: 3}
  - {fileID: 21300000, guid: 11296fc53f03fc34eaaa8cba0ac3ebc7, type: 3}
  - {fileID: 21300000, guid: ec4bfe06057a82a499103ca7670f3ce3, type: 3}
  - {fileID: 21300000, guid: 63772156cb38efa4aaf7c36922183c00, type: 3}
  - {fileID: 21300000, guid: fea7cfa656ee5a147963a3ffb041958f, type: 3}
  - {fileID: 21300000, guid: 422d8cb62f5e3aa488376bb554cb2415, type: 3}
  - {fileID: 21300000, guid: 95f336d6bd33f364da99e53c0212a67e, type: 3}
  - {fileID: 21300000, guid: 585d9a67c68f06341a2ebb695bea7345, type: 3}
  - {fileID: 21300000, guid: fee20087dc5ed8a49b34eade471b862e, type: 3}
  - {fileID: 21300000, guid: 023d8697de2a13c4ca45f0c34996f33b, type: 3}
  - {fileID: 21300000, guid: 0a9b2aa7343b3b548a519d7862f7253f, type: 3}
  - {fileID: 21300000, guid: 4354e4b73e11dff4ab89689777d2efce, type: 3}
  - {fileID: 21300000, guid: 7eb7d2a8fd83450408b8147f62b56fd7, type: 3}
  - {fileID: 21300000, guid: 034cbaa8b774ce14d8abfd961c933a99, type: 3}
  - {fileID: 21300000, guid: f3ee2fa82d21af14f93acc1815dae529, type: 3}
  - {fileID: 21300000, guid: 6cd179b8510ad844d9f08eccee39cab7, type: 3}
  - {fileID: 21300000, guid: f27c5df8ad2a1674784ea3873a1abacc, type: 3}
  - {fileID: 21300000, guid: 196bc309a8228f446a9f0f1841992391, type: 3}
  - {fileID: 21300000, guid: d63a2779ef22e434c9b4836b7a85e80d, type: 3}
  - {fileID: 21300000, guid: 8a3edd794d1bf1a499ece883a2eac9cc, type: 3}
  - {fileID: 21300000, guid: 0e7a37c954f5bde4883f8c630d4d8aad, type: 3}
  - {fileID: 21300000, guid: 7a399d5a313cf294b90f173e973d9937, type: 3}
  - {fileID: 21300000, guid: fda3866a3fba2b14495117715186b396, type: 3}
  - {fileID: 21300000, guid: d22802baa9d059b42abf20867570e54e, type: 3}
  - {fileID: 21300000, guid: 1a27eebaf04dea54392b173f7eaf2614, type: 3}
  - {fileID: 21300000, guid: 5c9aacdacaa7b5343a45322bd19c277d, type: 3}
  - {fileID: 21300000, guid: 27b2542ba9930dc4c928a7591621c7b8, type: 3}
  - {fileID: 21300000, guid: efa4526bcaa86994384b720fd64c23d9, type: 3}
  - {fileID: 21300000, guid: 268ce8abc77982d47b90f64fdc98a033, type: 3}
  - {fileID: 21300000, guid: ccbca1cbd9beb754ab3258879a7ab18f, type: 3}
  - {fileID: 21300000, guid: a954a8db140ea514cb13ede34a588ea5, type: 3}
  - {fileID: 21300000, guid: 90b1e4fb89faf1a49b33e1a1f42b79b9, type: 3}
  - {fileID: 21300000, guid: bdcaba7c791de7640926f7b511549930, type: 3}
  - {fileID: 21300000, guid: 1f20c03d4bdad314aa7adda07c1884a0, type: 3}
  - {fileID: 21300000, guid: 5506200e451ab1746a85f0b91bc019f7, type: 3}
  - {fileID: 21300000, guid: df33d5ee26b84cb448e1a7345b189b0e, type: 3}
  - {fileID: 21300000, guid: d7985f2f6ed716c4d93c5512a7f80591, type: 3}
  - {fileID: 21300000, guid: ecd8ec4f075b15a4ab9d7d7d74023cae, type: 3}
  - {fileID: 21300000, guid: 10701c7f9880f6f49a5ee241ab7a23d5, type: 3}
  - {fileID: 21300000, guid: af1cbe7f6e543d94790c802ffdae3d0e, type: 3}
  - {fileID: 21300000, guid: 872f339f635334243b4784d442202652, type: 3}
  - {fileID: 21300000, guid: 2254eeaf5c86b0445b60fbfcaf8056d0, type: 3}
  m_PackedSpriteNamesToIndex:
  - "Boss r\u1ED3ng_00052"
  - "Boss r\u1ED3ng_00046"
  - "Boss r\u1ED3ng_00030"
  - "Boss r\u1ED3ng_00022"
  - "Boss r\u1ED3ng_00045"
  - "Boss r\u1ED3ng_00004"
  - "Boss r\u1ED3ng_00050"
  - "Boss r\u1ED3ng_00058"
  - "Boss r\u1ED3ng_00012"
  - "Boss r\u1ED3ng_00035"
  - "Boss r\u1ED3ng_00010"
  - "Boss r\u1ED3ng_00000"
  - "Boss r\u1ED3ng_00056"
  - "Boss r\u1ED3ng_00057"
  - "Boss r\u1ED3ng_00017"
  - "Boss r\u1ED3ng_00007"
  - "Boss r\u1ED3ng_00002"
  - "Boss r\u1ED3ng_00006"
  - "Boss r\u1ED3ng_00042"
  - "Boss r\u1ED3ng_00049"
  - "Boss r\u1ED3ng_00011"
  - "Boss r\u1ED3ng_00023"
  - "Boss r\u1ED3ng_00027"
  - "Boss r\u1ED3ng_00024"
  - "Boss r\u1ED3ng_00041"
  - "Boss r\u1ED3ng_00059"
  - "Boss r\u1ED3ng_00020"
  - "Boss r\u1ED3ng_00026"
  - "Boss r\u1ED3ng_00055"
  - "Boss r\u1ED3ng_00040"
  - "Boss r\u1ED3ng_00034"
  - "Boss r\u1ED3ng_00021"
  - "Boss r\u1ED3ng_00031"
  - "Boss r\u1ED3ng_00043"
  - "Boss r\u1ED3ng_00037"
  - "Boss r\u1ED3ng_00044"
  - "Boss r\u1ED3ng_00054"
  - "Boss r\u1ED3ng_00047"
  - "Boss r\u1ED3ng_00048"
  - "Boss r\u1ED3ng_00036"
  - "Boss r\u1ED3ng_00051"
  - "Boss r\u1ED3ng_00032"
  - "Boss r\u1ED3ng_00028"
  - "Boss r\u1ED3ng_00013"
  - "Boss r\u1ED3ng_00033"
  - "Boss r\u1ED3ng_00008"
  - "Boss r\u1ED3ng_00016"
  - "Boss r\u1ED3ng_00001"
  - "Boss r\u1ED3ng_00014"
  - "Boss r\u1ED3ng_00039"
  - "Boss r\u1ED3ng_00015"
  - "Boss r\u1ED3ng_00038"
  - "Boss r\u1ED3ng_00029"
  - "Boss r\u1ED3ng_00003"
  - "Boss r\u1ED3ng_00025"
  - "Boss r\u1ED3ng_00009"
  - "Boss r\u1ED3ng_00018"
  - "Boss r\u1ED3ng_00053"
  - "Boss r\u1ED3ng_00019"
  - "Boss r\u1ED3ng_00005"
  m_RenderDataMap: {}
  m_Tag: New Sprite Atlas
  m_IsVariant: 0
