%YAML 1.1
%TAG !u! tag:unity3d.com,2011:
--- !u!687078895 &4343727234628468602
SpriteAtlas:
  m_ObjectHideFlags: 0
  m_CorrespondingSourceObject: {fileID: 0}
  m_PrefabInstance: {fileID: 0}
  m_PrefabAsset: {fileID: 0}
  m_Name: New Sprite Atlas
  m_EditorData:
    serializedVersion: 2
    textureSettings:
      serializedVersion: 2
      anisoLevel: 1
      compressionQuality: 50
      maxTextureSize: 2048
      textureCompression: 0
      filterMode: 1
      generateMipMaps: 0
      readable: 0
      crunchedCompression: 0
      sRGB: 1
    platformSettings:
    - serializedVersion: 3
      m_BuildTarget: DefaultTexturePlatform
      m_MaxTextureSize: 2048
      m_ResizeAlgorithm: 0
      m_TextureFormat: -1
      m_TextureCompression: 1
      m_CompressionQuality: 50
      m_CrunchedCompression: 1
      m_AllowsAlphaSplitting: 0
      m_Overridden: 0
      m_AndroidETC2FallbackOverride: 0
      m_ForceMaximumCompressionQuality_BC6H_BC7: 0
    packingSettings:
      serializedVersion: 2
      padding: 2
      blockOffset: 1
      allowAlphaSplitting: 0
      enableRotation: 1
      enableTightPacking: 0
    secondaryTextureSettings: {}
    variantMultiplier: 1
    packables:
    - {fileID: 2800000, guid: 7b20632515c01cc4682d003944417627, type: 3}
    - {fileID: 2800000, guid: 05d28d0b23ed8074cbd1f8869bfc67db, type: 3}
    - {fileID: 2800000, guid: 1b0ed56625eba5045b7c299bd0a962bc, type: 3}
    - {fileID: 2800000, guid: a29223dc2c23968478fccb614745b792, type: 3}
    - {fileID: 2800000, guid: 5d46466b7a173c9429b1c44f766caa09, type: 3}
    - {fileID: 2800000, guid: 2130a1bdf7f4bf843863239518e6f4fd, type: 3}
    - {fileID: 2800000, guid: 423648d411a4aaf498a8daea38474b6c, type: 3}
    - {fileID: 2800000, guid: c0fd75a615fb6fc4086b8a6fe3449763, type: 3}
    - {fileID: 2800000, guid: f62e2461d77debc4092679493c124972, type: 3}
    - {fileID: 2800000, guid: e349f28cbba2fa1448816d4b4b3779fb, type: 3}
    - {fileID: 2800000, guid: 52808de9734e90f49a01654c0c26e3a0, type: 3}
    - {fileID: 2800000, guid: 4049fdfa4be2b5d4f8d00b2efaa0e7ff, type: 3}
    - {fileID: 2800000, guid: 48b1745f2f3a8904e85928cd5e0e7a50, type: 3}
    - {fileID: 2800000, guid: e0bc2506badcf814bb5ab9c0444f8a25, type: 3}
    - {fileID: 2800000, guid: f3ade152201f55d499e936b37ca62d0e, type: 3}
    - {fileID: 2800000, guid: 669aa8230f1f2be4fa36378a8f05dd2c, type: 3}
    - {fileID: 2800000, guid: 4ba181c217c4fe54b8b121371bacb754, type: 3}
    - {fileID: 2800000, guid: bd187fd69bc115c41ad2aaf2c2eabbe4, type: 3}
    - {fileID: 2800000, guid: 11ba2aed22f74d24796a4d552f37eec2, type: 3}
    - {fileID: 2800000, guid: 59c700445b5e75d4cba40888a18a9cb4, type: 3}
    - {fileID: 2800000, guid: 186f7fbc2b08cf7469695e93660680c3, type: 3}
    - {fileID: 2800000, guid: d09c7a1bdc485134bba004a469c53aab, type: 3}
    - {fileID: 2800000, guid: c464e24d470986f43a3bc5304d534ddc, type: 3}
    - {fileID: 2800000, guid: 591c1098f46ed5a4fbe4af71b6dcf141, type: 3}
    - {fileID: 2800000, guid: 3f6736dba0211f0488dc97c20d5677db, type: 3}
    - {fileID: 2800000, guid: 5c79720cab89ffd4884c3862693f0ac4, type: 3}
    - {fileID: 2800000, guid: 956d496887dea5a419e924c6260e8ae8, type: 3}
    - {fileID: 2800000, guid: 1af077693a73cff4e814c825f91872ae, type: 3}
    - {fileID: 2800000, guid: e3e49dee24315fa4aa1f686a32ac6dc0, type: 3}
    - {fileID: 2800000, guid: a5ee6a8cd6b9c3b44a69a2e6d1997395, type: 3}
    - {fileID: 2800000, guid: cf6a8a1238f4697408c31dce314cea9a, type: 3}
    - {fileID: 2800000, guid: 6ae16a07f6d83b24cac525e0b91de3b7, type: 3}
    - {fileID: 2800000, guid: d5ba195d89da236478bef0cf6f5c2af6, type: 3}
    - {fileID: 2800000, guid: 9ab7cb507c5ed6d4b85b59eab4163a9c, type: 3}
    - {fileID: 2800000, guid: feeb614bec3e9014498fad0bf8b97486, type: 3}
    - {fileID: 2800000, guid: a6f470be2d8b01f40bf273649b896d2d, type: 3}
    - {fileID: 2800000, guid: d95aa57aa3814174380930150957f8f4, type: 3}
    - {fileID: 2800000, guid: ecac832600e236f489c66197bbf23c45, type: 3}
    - {fileID: 2800000, guid: ddb82883a21277942b393cf569eabe36, type: 3}
    - {fileID: 2800000, guid: 89615d281b519ed46a74e5a8bddd59e0, type: 3}
    - {fileID: 2800000, guid: ab69c4ef492e6be4b9f4ab1b58343fe1, type: 3}
    - {fileID: 2800000, guid: e1f196691d0af9246900a532804f9d4e, type: 3}
    - {fileID: 2800000, guid: 5d34877d7ac84dc41a49b361ddb8fcfd, type: 3}
    - {fileID: 2800000, guid: c1e9f5482273331478a6d65de04fd6a3, type: 3}
    - {fileID: 2800000, guid: 7c1d400d74f0ae9478388eae7d35a769, type: 3}
    - {fileID: 2800000, guid: 101cd7823835cae47b95800a4454eebb, type: 3}
    - {fileID: 2800000, guid: 79b669747b7853040abccd283f27d4bc, type: 3}
    - {fileID: 2800000, guid: 703d78fd1d43d904e83fca1496683856, type: 3}
    - {fileID: 2800000, guid: 8f55cbead7c90834c9c2556156eae298, type: 3}
    - {fileID: 2800000, guid: f07968c298f733d40b278054b9a8ca1b, type: 3}
    - {fileID: 2800000, guid: be4e8e5ad7d338e46af9de7bcb62825c, type: 3}
    - {fileID: 2800000, guid: 574ee3fcebc32da498fc58e148bd3a6d, type: 3}
    - {fileID: 2800000, guid: acc9559f5f7a7e0449fd456d420fe31b, type: 3}
    - {fileID: 2800000, guid: 191f11fa52bb7824d9b533da512fdd59, type: 3}
    - {fileID: 2800000, guid: b043a934c3ac1624a867a9b38365e700, type: 3}
    - {fileID: 2800000, guid: 725c9b208ca0a9141a042e905b033fc5, type: 3}
    - {fileID: 2800000, guid: eeed93f3ef7bb2840befeffd2a071a1d, type: 3}
    - {fileID: 2800000, guid: 8900ec54907fd934488772d9c44490c2, type: 3}
    - {fileID: 2800000, guid: b9fa43e3845233743a97d84a70ce6de3, type: 3}
    - {fileID: 2800000, guid: 71283b17f27558748a42b30ecb8fd4e8, type: 3}
    totalSpriteSurfaceArea: 2220060
    bindAsDefault: 1
    isAtlasV2: 0
    cachedData: {fileID: 0}
  m_MasterAtlas: {fileID: 0}
  m_PackedSprites:
  - {fileID: 21300000, guid: 725c9b208ca0a9141a042e905b033fc5, type: 3}
  - {fileID: 21300000, guid: 9ab7cb507c5ed6d4b85b59eab4163a9c, type: 3}
  - {fileID: 21300000, guid: f62e2461d77debc4092679493c124972, type: 3}
  - {fileID: 21300000, guid: cf6a8a1238f4697408c31dce314cea9a, type: 3}
  - {fileID: 21300000, guid: f3ade152201f55d499e936b37ca62d0e, type: 3}
  - {fileID: 21300000, guid: 101cd7823835cae47b95800a4454eebb, type: 3}
  - {fileID: 21300000, guid: 4ba181c217c4fe54b8b121371bacb754, type: 3}
  - {fileID: 21300000, guid: f07968c298f733d40b278054b9a8ca1b, type: 3}
  - {fileID: 21300000, guid: 669aa8230f1f2be4fa36378a8f05dd2c, type: 3}
  - {fileID: 21300000, guid: ddb82883a21277942b393cf569eabe36, type: 3}
  - {fileID: 21300000, guid: b9fa43e3845233743a97d84a70ce6de3, type: 3}
  - {fileID: 21300000, guid: eeed93f3ef7bb2840befeffd2a071a1d, type: 3}
  - {fileID: 21300000, guid: b043a934c3ac1624a867a9b38365e700, type: 3}
  - {fileID: 21300000, guid: 59c700445b5e75d4cba40888a18a9cb4, type: 3}
  - {fileID: 21300000, guid: 8900ec54907fd934488772d9c44490c2, type: 3}
  - {fileID: 21300000, guid: 79b669747b7853040abccd283f27d4bc, type: 3}
  - {fileID: 21300000, guid: 423648d411a4aaf498a8daea38474b6c, type: 3}
  - {fileID: 21300000, guid: 7b20632515c01cc4682d003944417627, type: 3}
  - {fileID: 21300000, guid: e0bc2506badcf814bb5ab9c0444f8a25, type: 3}
  - {fileID: 21300000, guid: ecac832600e236f489c66197bbf23c45, type: 3}
  - {fileID: 21300000, guid: 1b0ed56625eba5045b7c299bd0a962bc, type: 3}
  - {fileID: 21300000, guid: c0fd75a615fb6fc4086b8a6fe3449763, type: 3}
  - {fileID: 21300000, guid: bd187fd69bc115c41ad2aaf2c2eabbe4, type: 3}
  - {fileID: 21300000, guid: 6ae16a07f6d83b24cac525e0b91de3b7, type: 3}
  - {fileID: 21300000, guid: 71283b17f27558748a42b30ecb8fd4e8, type: 3}
  - {fileID: 21300000, guid: 89615d281b519ed46a74e5a8bddd59e0, type: 3}
  - {fileID: 21300000, guid: c1e9f5482273331478a6d65de04fd6a3, type: 3}
  - {fileID: 21300000, guid: 956d496887dea5a419e924c6260e8ae8, type: 3}
  - {fileID: 21300000, guid: 591c1098f46ed5a4fbe4af71b6dcf141, type: 3}
  - {fileID: 21300000, guid: e1f196691d0af9246900a532804f9d4e, type: 3}
  - {fileID: 21300000, guid: 1af077693a73cff4e814c825f91872ae, type: 3}
  - {fileID: 21300000, guid: 52808de9734e90f49a01654c0c26e3a0, type: 3}
  - {fileID: 21300000, guid: be4e8e5ad7d338e46af9de7bcb62825c, type: 3}
  - {fileID: 21300000, guid: d95aa57aa3814174380930150957f8f4, type: 3}
  - {fileID: 21300000, guid: 8f55cbead7c90834c9c2556156eae298, type: 3}
  - {fileID: 21300000, guid: 191f11fa52bb7824d9b533da512fdd59, type: 3}
  - {fileID: 21300000, guid: 4049fdfa4be2b5d4f8d00b2efaa0e7ff, type: 3}
  - {fileID: 21300000, guid: 05d28d0b23ed8074cbd1f8869bfc67db, type: 3}
  - {fileID: 21300000, guid: d09c7a1bdc485134bba004a469c53aab, type: 3}
  - {fileID: 21300000, guid: feeb614bec3e9014498fad0bf8b97486, type: 3}
  - {fileID: 21300000, guid: 5d46466b7a173c9429b1c44f766caa09, type: 3}
  - {fileID: 21300000, guid: 3f6736dba0211f0488dc97c20d5677db, type: 3}
  - {fileID: 21300000, guid: 5c79720cab89ffd4884c3862693f0ac4, type: 3}
  - {fileID: 21300000, guid: e349f28cbba2fa1448816d4b4b3779fb, type: 3}
  - {fileID: 21300000, guid: a5ee6a8cd6b9c3b44a69a2e6d1997395, type: 3}
  - {fileID: 21300000, guid: 186f7fbc2b08cf7469695e93660680c3, type: 3}
  - {fileID: 21300000, guid: a29223dc2c23968478fccb614745b792, type: 3}
  - {fileID: 21300000, guid: 574ee3fcebc32da498fc58e148bd3a6d, type: 3}
  - {fileID: 21300000, guid: 7c1d400d74f0ae9478388eae7d35a769, type: 3}
  - {fileID: 21300000, guid: c464e24d470986f43a3bc5304d534ddc, type: 3}
  - {fileID: 21300000, guid: d5ba195d89da236478bef0cf6f5c2af6, type: 3}
  - {fileID: 21300000, guid: 5d34877d7ac84dc41a49b361ddb8fcfd, type: 3}
  - {fileID: 21300000, guid: 2130a1bdf7f4bf843863239518e6f4fd, type: 3}
  - {fileID: 21300000, guid: 11ba2aed22f74d24796a4d552f37eec2, type: 3}
  - {fileID: 21300000, guid: 703d78fd1d43d904e83fca1496683856, type: 3}
  - {fileID: 21300000, guid: a6f470be2d8b01f40bf273649b896d2d, type: 3}
  - {fileID: 21300000, guid: e3e49dee24315fa4aa1f686a32ac6dc0, type: 3}
  - {fileID: 21300000, guid: 48b1745f2f3a8904e85928cd5e0e7a50, type: 3}
  - {fileID: 21300000, guid: acc9559f5f7a7e0449fd456d420fe31b, type: 3}
  - {fileID: 21300000, guid: ab69c4ef492e6be4b9f4ab1b58343fe1, type: 3}
  m_PackedSpriteNamesToIndex:
  - loki (2)sudungtruong_00115
  - loki (2)sudungtruong_00093
  - loki (2)sudungtruong_00068
  - loki (2)sudungtruong_00090
  - loki (2)sudungtruong_00074
  - loki (2)sudungtruong_00105
  - loki (2)sudungtruong_00076
  - loki (2)sudungtruong_00109
  - loki (2)sudungtruong_00075
  - loki (2)sudungtruong_00098
  - loki (2)sudungtruong_00118
  - loki (2)sudungtruong_00116
  - loki (2)sudungtruong_00114
  - loki (2)sudungtruong_00079
  - loki (2)sudungtruong_00117
  - loki (2)sudungtruong_00106
  - loki (2)sudungtruong_00066
  - loki (2)sudungtruong_00060
  - loki (2)sudungtruong_00073
  - loki (2)sudungtruong_00097
  - loki (2)sudungtruong_00062
  - loki (2)sudungtruong_00067
  - loki (2)sudungtruong_00077
  - loki (2)sudungtruong_00091
  - loki (2)sudungtruong_00119
  - loki (2)sudungtruong_00099
  - loki (2)sudungtruong_00103
  - loki (2)sudungtruong_00086
  - loki (2)sudungtruong_00083
  - loki (2)sudungtruong_00101
  - loki (2)sudungtruong_00087
  - loki (2)sudungtruong_00070
  - loki (2)sudungtruong_00110
  - loki (2)sudungtruong_00096
  - loki (2)sudungtruong_00108
  - loki (2)sudungtruong_00113
  - loki (2)sudungtruong_00071
  - loki (2)sudungtruong_00061
  - loki (2)sudungtruong_00081
  - loki (2)sudungtruong_00094
  - loki (2)sudungtruong_00064
  - loki (2)sudungtruong_00084
  - loki (2)sudungtruong_00085
  - loki (2)sudungtruong_00069
  - loki (2)sudungtruong_00089
  - loki (2)sudungtruong_00080
  - loki (2)sudungtruong_00063
  - loki (2)sudungtruong_00111
  - loki (2)sudungtruong_00104
  - loki (2)sudungtruong_00082
  - loki (2)sudungtruong_00092
  - loki (2)sudungtruong_00102
  - loki (2)sudungtruong_00065
  - loki (2)sudungtruong_00078
  - loki (2)sudungtruong_00107
  - loki (2)sudungtruong_00095
  - loki (2)sudungtruong_00088
  - loki (2)sudungtruong_00072
  - loki (2)sudungtruong_00112
  - loki (2)sudungtruong_00100
  m_RenderDataMap: {}
  m_Tag: New Sprite Atlas
  m_IsVariant: 0
