%YAML 1.1
%TAG !u! tag:unity3d.com,2011:
--- !u!687078895 &4343727234628468602
SpriteAtlas:
  m_ObjectHideFlags: 0
  m_CorrespondingSourceObject: {fileID: 0}
  m_PrefabInstance: {fileID: 0}
  m_PrefabAsset: {fileID: 0}
  m_Name: New Sprite Atlas
  m_EditorData:
    serializedVersion: 2
    textureSettings:
      serializedVersion: 2
      anisoLevel: 1
      compressionQuality: 50
      maxTextureSize: 2048
      textureCompression: 0
      filterMode: 1
      generateMipMaps: 0
      readable: 0
      crunchedCompression: 0
      sRGB: 1
    platformSettings:
    - serializedVersion: 3
      m_BuildTarget: DefaultTexturePlatform
      m_MaxTextureSize: 2048
      m_ResizeAlgorithm: 0
      m_TextureFormat: -1
      m_TextureCompression: 1
      m_CompressionQuality: 50
      m_CrunchedCompression: 1
      m_AllowsAlphaSplitting: 0
      m_Overridden: 0
      m_AndroidETC2FallbackOverride: 0
      m_ForceMaximumCompressionQuality_BC6H_BC7: 0
    packingSettings:
      serializedVersion: 2
      padding: 2
      blockOffset: 1
      allowAlphaSplitting: 0
      enableRotation: 1
      enableTightPacking: 0
    secondaryTextureSettings: {}
    variantMultiplier: 1
    packables:
    - {fileID: 2800000, guid: ff9a564db35cff44fa358bee169fa52b, type: 3}
    - {fileID: 2800000, guid: fdac4af889a8cf34f8bdd2f4eef313af, type: 3}
    - {fileID: 2800000, guid: 607b599527289d9489ef02298b4fe563, type: 3}
    - {fileID: 2800000, guid: 040bd24db5414f143ad14e2f99b12e15, type: 3}
    - {fileID: 2800000, guid: b8ed97293f381364dbbfcb15abcb5b03, type: 3}
    - {fileID: 2800000, guid: c76a7e607c37f624284333f18cc10295, type: 3}
    - {fileID: 2800000, guid: 0d6178dcb495b0645a90c33ed7db5521, type: 3}
    - {fileID: 2800000, guid: 9947c5dcf33a5c54b8e9a282e0a7a411, type: 3}
    - {fileID: 2800000, guid: 44a7ca22544cec543b819c5aa42cd0e8, type: 3}
    - {fileID: 2800000, guid: c787faea94aa0e0439a712392455785b, type: 3}
    - {fileID: 2800000, guid: 3c9f10d5d410f604b97c45ee5571f02e, type: 3}
    - {fileID: 2800000, guid: 666ab3296c4da7e4d9d60cb60b2e27de, type: 3}
    - {fileID: 2800000, guid: c5bc8651b82da8542bba59054a67bce7, type: 3}
    - {fileID: 2800000, guid: b5d03f76d13719e44bfab8237b4318ff, type: 3}
    - {fileID: 2800000, guid: 477b53c02663e5c45bf9be1091167cc7, type: 3}
    - {fileID: 2800000, guid: 93b2cc3a559d281479d8bc16e9d8abe2, type: 3}
    - {fileID: 2800000, guid: 495f4cda01469ab418dbfffc66c7d5e2, type: 3}
    - {fileID: 2800000, guid: 90e6a0566fb1257408762fd390aa7a8d, type: 3}
    - {fileID: 2800000, guid: 575310bb161c08f4ab6e06e9042d9cf8, type: 3}
    - {fileID: 2800000, guid: a5b5511669095f64e8f0583114b3bd4f, type: 3}
    - {fileID: 2800000, guid: 502c7083c9e59e94f8095f097c060fcf, type: 3}
    - {fileID: 2800000, guid: 780f6bca6b58af24a82cdad561c936f1, type: 3}
    - {fileID: 2800000, guid: 06e1b9b0e3d4b6e4e9cf34a92dc615ee, type: 3}
    - {fileID: 2800000, guid: b262ddc369c614f4d9eb5c3c629bb45d, type: 3}
    - {fileID: 2800000, guid: 181e00f10c75f844c88d67322ad752b3, type: 3}
    - {fileID: 2800000, guid: 0691f9f336bc998468bc615bdba49ca7, type: 3}
    - {fileID: 2800000, guid: 7fc53dfde5140c446b3514975407e8f0, type: 3}
    - {fileID: 2800000, guid: 5fb437d6c35c1d945a4a626be79f480a, type: 3}
    - {fileID: 2800000, guid: 5078a14b59ee28043a89c4d95af3290a, type: 3}
    - {fileID: 2800000, guid: 827beed9ca0303f419e18562dc22a216, type: 3}
    - {fileID: 2800000, guid: 68447ec03b1d5774b97f1094433ea447, type: 3}
    - {fileID: 2800000, guid: 71f47ead2273d024ab7e0309dac35c9f, type: 3}
    - {fileID: 2800000, guid: 5b4186b20de89614a9ca75f4998651e9, type: 3}
    - {fileID: 2800000, guid: 20094f4b20ade124d80331a23081736d, type: 3}
    - {fileID: 2800000, guid: 071941e803e0137489f4433dc3d5c93c, type: 3}
    - {fileID: 2800000, guid: 3fb19d859f54ac143b8ddf48dd19a10a, type: 3}
    - {fileID: 2800000, guid: 915118a222ad7ad45801b639711dc82b, type: 3}
    - {fileID: 2800000, guid: 10f0136bb914b9e4aa590fdf412edc75, type: 3}
    - {fileID: 2800000, guid: de5ec6cc2ee183c44a51149aa05cb4a9, type: 3}
    - {fileID: 2800000, guid: 22e0242b5845b0345ba22f69418cdf40, type: 3}
    - {fileID: 2800000, guid: 3f13e0d276d66274081068fb4a7c3b54, type: 3}
    - {fileID: 2800000, guid: f733e63883fde844cbeaca8c04b3eb7d, type: 3}
    - {fileID: 2800000, guid: 68b98908d496d694daf21be49a72aac4, type: 3}
    - {fileID: 2800000, guid: e9aedcbc54477904abfda8280045a976, type: 3}
    - {fileID: 2800000, guid: f56112a0f9235a24c9741edd8a07add8, type: 3}
    - {fileID: 2800000, guid: 53d3a7fe65cd9e24fbc0953628cdb942, type: 3}
    - {fileID: 2800000, guid: cd70497fbe9d726479d4e54f16d1cfeb, type: 3}
    - {fileID: 2800000, guid: 290b61286be2f0b44a669c60eda6fcf2, type: 3}
    - {fileID: 2800000, guid: d6c62237a57297a41bb8b821fde06f7a, type: 3}
    - {fileID: 2800000, guid: 8030df6bd53ea414e8ba68f9c8ead337, type: 3}
    - {fileID: 2800000, guid: 4c164eec6b8327d4c80da6a116e78c82, type: 3}
    - {fileID: 2800000, guid: b1fe07c86af5aeb468a1b4833415133e, type: 3}
    - {fileID: 2800000, guid: 481cd8c7a30630b47972bd79a7edab41, type: 3}
    - {fileID: 2800000, guid: 96d1adc60d8fa644a807c51b53c92509, type: 3}
    - {fileID: 2800000, guid: fea6ddd67425bb14eb906aa9ca2afa62, type: 3}
    - {fileID: 2800000, guid: 346f850cd033dab4ca35e3dd1afa798e, type: 3}
    - {fileID: 2800000, guid: d704577bfae9d884ab4b8704018fc5fe, type: 3}
    - {fileID: 2800000, guid: c90508baa13e6af4c9a59acb4813e4aa, type: 3}
    - {fileID: 2800000, guid: a4e387d54bc85234a9586809da087d13, type: 3}
    - {fileID: 2800000, guid: cba0269775c00cd4da01db1beeb44d00, type: 3}
    totalSpriteSurfaceArea: 3600000
    bindAsDefault: 1
    isAtlasV2: 0
    cachedData: {fileID: 0}
  m_MasterAtlas: {fileID: 0}
  m_PackedSprites:
  - {fileID: 21300000, guid: c76a7e607c37f624284333f18cc10295, type: 3}
  - {fileID: 21300000, guid: f56112a0f9235a24c9741edd8a07add8, type: 3}
  - {fileID: 21300000, guid: 06e1b9b0e3d4b6e4e9cf34a92dc615ee, type: 3}
  - {fileID: 21300000, guid: 477b53c02663e5c45bf9be1091167cc7, type: 3}
  - {fileID: 21300000, guid: 68447ec03b1d5774b97f1094433ea447, type: 3}
  - {fileID: 21300000, guid: c5bc8651b82da8542bba59054a67bce7, type: 3}
  - {fileID: 21300000, guid: 181e00f10c75f844c88d67322ad752b3, type: 3}
  - {fileID: 21300000, guid: 44a7ca22544cec543b819c5aa42cd0e8, type: 3}
  - {fileID: 21300000, guid: 915118a222ad7ad45801b639711dc82b, type: 3}
  - {fileID: 21300000, guid: 5b4186b20de89614a9ca75f4998651e9, type: 3}
  - {fileID: 21300000, guid: 3f13e0d276d66274081068fb4a7c3b54, type: 3}
  - {fileID: 21300000, guid: 502c7083c9e59e94f8095f097c060fcf, type: 3}
  - {fileID: 21300000, guid: b262ddc369c614f4d9eb5c3c629bb45d, type: 3}
  - {fileID: 21300000, guid: 0691f9f336bc998468bc615bdba49ca7, type: 3}
  - {fileID: 21300000, guid: 3fb19d859f54ac143b8ddf48dd19a10a, type: 3}
  - {fileID: 21300000, guid: 607b599527289d9489ef02298b4fe563, type: 3}
  - {fileID: 21300000, guid: 3c9f10d5d410f604b97c45ee5571f02e, type: 3}
  - {fileID: 21300000, guid: a4e387d54bc85234a9586809da087d13, type: 3}
  - {fileID: 21300000, guid: a5b5511669095f64e8f0583114b3bd4f, type: 3}
  - {fileID: 21300000, guid: 90e6a0566fb1257408762fd390aa7a8d, type: 3}
  - {fileID: 21300000, guid: b5d03f76d13719e44bfab8237b4318ff, type: 3}
  - {fileID: 21300000, guid: 96d1adc60d8fa644a807c51b53c92509, type: 3}
  - {fileID: 21300000, guid: 5fb437d6c35c1d945a4a626be79f480a, type: 3}
  - {fileID: 21300000, guid: fea6ddd67425bb14eb906aa9ca2afa62, type: 3}
  - {fileID: 21300000, guid: d6c62237a57297a41bb8b821fde06f7a, type: 3}
  - {fileID: 21300000, guid: cba0269775c00cd4da01db1beeb44d00, type: 3}
  - {fileID: 21300000, guid: 481cd8c7a30630b47972bd79a7edab41, type: 3}
  - {fileID: 21300000, guid: 68b98908d496d694daf21be49a72aac4, type: 3}
  - {fileID: 21300000, guid: 290b61286be2f0b44a669c60eda6fcf2, type: 3}
  - {fileID: 21300000, guid: f733e63883fde844cbeaca8c04b3eb7d, type: 3}
  - {fileID: 21300000, guid: b1fe07c86af5aeb468a1b4833415133e, type: 3}
  - {fileID: 21300000, guid: 071941e803e0137489f4433dc3d5c93c, type: 3}
  - {fileID: 21300000, guid: fdac4af889a8cf34f8bdd2f4eef313af, type: 3}
  - {fileID: 21300000, guid: 666ab3296c4da7e4d9d60cb60b2e27de, type: 3}
  - {fileID: 21300000, guid: b8ed97293f381364dbbfcb15abcb5b03, type: 3}
  - {fileID: 21300000, guid: 827beed9ca0303f419e18562dc22a216, type: 3}
  - {fileID: 21300000, guid: 93b2cc3a559d281479d8bc16e9d8abe2, type: 3}
  - {fileID: 21300000, guid: c90508baa13e6af4c9a59acb4813e4aa, type: 3}
  - {fileID: 21300000, guid: 780f6bca6b58af24a82cdad561c936f1, type: 3}
  - {fileID: 21300000, guid: 495f4cda01469ab418dbfffc66c7d5e2, type: 3}
  - {fileID: 21300000, guid: c787faea94aa0e0439a712392455785b, type: 3}
  - {fileID: 21300000, guid: 22e0242b5845b0345ba22f69418cdf40, type: 3}
  - {fileID: 21300000, guid: 5078a14b59ee28043a89c4d95af3290a, type: 3}
  - {fileID: 21300000, guid: 20094f4b20ade124d80331a23081736d, type: 3}
  - {fileID: 21300000, guid: 10f0136bb914b9e4aa590fdf412edc75, type: 3}
  - {fileID: 21300000, guid: 8030df6bd53ea414e8ba68f9c8ead337, type: 3}
  - {fileID: 21300000, guid: d704577bfae9d884ab4b8704018fc5fe, type: 3}
  - {fileID: 21300000, guid: 575310bb161c08f4ab6e06e9042d9cf8, type: 3}
  - {fileID: 21300000, guid: 346f850cd033dab4ca35e3dd1afa798e, type: 3}
  - {fileID: 21300000, guid: e9aedcbc54477904abfda8280045a976, type: 3}
  - {fileID: 21300000, guid: de5ec6cc2ee183c44a51149aa05cb4a9, type: 3}
  - {fileID: 21300000, guid: 9947c5dcf33a5c54b8e9a282e0a7a411, type: 3}
  - {fileID: 21300000, guid: 0d6178dcb495b0645a90c33ed7db5521, type: 3}
  - {fileID: 21300000, guid: 4c164eec6b8327d4c80da6a116e78c82, type: 3}
  - {fileID: 21300000, guid: 040bd24db5414f143ad14e2f99b12e15, type: 3}
  - {fileID: 21300000, guid: ff9a564db35cff44fa358bee169fa52b, type: 3}
  - {fileID: 21300000, guid: 71f47ead2273d024ab7e0309dac35c9f, type: 3}
  - {fileID: 21300000, guid: 7fc53dfde5140c446b3514975407e8f0, type: 3}
  - {fileID: 21300000, guid: 53d3a7fe65cd9e24fbc0953628cdb942, type: 3}
  - {fileID: 21300000, guid: cd70497fbe9d726479d4e54f16d1cfeb, type: 3}
  m_PackedSpriteNamesToIndex:
  - helaphong phi tieu_00004
  - helaphong phi tieu_00043
  - helaphong phi tieu_00021
  - helaphong phi tieu_00013
  - helaphong phi tieu_00029
  - helaphong phi tieu_00011
  - helaphong phi tieu_00023
  - helaphong phi tieu_00007
  - helaphong phi tieu_00035
  - helaphong phi tieu_00031
  - helaphong phi tieu_00039
  - helaphong phi tieu_00019
  - helaphong phi tieu_00022
  - helaphong phi tieu_00024
  - helaphong phi tieu_00034
  - helaphong phi tieu_00001
  - helaphong phi tieu_00009
  - helaphong phi tieu_00057
  - helaphong phi tieu_00018
  - helaphong phi tieu_00016
  - helaphong phi tieu_00012
  - helaphong phi tieu_00052
  - helaphong phi tieu_00026
  - helaphong phi tieu_00053
  - helaphong phi tieu_00047
  - helaphong phi tieu_00058
  - helaphong phi tieu_00051
  - helaphong phi tieu_00041
  - helaphong phi tieu_00046
  - helaphong phi tieu_00040
  - helaphong phi tieu_00050
  - helaphong phi tieu_00033
  - helaphong phi tieu_00000
  - helaphong phi tieu_00010
  - helaphong phi tieu_00003
  - helaphong phi tieu_00028
  - helaphong phi tieu_00014
  - helaphong phi tieu_00056
  - helaphong phi tieu_00020
  - helaphong phi tieu_00015
  - helaphong phi tieu_00008
  - helaphong phi tieu_00038
  - helaphong phi tieu_00027
  - helaphong phi tieu_00032
  - helaphong phi tieu_00036
  - helaphong phi tieu_00048
  - helaphong phi tieu_00055
  - helaphong phi tieu_00017
  - helaphong phi tieu_00054
  - helaphong phi tieu_00042
  - helaphong phi tieu_00037
  - helaphong phi tieu_00006
  - helaphong phi tieu_00005
  - helaphong phi tieu_00049
  - helaphong phi tieu_00002
  - helaphong phi tieu_00059
  - helaphong phi tieu_00030
  - helaphong phi tieu_00025
  - helaphong phi tieu_00044
  - helaphong phi tieu_00045
  m_RenderDataMap: {}
  m_Tag: New Sprite Atlas
  m_IsVariant: 0
