%YAML 1.1
%TAG !u! tag:unity3d.com,2011:
--- !u!74 &7400000
AnimationClip:
  m_ObjectHideFlags: 0
  m_CorrespondingSourceObject: {fileID: 0}
  m_PrefabInstance: {fileID: 0}
  m_PrefabAsset: {fileID: 0}
  m_Name: Boss Loki Idle
  serializedVersion: 6
  m_Legacy: 0
  m_Compressed: 0
  m_UseHighQualityCurve: 1
  m_RotationCurves: []
  m_CompressedRotationCurves: []
  m_EulerCurves: []
  m_PositionCurves: []
  m_ScaleCurves: []
  m_FloatCurves: []
  m_PPtrCurves:
  - curve:
    - time: 0
      value: {fileID: 21300000, guid: d88ec2bc4d9867c4d9e7292d84b69dab, type: 3}
    - time: 0.033333335
      value: {fileID: 21300000, guid: f9b37088ae368ac46ae7e1281eda30e7, type: 3}
    - time: 0.05
      value: {fileID: 21300000, guid: a64e571ea0a5def4b9f012fe57bc08d9, type: 3}
    - time: 0.083333336
      value: {fileID: 21300000, guid: c8e747204a55d6443bad25a7fff2fc9f, type: 3}
    - time: 0.1
      value: {fileID: 21300000, guid: 49e0886be015d124698a409ab1f329b2, type: 3}
    - time: 0.13333334
      value: {fileID: 21300000, guid: a7ef51056417bec4a9b75888b6227429, type: 3}
    - time: 0.15
      value: {fileID: 21300000, guid: 076005f84aefbe94897410687be25a94, type: 3}
    - time: 0.18333334
      value: {fileID: 21300000, guid: 1ba076731e9ce19429fce7d1b906adbe, type: 3}
    - time: 0.2
      value: {fileID: 21300000, guid: f5669969261021744a3493c0d0a5ec7f, type: 3}
    - time: 0.23333333
      value: {fileID: 21300000, guid: 6a54ae82c6c15f9478c365001f5e108c, type: 3}
    - time: 0.25
      value: {fileID: 21300000, guid: 75c7fd7c721c31549b290a1e67644ecd, type: 3}
    - time: 0.28333333
      value: {fileID: 21300000, guid: 9e1b75c2be04181479e324eb016f78f7, type: 3}
    - time: 0.3
      value: {fileID: 21300000, guid: f259ec33992ccbb46a27e94de85fe5dd, type: 3}
    - time: 0.33333334
      value: {fileID: 21300000, guid: 4970266afa9f27b4181ab5389d2c2de1, type: 3}
    - time: 0.35
      value: {fileID: 21300000, guid: 236359d324fb12448abe67022e8a878c, type: 3}
    - time: 0.38333333
      value: {fileID: 21300000, guid: 3c1ccdd75ffb02743b08ace71b5968e0, type: 3}
    - time: 0.4
      value: {fileID: 21300000, guid: 38b30d12d2659c840ae23ddda616c888, type: 3}
    - time: 0.43333334
      value: {fileID: 21300000, guid: adf97b20fc481694fbfc75140a9d4a2b, type: 3}
    - time: 0.45
      value: {fileID: 21300000, guid: 2299eca1a67e7fb4d997380b63dc71cb, type: 3}
    - time: 0.48333332
      value: {fileID: 21300000, guid: d6c94c7ddb1433442a6e95285f831cb1, type: 3}
    - time: 0.51666665
      value: {fileID: 21300000, guid: e7d3f4f12184a4342a026a5b2833c40d, type: 3}
    - time: 0.53333336
      value: {fileID: 21300000, guid: 8be7fdd5a3e45674c84193511e58070a, type: 3}
    - time: 0.56666666
      value: {fileID: 21300000, guid: a5cb19c47cc99b74ab957ba84700cc7d, type: 3}
    - time: 0.5833333
      value: {fileID: 21300000, guid: 5453cc0a6e631264dbfa00d72115e7d9, type: 3}
    - time: 0.6166667
      value: {fileID: 21300000, guid: 7cf4ee9ff61a54c468c0cb236a23276e, type: 3}
    - time: 0.6333333
      value: {fileID: 21300000, guid: d7421348a0640594aa22ab8483607ece, type: 3}
    - time: 0.6666667
      value: {fileID: 21300000, guid: 34ddf919d17c8694f98bea2d76aa87d1, type: 3}
    - time: 0.68333334
      value: {fileID: 21300000, guid: 547e913bc50b463428467d794a677d2d, type: 3}
    - time: 0.71666664
      value: {fileID: 21300000, guid: 5a09ee2c5c09e6e47ab3a2627dc554b9, type: 3}
    - time: 0.73333335
      value: {fileID: 21300000, guid: b1e6947757eb4a844aa1e5ce7cba78ba, type: 3}
    - time: 0.76666665
      value: {fileID: 21300000, guid: 375c6f87c0ef8c049ac86f8e884e75ac, type: 3}
    - time: 0.78333336
      value: {fileID: 21300000, guid: 645fd710b349ee347aa4a3c04c3d9a26, type: 3}
    - time: 0.81666666
      value: {fileID: 21300000, guid: 06f4a9023e37f9946b933fe74d69ea16, type: 3}
    - time: 0.8333333
      value: {fileID: 21300000, guid: 6d741ca92f3d17a4e96d20d53f34e104, type: 3}
    - time: 0.8666667
      value: {fileID: 21300000, guid: 14da2bf4b82af8840808d4be21f76681, type: 3}
    - time: 0.8833333
      value: {fileID: 21300000, guid: e7f42cd3eb27f4743b18020df1c8733e, type: 3}
    - time: 0.9166667
      value: {fileID: 21300000, guid: 2f9eee7be278d50489deb733516e116f, type: 3}
    - time: 0.93333334
      value: {fileID: 21300000, guid: c5bae4fef6b5ffd4e8f1b22aaea722ec, type: 3}
    - time: 0.96666664
      value: {fileID: 21300000, guid: 4f7a18332fef5504d814be1997712303, type: 3}
    - time: 0.98333335
      value: {fileID: 21300000, guid: cf6d8f4b9d4a9584e8de4eeaff5c1fc1, type: 3}
    - time: 1.0166667
      value: {fileID: 21300000, guid: 934413b479d45764e888e4bd8ab995df, type: 3}
    - time: 1.05
      value: {fileID: 21300000, guid: 5cd411e8864a28443a444b8db1f9d8af, type: 3}
    - time: 1.0666667
      value: {fileID: 21300000, guid: 76fe54cba8bfdc84da6496f6c7d9be75, type: 3}
    - time: 1.1
      value: {fileID: 21300000, guid: d92c0e530e58b1e4eaeb02461512347f, type: 3}
    - time: 1.1166667
      value: {fileID: 21300000, guid: f0377bb5a1e252640afa0d0f93fbc145, type: 3}
    - time: 1.15
      value: {fileID: 21300000, guid: 801ee607136a0f94f8c1359c2f96293a, type: 3}
    - time: 1.1666666
      value: {fileID: 21300000, guid: a905bf75276877a4d983ca3b255c80d2, type: 3}
    - time: 1.2
      value: {fileID: 21300000, guid: 584f42d10dbd3b946bda49ea3aee44bd, type: 3}
    - time: 1.2166667
      value: {fileID: 21300000, guid: a85dec5792c578b4c92d0d9556accf59, type: 3}
    - time: 1.25
      value: {fileID: 21300000, guid: dc3be2cc4aff71b419c98391d53555d8, type: 3}
    - time: 1.2666667
      value: {fileID: 21300000, guid: 8362493394227bf47885561e97291dc3, type: 3}
    - time: 1.3
      value: {fileID: 21300000, guid: 5ef5e4af8bd1fc44e8ef58c6caaa979e, type: 3}
    - time: 1.3166667
      value: {fileID: 21300000, guid: cbe0fab65f9a97f45b73365a26ee7822, type: 3}
    - time: 1.35
      value: {fileID: 21300000, guid: bb8d81315b9318946b2b1a6c2f3f4579, type: 3}
    - time: 1.3666667
      value: {fileID: 21300000, guid: 53138eca874fe7c4ca039180c62165eb, type: 3}
    - time: 1.4
      value: {fileID: 21300000, guid: ea79b3d643b2f7441afab6485ad3f430, type: 3}
    - time: 1.4166666
      value: {fileID: 21300000, guid: 974a87f5bd3f9c64b92e9f3b0395b907, type: 3}
    - time: 1.45
      value: {fileID: 21300000, guid: 56d4a8283eda7874a92cd90c1fb82631, type: 3}
    - time: 1.4666667
      value: {fileID: 21300000, guid: 1d5d221750564964885d8d3b1ec5d594, type: 3}
    - time: 1.5
      value: {fileID: 21300000, guid: aae4c8a0656316a4ca763d21f9427d21, type: 3}
    attribute: m_Sprite
    path: 
    classID: 212
    script: {fileID: 0}
  m_SampleRate: 60
  m_WrapMode: 0
  m_Bounds:
    m_Center: {x: 0, y: 0, z: 0}
    m_Extent: {x: 0, y: 0, z: 0}
  m_ClipBindingConstant:
    genericBindings:
    - serializedVersion: 2
      path: 0
      attribute: 0
      script: {fileID: 0}
      typeID: 212
      customType: 23
      isPPtrCurve: 1
    pptrCurveMapping:
    - {fileID: 21300000, guid: d88ec2bc4d9867c4d9e7292d84b69dab, type: 3}
    - {fileID: 21300000, guid: f9b37088ae368ac46ae7e1281eda30e7, type: 3}
    - {fileID: 21300000, guid: a64e571ea0a5def4b9f012fe57bc08d9, type: 3}
    - {fileID: 21300000, guid: c8e747204a55d6443bad25a7fff2fc9f, type: 3}
    - {fileID: 21300000, guid: 49e0886be015d124698a409ab1f329b2, type: 3}
    - {fileID: 21300000, guid: a7ef51056417bec4a9b75888b6227429, type: 3}
    - {fileID: 21300000, guid: 076005f84aefbe94897410687be25a94, type: 3}
    - {fileID: 21300000, guid: 1ba076731e9ce19429fce7d1b906adbe, type: 3}
    - {fileID: 21300000, guid: f5669969261021744a3493c0d0a5ec7f, type: 3}
    - {fileID: 21300000, guid: 6a54ae82c6c15f9478c365001f5e108c, type: 3}
    - {fileID: 21300000, guid: 75c7fd7c721c31549b290a1e67644ecd, type: 3}
    - {fileID: 21300000, guid: 9e1b75c2be04181479e324eb016f78f7, type: 3}
    - {fileID: 21300000, guid: f259ec33992ccbb46a27e94de85fe5dd, type: 3}
    - {fileID: 21300000, guid: 4970266afa9f27b4181ab5389d2c2de1, type: 3}
    - {fileID: 21300000, guid: 236359d324fb12448abe67022e8a878c, type: 3}
    - {fileID: 21300000, guid: 3c1ccdd75ffb02743b08ace71b5968e0, type: 3}
    - {fileID: 21300000, guid: 38b30d12d2659c840ae23ddda616c888, type: 3}
    - {fileID: 21300000, guid: adf97b20fc481694fbfc75140a9d4a2b, type: 3}
    - {fileID: 21300000, guid: 2299eca1a67e7fb4d997380b63dc71cb, type: 3}
    - {fileID: 21300000, guid: d6c94c7ddb1433442a6e95285f831cb1, type: 3}
    - {fileID: 21300000, guid: e7d3f4f12184a4342a026a5b2833c40d, type: 3}
    - {fileID: 21300000, guid: 8be7fdd5a3e45674c84193511e58070a, type: 3}
    - {fileID: 21300000, guid: a5cb19c47cc99b74ab957ba84700cc7d, type: 3}
    - {fileID: 21300000, guid: 5453cc0a6e631264dbfa00d72115e7d9, type: 3}
    - {fileID: 21300000, guid: 7cf4ee9ff61a54c468c0cb236a23276e, type: 3}
    - {fileID: 21300000, guid: d7421348a0640594aa22ab8483607ece, type: 3}
    - {fileID: 21300000, guid: 34ddf919d17c8694f98bea2d76aa87d1, type: 3}
    - {fileID: 21300000, guid: 547e913bc50b463428467d794a677d2d, type: 3}
    - {fileID: 21300000, guid: 5a09ee2c5c09e6e47ab3a2627dc554b9, type: 3}
    - {fileID: 21300000, guid: b1e6947757eb4a844aa1e5ce7cba78ba, type: 3}
    - {fileID: 21300000, guid: 375c6f87c0ef8c049ac86f8e884e75ac, type: 3}
    - {fileID: 21300000, guid: 645fd710b349ee347aa4a3c04c3d9a26, type: 3}
    - {fileID: 21300000, guid: 06f4a9023e37f9946b933fe74d69ea16, type: 3}
    - {fileID: 21300000, guid: 6d741ca92f3d17a4e96d20d53f34e104, type: 3}
    - {fileID: 21300000, guid: 14da2bf4b82af8840808d4be21f76681, type: 3}
    - {fileID: 21300000, guid: e7f42cd3eb27f4743b18020df1c8733e, type: 3}
    - {fileID: 21300000, guid: 2f9eee7be278d50489deb733516e116f, type: 3}
    - {fileID: 21300000, guid: c5bae4fef6b5ffd4e8f1b22aaea722ec, type: 3}
    - {fileID: 21300000, guid: 4f7a18332fef5504d814be1997712303, type: 3}
    - {fileID: 21300000, guid: cf6d8f4b9d4a9584e8de4eeaff5c1fc1, type: 3}
    - {fileID: 21300000, guid: 934413b479d45764e888e4bd8ab995df, type: 3}
    - {fileID: 21300000, guid: 5cd411e8864a28443a444b8db1f9d8af, type: 3}
    - {fileID: 21300000, guid: 76fe54cba8bfdc84da6496f6c7d9be75, type: 3}
    - {fileID: 21300000, guid: d92c0e530e58b1e4eaeb02461512347f, type: 3}
    - {fileID: 21300000, guid: f0377bb5a1e252640afa0d0f93fbc145, type: 3}
    - {fileID: 21300000, guid: 801ee607136a0f94f8c1359c2f96293a, type: 3}
    - {fileID: 21300000, guid: a905bf75276877a4d983ca3b255c80d2, type: 3}
    - {fileID: 21300000, guid: 584f42d10dbd3b946bda49ea3aee44bd, type: 3}
    - {fileID: 21300000, guid: a85dec5792c578b4c92d0d9556accf59, type: 3}
    - {fileID: 21300000, guid: dc3be2cc4aff71b419c98391d53555d8, type: 3}
    - {fileID: 21300000, guid: 8362493394227bf47885561e97291dc3, type: 3}
    - {fileID: 21300000, guid: 5ef5e4af8bd1fc44e8ef58c6caaa979e, type: 3}
    - {fileID: 21300000, guid: cbe0fab65f9a97f45b73365a26ee7822, type: 3}
    - {fileID: 21300000, guid: bb8d81315b9318946b2b1a6c2f3f4579, type: 3}
    - {fileID: 21300000, guid: 53138eca874fe7c4ca039180c62165eb, type: 3}
    - {fileID: 21300000, guid: ea79b3d643b2f7441afab6485ad3f430, type: 3}
    - {fileID: 21300000, guid: 974a87f5bd3f9c64b92e9f3b0395b907, type: 3}
    - {fileID: 21300000, guid: 56d4a8283eda7874a92cd90c1fb82631, type: 3}
    - {fileID: 21300000, guid: 1d5d221750564964885d8d3b1ec5d594, type: 3}
    - {fileID: 21300000, guid: aae4c8a0656316a4ca763d21f9427d21, type: 3}
  m_AnimationClipSettings:
    serializedVersion: 2
    m_AdditiveReferencePoseClip: {fileID: 0}
    m_AdditiveReferencePoseTime: 0
    m_StartTime: 0
    m_StopTime: 1.5166667
    m_OrientationOffsetY: 0
    m_Level: 0
    m_CycleOffset: 0
    m_HasAdditiveReferencePose: 0
    m_LoopTime: 1
    m_LoopBlend: 0
    m_LoopBlendOrientation: 0
    m_LoopBlendPositionY: 0
    m_LoopBlendPositionXZ: 0
    m_KeepOriginalOrientation: 0
    m_KeepOriginalPositionY: 1
    m_KeepOriginalPositionXZ: 0
    m_HeightFromFeet: 0
    m_Mirror: 0
  m_EditorCurves: []
  m_EulerEditorCurves: []
  m_HasGenericRootTransform: 0
  m_HasMotionFloatCurves: 0
  m_Events: []
