%YAML 1.1
%TAG !u! tag:unity3d.com,2011:
--- !u!1 &5963406769239466267
GameObject:
  m_ObjectHideFlags: 0
  m_CorrespondingSourceObject: {fileID: 0}
  m_PrefabInstance: {fileID: 0}
  m_PrefabAsset: {fileID: 0}
  serializedVersion: 6
  m_Component:
  - component: {fileID: 5963406769239466256}
  - component: {fileID: 5963406769239466271}
  - component: {fileID: 5963406769239466269}
  - component: {fileID: 5963406769239466268}
  - component: {fileID: 5963406769239466257}
  m_Layer: 8
  m_Name: Bone 7
  m_TagString: Resource
  m_Icon: {fileID: 0}
  m_NavMeshLayer: 0
  m_StaticEditorFlags: 0
  m_IsActive: 1
--- !u!4 &5963406769239466256
Transform:
  m_ObjectHideFlags: 0
  m_CorrespondingSourceObject: {fileID: 0}
  m_PrefabInstance: {fileID: 0}
  m_PrefabAsset: {fileID: 0}
  m_GameObject: {fileID: 5963406769239466267}
  m_LocalRotation: {x: 0, y: 0, z: 0, w: 1}
  m_LocalPosition: {x: 0, y: 0, z: -0.01}
  m_LocalScale: {x: 0.75, y: 0.75, z: 0.75}
  m_Children: []
  m_Father: {fileID: 0}
  m_RootOrder: 0
  m_LocalEulerAnglesHint: {x: 0, y: 0, z: 0}
--- !u!212 &5963406769239466271
SpriteRenderer:
  m_ObjectHideFlags: 0
  m_CorrespondingSourceObject: {fileID: 0}
  m_PrefabInstance: {fileID: 0}
  m_PrefabAsset: {fileID: 0}
  m_GameObject: {fileID: 5963406769239466267}
  m_Enabled: 1
  m_CastShadows: 0
  m_ReceiveShadows: 0
  m_DynamicOccludee: 1
  m_MotionVectors: 1
  m_LightProbeUsage: 0
  m_ReflectionProbeUsage: 0
  m_RayTracingMode: 0
  m_RayTraceProcedural: 0
  m_RenderingLayerMask: 1
  m_RendererPriority: 0
  m_Materials:
  - {fileID: 10754, guid: 0000000000000000f000000000000000, type: 0}
  m_StaticBatchInfo:
    firstSubMesh: 0
    subMeshCount: 0
  m_StaticBatchRoot: {fileID: 0}
  m_ProbeAnchor: {fileID: 0}
  m_LightProbeVolumeOverride: {fileID: 0}
  m_ScaleInLightmap: 1
  m_ReceiveGI: 1
  m_PreserveUVs: 0
  m_IgnoreNormalsForChartDetection: 0
  m_ImportantGI: 0
  m_StitchLightmapSeams: 1
  m_SelectedEditorRenderState: 0
  m_MinimumChartSize: 4
  m_AutoUVMaxDistance: 0.5
  m_AutoUVMaxAngle: 89
  m_LightmapParameters: {fileID: 0}
  m_SortingLayerID: 0
  m_SortingLayer: 0
  m_SortingOrder: 11
  m_Sprite: {fileID: 21300000, guid: af623c5662ecaa847b3cb170fa94e292, type: 3}
  m_Color: {r: 1, g: 1, b: 1, a: 1}
  m_FlipX: 0
  m_FlipY: 0
  m_DrawMode: 0
  m_Size: {x: 1.38, y: 1.2}
  m_AdaptiveModeThreshold: 0.5
  m_SpriteTileMode: 0
  m_WasSpriteAssigned: 1
  m_MaskInteraction: 0
  m_SpriteSortPoint: 0
--- !u!50 &5963406769239466269
Rigidbody2D:
  serializedVersion: 4
  m_ObjectHideFlags: 0
  m_CorrespondingSourceObject: {fileID: 0}
  m_PrefabInstance: {fileID: 0}
  m_PrefabAsset: {fileID: 0}
  m_GameObject: {fileID: 5963406769239466267}
  m_BodyType: 0
  m_Simulated: 1
  m_UseFullKinematicContacts: 0
  m_UseAutoMass: 0
  m_Mass: 1
  m_LinearDrag: 0
  m_AngularDrag: 0.05
  m_GravityScale: 0
  m_Material: {fileID: 0}
  m_Interpolate: 1
  m_SleepingMode: 1
  m_CollisionDetection: 1
  m_Constraints: 0
--- !u!114 &5963406769239466268
MonoBehaviour:
  m_ObjectHideFlags: 0
  m_CorrespondingSourceObject: {fileID: 0}
  m_PrefabInstance: {fileID: 0}
  m_PrefabAsset: {fileID: 0}
  m_GameObject: {fileID: 5963406769239466267}
  m_Enabled: 1
  m_EditorHideFlags: 0
  m_Script: {fileID: 11500000, guid: 48f3d792d61ee4b20a6b55494ee1540a, type: 3}
  m_Name: 
  m_EditorClassIdentifier: 
  resource: {fileID: 11400000, guid: a1ce9930b5d169540a14edd5e0fa26aa, type: 2}
  icSnakeCrawl: {fileID: 0}
  snakeCanCrawl: 0
--- !u!60 &5963406769239466257
PolygonCollider2D:
  m_ObjectHideFlags: 0
  m_CorrespondingSourceObject: {fileID: 0}
  m_PrefabInstance: {fileID: 0}
  m_PrefabAsset: {fileID: 0}
  m_GameObject: {fileID: 5963406769239466267}
  m_Enabled: 1
  m_Density: 1
  m_Material: {fileID: 0}
  m_IsTrigger: 1
  m_UsedByEffector: 0
  m_UsedByComposite: 0
  m_Offset: {x: 0, y: 0}
  m_SpriteTilingProperty:
    border: {x: 0, y: 0, z: 0, w: 0}
    pivot: {x: 0.5, y: 0.5}
    oldSize: {x: 1.62, y: 1.92}
    newSize: {x: 1.38, y: 1.2}
    adaptiveTilingThreshold: 0.5
    drawMode: 0
    adaptiveTiling: 0
  m_AutoTiling: 0
  m_Points:
    m_Paths:
    - - {x: 0.37, y: 0.099999994}
      - {x: 0.53, y: -0.02}
      - {x: 0.62, y: -0.01}
      - {x: 0.75, y: 0.08}
      - {x: 0.81, y: 0.14999999}
      - {x: 0.81, y: 0.26}
      - {x: 0.76, y: 0.29999998}
      - {x: 0.53, y: 0.29999998}
      - {x: 0.22999999, y: 0.26}
      - {x: 0.03, y: 0.29999998}
      - {x: -0.12, y: 0.29999998}
      - {x: -0.29999998, y: 0.25}
      - {x: -0.47, y: 0.16}
      - {x: -0.72999996, y: 0.03}
      - {x: -0.81, y: -0.03}
      - {x: -0.81, y: -0.12}
      - {x: -0.79999995, y: -0.14}
      - {x: -0.66999996, y: -0.22}
      - {x: -0.45999998, y: -0.22999999}
      - {x: -0.22999999, y: -0.29999998}
      - {x: -0.14, y: -0.29999998}
      - {x: 0.03, y: -0.22}
      - {x: 0.19, y: -0.07}
      - {x: 0.22, y: 0.089999996}
    - - {x: -0.47, y: -0.14}
      - {x: -0.39999998, y: -0.14999999}
      - {x: -0.37, y: -0.12}
      - {x: -0.37, y: -0.11}
      - {x: -0.26999998, y: -0.12}
      - {x: -0.32, y: -0.14}
      - {x: -0.42, y: -0.14}
      - {x: -0.42999998, y: -0.13}
