%YAML 1.1
%TAG !u! tag:unity3d.com,2011:
--- !u!687078895 &4343727234628468602
SpriteAtlas:
  m_ObjectHideFlags: 0
  m_CorrespondingSourceObject: {fileID: 0}
  m_PrefabInstance: {fileID: 0}
  m_PrefabAsset: {fileID: 0}
  m_Name: map name atlas
  m_EditorData:
    serializedVersion: 2
    textureSettings:
      serializedVersion: 2
      anisoLevel: 1
      compressionQuality: 50
      maxTextureSize: 2048
      textureCompression: 0
      filterMode: 1
      generateMipMaps: 0
      readable: 0
      crunchedCompression: 0
      sRGB: 1
    platformSettings:
    - serializedVersion: 3
      m_BuildTarget: DefaultTexturePlatform
      m_MaxTextureSize: 2048
      m_ResizeAlgorithm: 0
      m_TextureFormat: -1
      m_TextureCompression: 2
      m_CompressionQuality: 50
      m_CrunchedCompression: 1
      m_AllowsAlphaSplitting: 0
      m_Overridden: 0
      m_AndroidETC2FallbackOverride: 0
      m_ForceMaximumCompressionQuality_BC6H_BC7: 0
    packingSettings:
      serializedVersion: 2
      padding: 2
      blockOffset: 1
      allowAlphaSplitting: 0
      enableRotation: 1
      enableTightPacking: 0
    secondaryTextureSettings: {}
    variantMultiplier: 1
    packables:
    - {fileID: 2800000, guid: 54fd04b972adac1409234f13f3076f4b, type: 3}
    - {fileID: 2800000, guid: 6f4d866bc3fa6764da5868892cbe9260, type: 3}
    - {fileID: 2800000, guid: e36388cb2314175448e1e1d85dfc8910, type: 3}
    - {fileID: 2800000, guid: 00961a278c0912c40b60cf435e5b7764, type: 3}
    - {fileID: 2800000, guid: 679f0a58b6ce49a469b5c6621beb1b30, type: 3}
    - {fileID: 2800000, guid: 9a9052446f2ba4047a144d5382151877, type: 3}
    - {fileID: 2800000, guid: 8fbe92c65cb417d4693915ca9128408a, type: 3}
    - {fileID: 2800000, guid: 61ce7a71389ab9143a55c8ea9d738c58, type: 3}
    - {fileID: 2800000, guid: 888eb3d4ee9971841a145358e99f2ae6, type: 3}
    - {fileID: 2800000, guid: 0953e1479f31f1049be8ba3acafb0dfb, type: 3}
    - {fileID: 2800000, guid: 10aadc816b70e584ab06dbfb39fb5bf6, type: 3}
    - {fileID: 2800000, guid: b26a78cd4d6ced44c97484db99d137db, type: 3}
    totalSpriteSurfaceArea: 603920
    bindAsDefault: 1
    isAtlasV2: 0
    cachedData: {fileID: 0}
  m_MasterAtlas: {fileID: 0}
  m_PackedSprites:
  - {fileID: 21300000, guid: 61ce7a71389ab9143a55c8ea9d738c58, type: 3}
  - {fileID: 21300000, guid: 10aadc816b70e584ab06dbfb39fb5bf6, type: 3}
  - {fileID: 21300000, guid: 9a9052446f2ba4047a144d5382151877, type: 3}
  - {fileID: 21300000, guid: 888eb3d4ee9971841a145358e99f2ae6, type: 3}
  - {fileID: 21300000, guid: 8fbe92c65cb417d4693915ca9128408a, type: 3}
  - {fileID: 21300000, guid: 00961a278c0912c40b60cf435e5b7764, type: 3}
  - {fileID: 21300000, guid: 0953e1479f31f1049be8ba3acafb0dfb, type: 3}
  - {fileID: 21300000, guid: 679f0a58b6ce49a469b5c6621beb1b30, type: 3}
  - {fileID: 21300000, guid: 54fd04b972adac1409234f13f3076f4b, type: 3}
  - {fileID: 21300000, guid: 6f4d866bc3fa6764da5868892cbe9260, type: 3}
  - {fileID: 21300000, guid: e36388cb2314175448e1e1d85dfc8910, type: 3}
  - {fileID: 21300000, guid: b26a78cd4d6ced44c97484db99d137db, type: 3}
  m_PackedSpriteNamesToIndex:
  - "h\u01B0\u1EDBng d\u1EABn"
  - toturial
  - "hy l\u1EA1p(1)"
  - indus
  - "hy l\u1EA1p"
  - asgard
  - maya
  - atlantis
  - "ai c\u1EADp(1)"
  - "ai c\u1EADp"
  - anasazi
  - viking
  m_RenderDataMap: {}
  m_Tag: map name atlas
  m_IsVariant: 0
