%YAML 1.1
%TAG !u! tag:unity3d.com,2011:
--- !u!74 &7400000
AnimationClip:
  m_ObjectHideFlags: 0
  m_CorrespondingSourceObject: {fileID: 0}
  m_PrefabInstance: {fileID: 0}
  m_PrefabAsset: {fileID: 0}
  m_Name: Boss Odin Move
  serializedVersion: 6
  m_Legacy: 0
  m_Compressed: 0
  m_UseHighQualityCurve: 1
  m_RotationCurves: []
  m_CompressedRotationCurves: []
  m_EulerCurves: []
  m_PositionCurves: []
  m_ScaleCurves: []
  m_FloatCurves: []
  m_PPtrCurves:
  - curve:
    - time: 0
      value: {fileID: 21300000, guid: 32eb28ebc0e6eda44a06692dff219d9e, type: 3}
    - time: 0.033333335
      value: {fileID: 21300000, guid: f029b4e60802f404cb020acb3bdd6837, type: 3}
    - time: 0.05
      value: {fileID: 21300000, guid: 7b9625c6842e9294980af5c0d800dc5d, type: 3}
    - time: 0.083333336
      value: {fileID: 21300000, guid: f013211cfff985a49ac3303a28d1ea59, type: 3}
    - time: 0.1
      value: {fileID: 21300000, guid: d79d88157e180504e8ccafa9d95ee4cb, type: 3}
    - time: 0.13333334
      value: {fileID: 21300000, guid: 02cddddcef16dca479e5add411c357f9, type: 3}
    - time: 0.15
      value: {fileID: 21300000, guid: 30762aadcc8fc6445afc01140c02111b, type: 3}
    - time: 0.18333334
      value: {fileID: 21300000, guid: 92e91091c727b1a4d9c4e097ce4d18ef, type: 3}
    - time: 0.2
      value: {fileID: 21300000, guid: 2664e1a06010e8e4b9e9db3c768ae8e8, type: 3}
    - time: 0.23333333
      value: {fileID: 21300000, guid: f2e4f7fd3b321604fb8a38ff71645ae2, type: 3}
    - time: 0.25
      value: {fileID: 21300000, guid: c0ceca954ec7e0345a02eee28dabe791, type: 3}
    - time: 0.28333333
      value: {fileID: 21300000, guid: d1081053649f35e44bcb317486f9410a, type: 3}
    - time: 0.3
      value: {fileID: 21300000, guid: 7e7535f21e239f248a1aa785f245b5fd, type: 3}
    - time: 0.33333334
      value: {fileID: 21300000, guid: 542e479b9eed979478bb3b1374224b50, type: 3}
    - time: 0.35
      value: {fileID: 21300000, guid: 5f448b5481928fb48b86537662f8d2b3, type: 3}
    - time: 0.38333333
      value: {fileID: 21300000, guid: fa7859d4173544e4a8bdab48b410e811, type: 3}
    - time: 0.4
      value: {fileID: 21300000, guid: 003130fb224597a4f8d4b29a0569bebf, type: 3}
    - time: 0.43333334
      value: {fileID: 21300000, guid: eb7438f70019d8a4f9ce7e84b293efde, type: 3}
    - time: 0.45
      value: {fileID: 21300000, guid: 52de05391aef5c1499f90f41027d1389, type: 3}
    - time: 0.48333332
      value: {fileID: 21300000, guid: 3d05cc413fd09c4438ba872bae4ba19b, type: 3}
    - time: 0.51666665
      value: {fileID: 21300000, guid: d2182a7e4bb1e8d4193a346c92bd7ac9, type: 3}
    - time: 0.53333336
      value: {fileID: 21300000, guid: ae02a4fc44405b8478c2ab99cd75900f, type: 3}
    - time: 0.56666666
      value: {fileID: 21300000, guid: 0e0a7befcc0471c49b0a7634c3aef58f, type: 3}
    - time: 0.5833333
      value: {fileID: 21300000, guid: 20e8422ba113bb44daa9b82bfc6fd2ab, type: 3}
    - time: 0.6166667
      value: {fileID: 21300000, guid: a09fbb0fd8931b44582a72e568bcd0a9, type: 3}
    - time: 0.6333333
      value: {fileID: 21300000, guid: 7e6f456cc52e5884797bc30c6818345a, type: 3}
    - time: 0.6666667
      value: {fileID: 21300000, guid: 9dfe00466d9ac3445be87cf3fd5dc430, type: 3}
    - time: 0.68333334
      value: {fileID: 21300000, guid: bfed44cfa3bea5142bfa00cdc0024bc2, type: 3}
    - time: 0.71666664
      value: {fileID: 21300000, guid: 98b39ed698315b8409757de1a9974609, type: 3}
    - time: 0.73333335
      value: {fileID: 21300000, guid: 974e27aff6ecfbc4c92cfa289cd0f336, type: 3}
    - time: 0.76666665
      value: {fileID: 21300000, guid: 6544e6204ffa432478d430c394f8219b, type: 3}
    - time: 0.78333336
      value: {fileID: 21300000, guid: 652c89229cdffd840be8a7346e410d49, type: 3}
    - time: 0.81666666
      value: {fileID: 21300000, guid: e8561164658ad674e8568f5ab463d746, type: 3}
    - time: 0.8333333
      value: {fileID: 21300000, guid: a0a3a205176034e43bb5d7b8aa93eecb, type: 3}
    - time: 0.8666667
      value: {fileID: 21300000, guid: 3441e46e501e45040a5b48bf3092feb0, type: 3}
    - time: 0.8833333
      value: {fileID: 21300000, guid: 415cd65cb627bde4c9c401e9df51ff9f, type: 3}
    - time: 0.9166667
      value: {fileID: 21300000, guid: e39766438d4015147ba1d1bb4280e713, type: 3}
    - time: 0.93333334
      value: {fileID: 21300000, guid: a3b3510eedb8a7749b7e8973c14bdb43, type: 3}
    - time: 0.96666664
      value: {fileID: 21300000, guid: 42e9e27cfa87d244e8b0949e6480f517, type: 3}
    - time: 0.98333335
      value: {fileID: 21300000, guid: 93f5aacdc8230dd44b37be5e40760c75, type: 3}
    - time: 1.0166667
      value: {fileID: 21300000, guid: d3ba65a886f2bbc4d8f0ee7273c0450a, type: 3}
    - time: 1.05
      value: {fileID: 21300000, guid: a3f60e0d79a0fd64db45f28991e03ad8, type: 3}
    - time: 1.0666667
      value: {fileID: 21300000, guid: 43899046ab154d44381ada62382361a2, type: 3}
    - time: 1.1
      value: {fileID: 21300000, guid: 8b8ad8154681e2a4aa850a903867a962, type: 3}
    - time: 1.1166667
      value: {fileID: 21300000, guid: 6064dae168330a347ac9002b82627f95, type: 3}
    - time: 1.15
      value: {fileID: 21300000, guid: a4739d1344a0034479672ee5d06f5fad, type: 3}
    - time: 1.1666666
      value: {fileID: 21300000, guid: aca742c9c37a359428daa0c0aabd296b, type: 3}
    - time: 1.2
      value: {fileID: 21300000, guid: 29a651a7dd0100447b29ed3d0c0effd0, type: 3}
    - time: 1.2166667
      value: {fileID: 21300000, guid: 27474cda43a3d8d4db2c37ccd79017e2, type: 3}
    - time: 1.25
      value: {fileID: 21300000, guid: 4c1997fbe34aa764fb082ac7f6fc27d6, type: 3}
    - time: 1.2666667
      value: {fileID: 21300000, guid: 3ca13320f7f64044683e84d1f837437d, type: 3}
    - time: 1.3
      value: {fileID: 21300000, guid: a760eae703dd3ee488ad9a9cd031185e, type: 3}
    - time: 1.3166667
      value: {fileID: 21300000, guid: 4234fe0c7da70934b9f1109c3106a23a, type: 3}
    - time: 1.35
      value: {fileID: 21300000, guid: e907958f5299c6040972b53d68aeae14, type: 3}
    - time: 1.3666667
      value: {fileID: 21300000, guid: ccfaa4015c42fb34997955f9ee6823d7, type: 3}
    - time: 1.4
      value: {fileID: 21300000, guid: 0925c61b47b8acf4da448703cdbac733, type: 3}
    - time: 1.4166666
      value: {fileID: 21300000, guid: aa34073a9f9dcab449541b796220d867, type: 3}
    - time: 1.45
      value: {fileID: 21300000, guid: f19bc1ac744ab1344b0d66e3c9c4897c, type: 3}
    - time: 1.4666667
      value: {fileID: 21300000, guid: b41cca987d21bcf4f802e7bd7575bfb0, type: 3}
    - time: 1.5
      value: {fileID: 21300000, guid: c432e39df35be884b81bfbefa22fc9bf, type: 3}
    attribute: m_Sprite
    path: 
    classID: 212
    script: {fileID: 0}
  m_SampleRate: 60
  m_WrapMode: 0
  m_Bounds:
    m_Center: {x: 0, y: 0, z: 0}
    m_Extent: {x: 0, y: 0, z: 0}
  m_ClipBindingConstant:
    genericBindings:
    - serializedVersion: 2
      path: 0
      attribute: 0
      script: {fileID: 0}
      typeID: 212
      customType: 23
      isPPtrCurve: 1
    pptrCurveMapping:
    - {fileID: 21300000, guid: 32eb28ebc0e6eda44a06692dff219d9e, type: 3}
    - {fileID: 21300000, guid: f029b4e60802f404cb020acb3bdd6837, type: 3}
    - {fileID: 21300000, guid: 7b9625c6842e9294980af5c0d800dc5d, type: 3}
    - {fileID: 21300000, guid: f013211cfff985a49ac3303a28d1ea59, type: 3}
    - {fileID: 21300000, guid: d79d88157e180504e8ccafa9d95ee4cb, type: 3}
    - {fileID: 21300000, guid: 02cddddcef16dca479e5add411c357f9, type: 3}
    - {fileID: 21300000, guid: 30762aadcc8fc6445afc01140c02111b, type: 3}
    - {fileID: 21300000, guid: 92e91091c727b1a4d9c4e097ce4d18ef, type: 3}
    - {fileID: 21300000, guid: 2664e1a06010e8e4b9e9db3c768ae8e8, type: 3}
    - {fileID: 21300000, guid: f2e4f7fd3b321604fb8a38ff71645ae2, type: 3}
    - {fileID: 21300000, guid: c0ceca954ec7e0345a02eee28dabe791, type: 3}
    - {fileID: 21300000, guid: d1081053649f35e44bcb317486f9410a, type: 3}
    - {fileID: 21300000, guid: 7e7535f21e239f248a1aa785f245b5fd, type: 3}
    - {fileID: 21300000, guid: 542e479b9eed979478bb3b1374224b50, type: 3}
    - {fileID: 21300000, guid: 5f448b5481928fb48b86537662f8d2b3, type: 3}
    - {fileID: 21300000, guid: fa7859d4173544e4a8bdab48b410e811, type: 3}
    - {fileID: 21300000, guid: 003130fb224597a4f8d4b29a0569bebf, type: 3}
    - {fileID: 21300000, guid: eb7438f70019d8a4f9ce7e84b293efde, type: 3}
    - {fileID: 21300000, guid: 52de05391aef5c1499f90f41027d1389, type: 3}
    - {fileID: 21300000, guid: 3d05cc413fd09c4438ba872bae4ba19b, type: 3}
    - {fileID: 21300000, guid: d2182a7e4bb1e8d4193a346c92bd7ac9, type: 3}
    - {fileID: 21300000, guid: ae02a4fc44405b8478c2ab99cd75900f, type: 3}
    - {fileID: 21300000, guid: 0e0a7befcc0471c49b0a7634c3aef58f, type: 3}
    - {fileID: 21300000, guid: 20e8422ba113bb44daa9b82bfc6fd2ab, type: 3}
    - {fileID: 21300000, guid: a09fbb0fd8931b44582a72e568bcd0a9, type: 3}
    - {fileID: 21300000, guid: 7e6f456cc52e5884797bc30c6818345a, type: 3}
    - {fileID: 21300000, guid: 9dfe00466d9ac3445be87cf3fd5dc430, type: 3}
    - {fileID: 21300000, guid: bfed44cfa3bea5142bfa00cdc0024bc2, type: 3}
    - {fileID: 21300000, guid: 98b39ed698315b8409757de1a9974609, type: 3}
    - {fileID: 21300000, guid: 974e27aff6ecfbc4c92cfa289cd0f336, type: 3}
    - {fileID: 21300000, guid: 6544e6204ffa432478d430c394f8219b, type: 3}
    - {fileID: 21300000, guid: 652c89229cdffd840be8a7346e410d49, type: 3}
    - {fileID: 21300000, guid: e8561164658ad674e8568f5ab463d746, type: 3}
    - {fileID: 21300000, guid: a0a3a205176034e43bb5d7b8aa93eecb, type: 3}
    - {fileID: 21300000, guid: 3441e46e501e45040a5b48bf3092feb0, type: 3}
    - {fileID: 21300000, guid: 415cd65cb627bde4c9c401e9df51ff9f, type: 3}
    - {fileID: 21300000, guid: e39766438d4015147ba1d1bb4280e713, type: 3}
    - {fileID: 21300000, guid: a3b3510eedb8a7749b7e8973c14bdb43, type: 3}
    - {fileID: 21300000, guid: 42e9e27cfa87d244e8b0949e6480f517, type: 3}
    - {fileID: 21300000, guid: 93f5aacdc8230dd44b37be5e40760c75, type: 3}
    - {fileID: 21300000, guid: d3ba65a886f2bbc4d8f0ee7273c0450a, type: 3}
    - {fileID: 21300000, guid: a3f60e0d79a0fd64db45f28991e03ad8, type: 3}
    - {fileID: 21300000, guid: 43899046ab154d44381ada62382361a2, type: 3}
    - {fileID: 21300000, guid: 8b8ad8154681e2a4aa850a903867a962, type: 3}
    - {fileID: 21300000, guid: 6064dae168330a347ac9002b82627f95, type: 3}
    - {fileID: 21300000, guid: a4739d1344a0034479672ee5d06f5fad, type: 3}
    - {fileID: 21300000, guid: aca742c9c37a359428daa0c0aabd296b, type: 3}
    - {fileID: 21300000, guid: 29a651a7dd0100447b29ed3d0c0effd0, type: 3}
    - {fileID: 21300000, guid: 27474cda43a3d8d4db2c37ccd79017e2, type: 3}
    - {fileID: 21300000, guid: 4c1997fbe34aa764fb082ac7f6fc27d6, type: 3}
    - {fileID: 21300000, guid: 3ca13320f7f64044683e84d1f837437d, type: 3}
    - {fileID: 21300000, guid: a760eae703dd3ee488ad9a9cd031185e, type: 3}
    - {fileID: 21300000, guid: 4234fe0c7da70934b9f1109c3106a23a, type: 3}
    - {fileID: 21300000, guid: e907958f5299c6040972b53d68aeae14, type: 3}
    - {fileID: 21300000, guid: ccfaa4015c42fb34997955f9ee6823d7, type: 3}
    - {fileID: 21300000, guid: 0925c61b47b8acf4da448703cdbac733, type: 3}
    - {fileID: 21300000, guid: aa34073a9f9dcab449541b796220d867, type: 3}
    - {fileID: 21300000, guid: f19bc1ac744ab1344b0d66e3c9c4897c, type: 3}
    - {fileID: 21300000, guid: b41cca987d21bcf4f802e7bd7575bfb0, type: 3}
    - {fileID: 21300000, guid: c432e39df35be884b81bfbefa22fc9bf, type: 3}
  m_AnimationClipSettings:
    serializedVersion: 2
    m_AdditiveReferencePoseClip: {fileID: 0}
    m_AdditiveReferencePoseTime: 0
    m_StartTime: 0
    m_StopTime: 1.5166667
    m_OrientationOffsetY: 0
    m_Level: 0
    m_CycleOffset: 0
    m_HasAdditiveReferencePose: 0
    m_LoopTime: 1
    m_LoopBlend: 0
    m_LoopBlendOrientation: 0
    m_LoopBlendPositionY: 0
    m_LoopBlendPositionXZ: 0
    m_KeepOriginalOrientation: 0
    m_KeepOriginalPositionY: 1
    m_KeepOriginalPositionXZ: 0
    m_HeightFromFeet: 0
    m_Mirror: 0
  m_EditorCurves: []
  m_EulerEditorCurves: []
  m_HasGenericRootTransform: 0
  m_HasMotionFloatCurves: 0
  m_Events: []
