%YAML 1.1
%TAG !u! tag:unity3d.com,2011:
--- !u!114 &11400000
MonoBehaviour:
  m_ObjectHideFlags: 0
  m_CorrespondingSourceObject: {fileID: 0}
  m_PrefabInstance: {fileID: 0}
  m_PrefabAsset: {fileID: 0}
  m_GameObject: {fileID: 0}
  m_Enabled: 1
  m_EditorHideFlags: 0
  m_Script: {fileID: 11500000, guid: ffcc26ac2b9a47199fb2ba40069c48bf, type: 3}
  m_Name: Quest anasazi 1-4
  m_EditorClassIdentifier: 
  rewards:
  - rewards:
    - item: {fileID: 11400000, guid: be8a1f450a0207e4d8799ade8179df41, type: 2}
      amount: 1
      drop: 100
    drop: 100
    random: 0
  requires:
  - itemRequire: {fileID: 11400000, guid: acf5265c15a88e940a42a33be8419fda, type: 2}
    requireAmount: 1
    currentAmount: 0
  - itemRequire: {fileID: 11400000, guid: 471625e460de3b14aad1ba99da226fc6, type: 2}
    requireAmount: 1
    currentAmount: 0
  - itemRequire: {fileID: 11400000, guid: 0fc12098549514042a0cf01c5240df6a, type: 2}
    requireAmount: 1
    currentAmount: 0
  filterType: 0
  questType: 2
  id: 59de5c7e-2643-4471-a44e-853bb21fa53f
  title: 
  description: "ho\xE0n th\xE0nh 3 round"
  daily: 0
  received: 0
  killAllBoss: 0
