%YAML 1.1
%TAG !u! tag:unity3d.com,2011:
--- !u!114 &11400000
MonoBehaviour:
  m_ObjectHideFlags: 0
  m_CorrespondingSourceObject: {fileID: 0}
  m_PrefabInstance: {fileID: 0}
  m_PrefabAsset: {fileID: 0}
  m_GameObject: {fileID: 0}
  m_Enabled: 1
  m_EditorHideFlags: 0
  m_Script: {fileID: 11500000, guid: 741c48ce0d6247f7be5538076492add9, type: 3}
  m_Name: Story Egypt
  m_EditorClassIdentifier: 
  subDescriptions:
  - "Trong l\xFAc t\xECm ki\u1EBFm manh m\u1ED1i v\u1EC1 m\u1EA3nh gh\xE9p cu\u1ED1i
    c\xF9ng th\xEC Vincent \u0111\u1EE5ng tr\xFAng Marp khi c\u1EADu b\xE9 \u0111ang
    b\u1ECB truy \u0111u\u1ED5i trong khu ch\u1EE3 c\u0169. Marp: l\xE0 m\u1ED9t
    c\u1EADu b\xE9 l\u01B0\u01A1ng thi\u1EC7n v\xE0 c\xF3 tr\xED \xF3c h\u01A1n ng\u01B0\u1EDDi.
    T\u1EEBng ch\u1EE9ng ki\u1EBFn c\u1EA3nh m\u1EB9 m\xECnh m\u1EA5t v\xEC kh\xF4ng
    c\xF3 ti\u1EC1n ch\u1EEFa b\u1EC7nh trong l\xF2ng c\u1EE7a Marp lu\xF4n c\xF3
    suy ngh\u0129 v\u1EC1 s\u1EF1 c\xF4ng b\u1EB1ng trong x\xE3 h\u1ED9i. T\u01B0\u01A1ng
    truy\u1EC1n r\u1EB1ng, trong nh\u1EEFng l\u0103ng m\u1ED9 c\u1EE7a Pharaoh c\xF3
    r\u1EA5t nhi\u1EC1u b\u1EA3o v\u1EADt qu\xFD c\xF3 gi\xE1 tr\u1ECB, \u0111\u01B0\u1EE3c
    bi\u1EBFt Vincent \u0111ang t\u1EDBi L\xE3nh \u0111\u1ECBa Pharaoh \u0111\u1EC3
    t\xECm ki\u1EBFm ki\u1EBFn th\u1EE9c v\u1EC1 nh\xE2n lo\u1EA1i, Marp quy\u1EBFt
    \u0111\u1ECBnh c\xF9ng theo anh t\u1EDBi \u0111\xF3."
  - "Bao quanh l\xE3nh \u0111\u1ECBa Pharaoh l\xE0 1 sa m\u1EA1c c\u1EF1c k\xEC r\u1ED9ng
    l\u1EDBn v\xE0 \u0111\u1EC3 v\xE0o s\xE2u b\xEAn trong, 2 ng\u01B0\u1EDDi h\u1ECD
    b\u1EAFt bu\u1ED9c ph\u1EA3i b\u0103ng qua sa m\u1EA1c r\u1ED9ng l\u1EDBn \u2013
    n\u01A1i c\xF3 nh\u1EEFng lo\xE0i v\u1EADt nguy hi\u1EC3m v\xE0 th\u01B0\u1EDDng
    xuy\xEAn x\u1EA3y ra nh\u1EEFng tr\u1EADn b\xE3o c\xE1t. Ng\u01B0\u1EDDi d\xE2n
    Ai C\u1EADp th\u01B0\u1EDDng v\xED sa m\u1EA1c n\xE0y nh\u01B0 1 t\u1EA5m m\xE0n
    \u0111\u1EC3 b\u1EA3o v\u1EC7 cho c\xE1c Pharaoh ng\u1EE7 y\xEAn. \u0110\xE3
    t\u1EEBng c\xF3 r\u1EA5t nhi\u1EC1u k\u1EBB mu\u1ED1n v\xE0o s\xE2u trong nh\u1EEFng
    l\u0103ng m\u1ED9 n\xE0y \u0111\u1EC3 t\xECm ki\u1EBFm nh\u1EEFng kho b\xE1u
    c\u1EE7a Pharaoh \u0111\u1EC3 l\u1EA1i nh\u01B0ng k\u1EBFt qu\u1EA3 l\xE0 ph\u1EA3i
    b\u1ECF m\u1EA1ng tr\xEAn sa m\u1EA1c ch\u1EBFt ch\xF3c n\xE0y. Nh\u01B0ng kh\xF4ng
    v\xEC th\u1EBF m\xE0 Vincent n\u1EA3n l\xF2ng, anh v\xE0 Marp v\u1EABn ti\u1EBFn
    s\xE2u v\xE0o trong sa m\u1EA1c v\xE0 \u0111\u1ED1i m\u1EB7t v\u1EDBi tr\u1EADn
    b\xE3o c\xE1t. D\xF9 r\u1EA5t kh\xF3 kh\u0103n nh\u01B0ng Vincent v\xE0 Marp
    c\u0169ng v\u01B0\u1EE3t qua \u0111\u01B0\u1EE3c v\xE0 th\xE2m nh\u1EADp v\xE0o
    l\xE3nh \u0111\u1ECBa Pharaoh."
  - "V\u01B0\u1EE3t qua \u0111\u01B0\u1EE3c tr\u1EADn b\xE3o c\xE1t ch\u01B0a ph\u1EA3i
    l\xE0 t\u1EA5t c\u1EA3, Vincent c\xF2n ph\u1EA3i \u0111\u1ED1i \u0111\u1EA7u
    v\u1EDBi t\u01B0\u1EE3ng nh\xE2n s\u01B0 v\xE0 nh\u1EEFng v\xF9ng c\xE1t l\xFAn.
    B\u1EB1ng k\u0129 n\u0103ng v\xE0 m\u01B0u tr\xED c\u1EE7a m\xECnh, Vincent v\xE0
    nh\u1EEFng ng\u01B0\u1EDDi \u0111\u1ED3ng \u0111\u1ED9i cu\u1ED1i c\xF9ng c\u0169ng
    \u0111\xE1nh l\u1EA1c h\u01B0\u1EDBng \u0111\u01B0\u1EE3c Nh\xE2n s\u01B0 v\xE0
    v\u01B0\u1EE3t qua, l\u1EBBn v\xE0o b\xEAn trong Kim t\u1EF1 th\xE1p Giza."
  - "Giza th\u01B0\u1EDDng \u0111\u01B0\u1EE3c nh\u1EAFc \u0111\u1EBFn l\xE0 m\u1ED9t
    m\xEA cung v\u1EDBi nhi\u1EC1u h\u1EA7m ch\xF4ng, b\u1EABy \xE1m kh\xED\u2026.
    D\xF9 c\xF3 v\u01B0\u1EE3t qua \u0111\u01B0\u1EE3c sa m\u1EA1c th\xEC \u0111\u1EC3
    s\u1ED1ng s\xF3t \u0111\u01B0\u1EE3c trong Giza c\u0169ng kh\xF4ng ph\u1EA3i
    l\xE0 \u0111i\u1EC1u d\u1EC5 d\xE0ng. Nh\u01B0ng n\xE9m lao th\xEC ph\u1EA3i
    theo lao, Vincent v\xE0 nh\u1EEFng ng\u01B0\u1EDDi \u0111\u1ED3ng \u0111\u1ED9i
    ti\u1EBFp t\u1EE5c ti\u1EBFn v\xE0o trong Giza, v\u1EDBi mong mu\u1ED1n t\xECm
    ra \u0111\u01B0\u1EE3c n\u01A1i ch\xF4n gi\u1EA5u b\xED \u1EA9n v\u1EC1 lo\xE0i
    ng\u01B0\u1EDDi th\u1EADt s\u1EF1. \r\nVincent cu\u1ED1i c\xF9ng c\u0169ng \u0111\xE3
    v\u01B0\u1EE3t qua \u0111\u01B0\u1EE3c nh\u1EEFng c\xE1i b\u1EABy ch\u1EBFt ng\u01B0\u1EDDi
    \u0111\u01B0\u1EE3c b\u1ED1 tr\xED trong Giza v\xE0 t\xECm th\u1EA5y v\xE0i manh
    m\u1ED1i v\u1EC1 m\u1EA3nh gh\xE9p cu\u1ED1i c\xF9ng \u1EDF tr\xEAn b\u1EE9c
    t\u01B0\u1EDDng cu\u1ED1i \u0111\u01B0\u1EDDng h\u1EA7m. Xung quan nh\u1EEFng
    b\u1EE9c t\u01B0\u1EDDng \u0111\xF3 l\xE0 nh\u1EEFng ch\u1EEF t\u01B0\u1EE3ng
    h\xECnh, h\xECnh nh\u01B0 \u0111\xF3 l\xE0 1 c\xE2u \u0111\u1ED1. Khi Vincent
    t\xECm ra \u0111\u01B0\u1EE3c c\xE2u tr\u1EA3 l\u1EDDi, b\u1EE9c t\u01B0\u1EDDng
    li\u1EC1n h\u1EA1 xu\u1ED1ng m\u1EDF ra 1 c\u0103n ph\xF2ng r\u1ED9ng l\u1EDBn
    \u0111\u1EB1ng sau n\xF3. Vincent v\xE0 Marp ti\u1EBFn v\xE0o b\xEAn trong\u2026"
  - "Trong c\u0103n ph\xF2ng n\xE0y, c\xF3 nh\u1EEFng ng\u1ECDn \u0111u\u1ED1c \u0111\u01B0\u1EE3c
    th\u1EAFp s\xE1ng xung quanh, \u1EDF gi\u1EEFa l\xE0 \u1EDF gi\u1EEFa l\xE0 phi\u1EBFn
    \u0111\xE1 to, x\u1EBFp xung quanh n\xF3 l\xE0 nh\u1EEFng quan t\xE0i c\u1EE7a
    Pharaoh t\u1EEB h\xE0ng ng\xE0n n\u0103m tr\u01B0\u1EDBc. Tr\u1EA5n gi\u1EEF
    nh\u1EEFng chi\u1EBFc quan t\xE0i \u0111\xF3, l\xE0 1 b\u1EE9c t\u01B0\u1EE3ng
    l\u1EDBn c\u1EE7a th\u1EA7n Anubis- V\u1ECB th\u1EA7n ch\u1EBFt c\u1EE7a Ai c\u1EADp
    ho\u1EB7c c\xF2n \u0111\u01B0\u1EE3c bi\u1EBFt \u0111\u1EBFn l\xE0 v\u1ECB th\u1EA7n
    h\u1ED9 m\u1EC7nh c\u1EE7a c\xE1c x\xE1c \u01B0\u1EDBp. Sau 1 l\xFAc quan s\xE1t,
    Vincent ti\u1EBFn l\u1EA1i g\u1EA7n phi\u1EBFn \u0111\xE1 th\xEC 1 ti\u1EBFng
    \u0111\u1ED9ng l\u1EDBn ph\xE1t ra\u2026\u0111\xF4i m\u1EAFt c\u1EE7a b\u1EE9c
    t\u01B0\u1EE3ng Anubis s\xE1ng l\xEAn, ph\xE1t b\u1ECF l\u1EDBp v\u1ECF b\u1ECDc
    b\u1EB1ng \u0111\xE1 \u1EDF b\xEAn ngo\xE0i v\xE0 t\u1EEB t\u1EEB b\u01B0\u1EDBc
    xu\u1ED1ng b\u1EC7 \u0111\xE1\u2026\r\nV\xEC ng\u01B0\u01A1i \u0111\xE3 d\xE1m
    ph\xE1 v\u1EE1 gi\u1EA5c ng\u1EE7 c\u1EE7a Pharaoh n\xEAn linh h\u1ED3n c\u1EE7a
    ng\u01B0\u01A1i s\u1EBD b\u1ECB giam c\u1EA7m \u1EDF \u0111\xE2y m\xE3i m\xE3i
    \u2013 ti\u1EBFng g\u1EA7m ph\xE1t ra t\u1EEB Anubis.\r\nN\xF3i xong Anubis lao
    t\u1EDBi t\u1EA5n c\xF4ng Vincent, s\u1EE9c m\u1EA1nh c\u1EE7a Anubis l\xE0m
    c\u0103n h\u1EA7m ph\u1EA3i rung chuy\u1EC3n.\r\nVincent v\xE0 Anubis giao chi\u1EBFn
    v\u1EDBi nhau.\r\nSau 1 h\u1ED3i l\xE2u, Vincent \u0111\xE3 \u0111\xE1nh b\u1EA1i
    th\u1EA7n Anubis nh\u01B0ng \u0111\xE3 v\xF4 t\xECnh \u0111\xE1nh th\u1EE9c nh\u1EEFng
    x\xE1c \u01B0\u1EDBp c\u1EE7a Pharaoh trong nh\u1EEFng c\u1ED7 quan t\xE0i tr\u1ED7i
    d\u1EADy. "
  - "\u0110\u1EC3 ti\u1EBFn v\xE0o c\u0103n ph\xF2ng \u2013 n\u01A1i ch\u1EE9a m\u1EA3nh
    gh\xE9p cu\u1ED1i c\xF9ng, Vincent v\xE0 Marp ph\u1EA3i \u0111\u1ED1i \u0111\u1EA7u
    v\u1EDBi c\xE1c x\xE1c \u01B0\u1EDBp, c\xE1c x\xE1c \u01B0\u1EDBp n\xE0y \u0111\xE3
    b\u1ECB y\u1EC3m b\xF9a v\xE0 \u0111\u01B0\u1EE3c th\u1EEBa k\u1EBF s\u1EE9c
    m\u1EA1nh c\u1EE7a Anubis n\xEAn ch\xFAng c\xF3 th\u1EC3 t\u1EA1o ra c\xE1c \u1EA3o
    \u1EA3nh, th\xF4i mi\xEAn. L\u1EA7n n\xE0y, Marp \u0111\xE3 b\u1ECB kh\u1ED1ng
    ch\u1EBF b\u1EDFi nh\u1EEFng t\xEAn x\xE1c \u01B0\u1EDBp. Marp th\u1EA5y m\xECnh
    \u0111ang l\xE0 g\xE1nh n\u1EB7ng cho Vincent n\xEAn \u0111\xE3 n\xF3i Vincent
    h\xE3y ti\u1EBFn v\xE0o b\xEAn trong c\u0103n ph\xF2ng\u2026 Nh\u01B0ng Vincent
    kh\xF4ng n\u1EE1 \u0111\u1EC3 Marp b\u1ECB giam gi\u1EEF m\xE3i m\xE3i \u1EDF
    \u0111\xE2y n\xEAn \u0111\xE3 t\xECm c\xE1ch ph\xE1 b\u1ECF s\u1EE9c m\u1EA1nh
    c\u1EE7a Anubis \u0111\u1EC3 kh\u1ED1ng ch\u1EBF nh\u01B0ng t\xEAn x\xE1c \u01B0\u1EDBp
    kia.\r\nNh\u1EADn th\u1EA5y \u0111\u01B0\u1EE3c s\u1EE9c m\u1EA1nh d\u01B0\u1EE3c
    ph\xE1t ra t\u1EEB c\xE2y quy\u1EC1n tr\u01B0\u1EE3ng c\u1EE7a Anubis, Vincent
    \u0111\xE3 t\xECm c\xE1ch ph\xE1 v\u1EE1 quy\u1EC1n tr\u01B0\u1EE3ng\u2026\r\nVincent
    \u0111\xE3 n\xE9m c\xE2y quy\u1EC1n tr\u01B0\u1EE3ng xu\u1ED1ng \u0111\u1EA5t
    v\xE0 d\xF9ng h\xF2n \u0111\xE1 trong ng\u01B0\u1EDDi \u0111\u1EADp n\xE1t c\xE2y
    quy\u1EC1n tr\u01B0\u1EE3ng, s\u1EE9c m\u1EA1nh t\u1EEB vi\xEAn \u0111\xE1 ph\u1EA3n
    v\u1EDBi s\u1EE9c m\u1EA1nh t\u1EEB c\xE2y quy\u1EC1n tr\u01B0\u1EE3ng t\u1EA1o
    ra 1 lu\u1ED3ng n\u0103ng l\u01B0\u1EE3ng h\u1EA5t v\u0103ng Vincent ra\u2026
    nh\u1EEFng t\xEAn x\xE1c \u01B0\u1EDBp c\u0169ng th\xE9t l\u1EDBn r\u1ED3i h\xF3a
    th\xE0nh c\xE1t b\u1EE5i\u2026 \u0111\u1EC3 l\u1EA1i cho Vincent m\u1EA3nh gh\xE9p
    cu\u1ED1i c\xF9ng.\r\nVincent c\u1EE9u \u0111\u01B0\u1EE3c Marp v\xE0 ti\u1EBFn
    v\xE0o c\u0103n ph\xF2ng\u2026"
  - "B\u01B0\u1EDBc v\xE0o c\u0103n ph\xF2ng, m\u1ECDi b\xED m\u1EADt c\u1EE7a Pharaoh
    n\u1EB1m trong c\u0103n ph\xF2ng s\xE2u nh\u1EA5t c\u1EE7a kim t\u1EF1 th\xE1p
    g\u1EA7n nh\u01B0 \u0111\xE3 \u0111\u01B0\u1EE3c ph\u01A1i b\xE0y. \u1EDE gi\u1EEFa
    c\u0103n ph\xF2ng n\xE0y c\xF3 1 chi\u1EBFc b\xE0n \u0111\xE1\u2026 Xung quanh
    c\u0103n ph\xF2ng l\xE0 nh\u1EEFng k\xED hi\u1EC7u, t\u01B0\u1EE3ng h\xECnh v\u1EC1
    lo\xE0i ng\u01B0\u1EDDi m\xE0 Vincent ch\u01B0a t\u1EEBng th\u1EA5y tr\u01B0\u1EDBc
    kia.\r\nC\xF3 trong tay b\u1EA3y m\u1EA3nh gh\xE9p logo, Vincent ph\u1EA3i t\xECm
    ra c\xE1ch gi\u1EA3i m\xE3 \u0111\u1EC3 k\xEDch ho\u1EA1t \u0111\u01B0\u1EE3c
    n\u0103ng l\u01B0\u1EE3ng t\u1EA1o ra ch\xECa kh\xF3a tr\xED tu\u1EC7 \u0111\u1EC3
    bi\u1EBFt \u0111\u01B0\u1EE3c c\u1ED9i ngu\u1ED3n.\r\nCu\u1ED1i c\xF9ng, Vicent
    c\u0169ng t\u1EA1o ra th\xE0nh c\xF4ng ch\xECa kh\xF3a tr\xED tu\u1EC7\u2026
    chi\u1EBFc b\xE0n \u1EDF gi\u1EEFa ph\xF2ng l\xF3e l\xEAn ngu\u1ED3n s\xE1ng
    m\u1EDF ra c\xE1nh c\u1ED5ng \u0111\u1ECBa \u0111\xE0ng. \u1EDE \u0111\xF3 Vincent
    kh\xE1m ph\xE1 ra \u0111\u01B0\u1EE3c ng\u1ECDn ngu\u1ED3n t\xECm ki\u1EBFm \u0111\u01B0\u1EE3c
    tri th\u1EE9c c\u1EE7a nh\xE2n lo\u1EA1i. "
  title: "Ai C\u1EADp c\u1ED5 \u0111\u1EA1i"
  mainDescription: "Vincent t\u1EDBi m\u1ED9t ng\xF4i l\xE0ng nh\u1ECF \u1EDF Hy
    L\u1EA1p \u0111\u1EC3 t\xECm th\xEAm manh m\u1ED1i v\u1EC1 m\u1EA3nh gh\xE9p
    \u1EDF v\xF9ng \u0111\u1EA5t n\xE0y th\xEC v\xF4 t\xECnh, Vincent g\u1EB7p Layla
    \u0111ang ng\u1ED3i kh\xF3c n\u1EE9c n\u1EDF. Sau 1 h\u1ED3i l\xE2u tr\xF2 chuy\u1EC7n,
    Vincent bi\u1EBFt \u0111\u01B0\u1EE3c r\u1EB1ng c\xF4 \u1EA5y \u0111\xE3 \u0111em
    l\xF2ng y\xEAu Hercules \u0111\xE3 nh\u1EDD th\u1EA7n t\xECnh y\xEAu Eros. Nh\u01B0ng
    ch\u1EB3ng may m\u0169i t\xEAn l\u1EA1i tr\xFAng nh\u1EA7m Zeus \u2013 V\u1ECB
    th\u1EA7n t\u1ED1i cao. Layla tuy\u1EC7t v\u1ECDng v\xEC Zeus \u0111e do\u1EA1
    r\u1EB1ng n\u1EBFu c\xF4 \u1EA5y kh\xF4ng ch\u1EA5p nh\u1EADn l\xE0m v\u1EE3
    th\u1EA7n th\xEC \xF4ng ta s\u1EBD gi\xE1ng m\u1ECDi tai ho\u1EA1 l\xEAn ng\u01B0\u1EDDi
    d\xE2n Hy L\u1EA1p. Vincent quy\u1EBFt \u0111\u1ECBnh s\u1EBD gi\xFAp \u0111\u1EE1
    c\xF4 g\xE1i \u1EA5y c\xF3 \u0111\u01B0\u1EE3c t\xECnh y\xEAu c\u1EE7a \u0111\u1EDDi
    m\xECnh.Layla d\u1EABn Vincent \u0111i t\xECm g\u1EB7p c\xE1c v\u1ECB th\u1EA7n
    \u0111\u1EC3 \u0111\u01B0\u1EE3c gi\xFAp \u0111\u1EE1."
  chapter: 7
  story: 0
