%YAML 1.1
%TAG !u! tag:unity3d.com,2011:
--- !u!114 &11400000
MonoBehaviour:
  m_ObjectHideFlags: 0
  m_CorrespondingSourceObject: {fileID: 0}
  m_PrefabInstance: {fileID: 0}
  m_PrefabAsset: {fileID: 0}
  m_GameObject: {fileID: 0}
  m_Enabled: 1
  m_EditorHideFlags: 0
  m_Script: {fileID: 11500000, guid: ffcc26ac2b9a47199fb2ba40069c48bf, type: 3}
  m_Name: Quest atlantic 1-2
  m_EditorClassIdentifier: 
  rewards: []
  requires:
  - itemRequire: {fileID: 11400000, guid: b9f5b8830826b07429cee5b05e94f5cd, type: 2}
    requireAmount: 2
    currentAmount: 0
  filterType: 0
  questType: 2
  id: 844474c5-8763-4f0a-b415-59c37e1884a3
  title: 
  description: "ho\xE0n th\xE0nh level atlantic 1: 2 l\u1EA7n"
  daily: 0
  received: 0
  killAllBoss: 0
