%YAML 1.1
%TAG !u! tag:unity3d.com,2011:
--- !u!114 &11400000
MonoBehaviour:
  m_ObjectHideFlags: 0
  m_CorrespondingSourceObject: {fileID: 0}
  m_PrefabInstance: {fileID: 0}
  m_PrefabAsset: {fileID: 0}
  m_GameObject: {fileID: 0}
  m_Enabled: 1
  m_EditorHideFlags: 0
  m_Script: {fileID: 11500000, guid: ffcc26ac2b9a47199fb2ba40069c48bf, type: 3}
  m_Name: Quest Atlantic 4
  m_EditorClassIdentifier: 
  rewards:
  - rewards:
    - item: {fileID: 11400000, guid: 2ec4a43e005026740b3e9d152e036143, type: 2}
      amount: 1
      drop: 15
    - item: {fileID: 11400000, guid: 00c7cc226067a0c47a782d2a8a016e08, type: 2}
      amount: 1
      drop: 15
    - item: {fileID: 11400000, guid: 73d975ddb9c59bf4c815fc2e282df7a9, type: 2}
      amount: 1
      drop: 15
    - item: {fileID: 11400000, guid: 48cbdc678ea51b142a36e46a27b2a020, type: 2}
      amount: 1
      drop: 15
    - item: {fileID: 11400000, guid: cc8c183a16bd8d44aa8adb03df8917d9, type: 2}
      amount: 1
      drop: 15
    - item: {fileID: 11400000, guid: 2b93de8be7e03ab4a9a161607894cec3, type: 2}
      amount: 1
      drop: 15
    - item: {fileID: 11400000, guid: 1c224a4a9c442e041b343cc2f3528016, type: 2}
      amount: 1
      drop: 15
    - item: {fileID: 11400000, guid: 02fff9ba5df5a0243b97a1c7f79ba688, type: 2}
      amount: 1
      drop: 15
    - item: {fileID: 0}
      amount: 1
      drop: 100
    drop: 85
    random: 1
  requires:
  - itemRequire: {fileID: 11400000, guid: bad9cd0a339976546b6d9b28aad69684, type: 2}
    requireAmount: 1
    currentAmount: 0
  listQuestType: 0
  questType: 1
  id: a7bf66a3-798f-45d0-86ef-f3609c13c953
  title: "B\xC1U V\u1EACT B\u1ECA M\u1EA4T T\xCDCH "
  description: "S\u1ED0NG S\xD3T QUA 3 \u0110\u1EA2O ATLANTIS "
  daily: 0
  received: 0
