%YAML 1.1
%TAG !u! tag:unity3d.com,2011:
--- !u!114 &11400000
MonoBehaviour:
  m_ObjectHideFlags: 0
  m_CorrespondingSourceObject: {fileID: 0}
  m_PrefabInstance: {fileID: 0}
  m_PrefabAsset: {fileID: 0}
  m_GameObject: {fileID: 0}
  m_Enabled: 1
  m_EditorHideFlags: 0
  m_Script: {fileID: 11500000, guid: ffcc26ac2b9a47199fb2ba40069c48bf, type: 3}
  m_Name: Quest Asgard 3
  m_EditorClassIdentifier: 
  rewards:
  - rewards:
    - item: {fileID: 11400000, guid: b999a47b0ac0bfc4d8850d8e1d54671f, type: 2}
      amount: 1
      drop: 100
    - item: {fileID: 11400000, guid: 8d8a068ae8d43034a84360fc8e2eabb7, type: 2}
      amount: 1
      drop: 100
    drop: 100
    random: 0
  requires:
  - itemRequire: {fileID: 11400000, guid: b5e8223581ffa6447a28929234b6e2b1, type: 2}
    requireAmount: 2
    currentAmount: 0
  - itemRequire: {fileID: 11400000, guid: 450dbdab6822f944999078cbca81bf6b, type: 2}
    requireAmount: 2
    currentAmount: 0
  - itemRequire: {fileID: 11400000, guid: c69ab88bd4bdb7548a609c743d65f00b, type: 2}
    requireAmount: 2
    currentAmount: 0
  - itemRequire: {fileID: 11400000, guid: bf041c6d807de50419adfb1f74b9bfcf, type: 2}
    requireAmount: 1
    currentAmount: 0
  listQuestType: 2
  questType: 0
  id: a0c15085-e88b-472f-b3a1-d4e7838e5515
  title: "S\u1EE8C M\u1EA0NH NH\xC2N \u0110\xD4I "
  description: "THU NH\u1EACP 2 RED - 2 GREEN - 2 BLUE - 1 PURPLE"
  daily: 0
  received: 0
