%YAML 1.1
%TAG !u! tag:unity3d.com,2011:
--- !u!114 &11400000
MonoBehaviour:
  m_ObjectHideFlags: 0
  m_CorrespondingSourceObject: {fileID: 0}
  m_PrefabInstance: {fileID: 0}
  m_PrefabAsset: {fileID: 0}
  m_GameObject: {fileID: 0}
  m_Enabled: 1
  m_EditorHideFlags: 0
  m_Script: {fileID: 11500000, guid: ffcc26ac2b9a47199fb2ba40069c48bf, type: 3}
  m_Name: Quest Asgard 6
  m_EditorClassIdentifier: 
  rewards:
  - rewards:
    - item: {fileID: 11400000, guid: 034e281af5b77c14e84cf64887196de5, type: 2}
      amount: 1
      drop: 50
    - item: {fileID: 11400000, guid: 84449ad13e6788a43aad4d683c3ad773, type: 2}
      amount: 1
      drop: 50
    drop: 100
    random: 0
  requires:
  - itemRequire: {fileID: 11400000, guid: 5b4672efcf39c564c9b781e75a572a5f, type: 2}
    requireAmount: 40
    currentAmount: 0
  listQuestType: 5
  questType: 0
  id: a0c15085-e88b-472f-b3a1-d4e7838e5515
  title: "TH\u1EA6N ODIN QUY\u1EC0N N\u0102NG"
  description: "THU TH\u1EACP 40 ASGARD SOUL"
  daily: 0
  received: 0
