%YAML 1.1
%TAG !u! tag:unity3d.com,2011:
--- !u!687078895 &4343727234628468602
SpriteAtlas:
  m_ObjectHideFlags: 0
  m_CorrespondingSourceObject: {fileID: 0}
  m_PrefabInstance: {fileID: 0}
  m_PrefabAsset: {fileID: 0}
  m_Name: New Sprite Atlas
  m_EditorData:
    serializedVersion: 2
    textureSettings:
      serializedVersion: 2
      anisoLevel: 1
      compressionQuality: 50
      maxTextureSize: 2048
      textureCompression: 0
      filterMode: 1
      generateMipMaps: 0
      readable: 0
      crunchedCompression: 0
      sRGB: 1
    platformSettings:
    - serializedVersion: 3
      m_BuildTarget: DefaultTexturePlatform
      m_MaxTextureSize: 2048
      m_ResizeAlgorithm: 0
      m_TextureFormat: -1
      m_TextureCompression: 1
      m_CompressionQuality: 50
      m_CrunchedCompression: 1
      m_AllowsAlphaSplitting: 0
      m_Overridden: 0
      m_AndroidETC2FallbackOverride: 0
      m_ForceMaximumCompressionQuality_BC6H_BC7: 0
    packingSettings:
      serializedVersion: 2
      padding: 2
      blockOffset: 1
      allowAlphaSplitting: 0
      enableRotation: 1
      enableTightPacking: 0
    secondaryTextureSettings: {}
    variantMultiplier: 1
    packables:
    - {fileID: 2800000, guid: 9880d960b7657bd43979fdd065a6411d, type: 3}
    - {fileID: 2800000, guid: 0ca9d14097bae2c4abeee430a7a8c9ef, type: 3}
    - {fileID: 2800000, guid: 181cc95059bfd3d4a81c82e124d1e005, type: 3}
    - {fileID: 2800000, guid: 9241e265b49b8e74c884271c6748afc3, type: 3}
    - {fileID: 2800000, guid: 6974cd681f9a2db4a8c483dcc9cb6acb, type: 3}
    - {fileID: 2800000, guid: ef83534fe70317949af5ad3af51a1a8b, type: 3}
    - {fileID: 2800000, guid: 846563e8257d3f94b8622782171d34f8, type: 3}
    - {fileID: 2800000, guid: 9e48d6256c3567d47bfbe9b76f939330, type: 3}
    - {fileID: 2800000, guid: 4c83ce18de446d44fbda815afcd581c9, type: 3}
    - {fileID: 2800000, guid: 18eefd2b922bf7446af294a2caeb9bef, type: 3}
    - {fileID: 2800000, guid: cb854636aca272242a1d11a7452ebd80, type: 3}
    - {fileID: 2800000, guid: bd7a755b9136bfe419f3860754753916, type: 3}
    - {fileID: 2800000, guid: 16f191b947e428147aaaee1c740f9bb9, type: 3}
    - {fileID: 2800000, guid: 790ab972ee452bf49ac35d84246dc27c, type: 3}
    - {fileID: 2800000, guid: 0724103a035b6374cb8165704cf5adeb, type: 3}
    - {fileID: 2800000, guid: 89aa94acc02f7b24693e371b64276707, type: 3}
    - {fileID: 2800000, guid: bc64768ee66d4ed45be958e3e4d49bc9, type: 3}
    - {fileID: 2800000, guid: 060bf1f4dd95c424d83b49562499c377, type: 3}
    - {fileID: 2800000, guid: 5d9f2a7893fcf3f4cae7d7581d3804de, type: 3}
    - {fileID: 2800000, guid: 3f761b8073c13d248bc83404e9334f8a, type: 3}
    - {fileID: 2800000, guid: 27a8d47016bb740458ab306decb3fc69, type: 3}
    - {fileID: 2800000, guid: 66602c2fa65442e4e8f167a7e95c040a, type: 3}
    - {fileID: 2800000, guid: f7809078877f26446bf4e483360a9297, type: 3}
    - {fileID: 2800000, guid: e3e1e316a48089a428bac8a9397efbfd, type: 3}
    - {fileID: 2800000, guid: fd52dcc16f7d33d429b1f91c54d0c767, type: 3}
    - {fileID: 2800000, guid: 370409d73cdd5ae4b840c78f46d378c4, type: 3}
    - {fileID: 2800000, guid: f45dd330ed2efdc4e964bd9f6e0231b5, type: 3}
    - {fileID: 2800000, guid: d2c86e8b36440e1499c95ca347ca5faa, type: 3}
    - {fileID: 2800000, guid: 5bebfbfa03d65d146bfde2a2d0f17245, type: 3}
    - {fileID: 2800000, guid: df09ee60602b1b148a442623ebd89dc2, type: 3}
    - {fileID: 2800000, guid: 2fa87484941830f49ac374d79b1af222, type: 3}
    - {fileID: 2800000, guid: a3a28c5ff1c89e349a48c18d645dbfb1, type: 3}
    - {fileID: 2800000, guid: 3595c5c443cb2d64c9666acce0e94a86, type: 3}
    - {fileID: 2800000, guid: ff2354fc36000ee4d977ccca435cc2b8, type: 3}
    - {fileID: 2800000, guid: 245125052b0ef8943adf18533f83c88f, type: 3}
    - {fileID: 2800000, guid: 5083c9d7d8d013e4d81389c6024ceb0e, type: 3}
    - {fileID: 2800000, guid: 24bc4f68e077a0d459fdc6e1b022bc58, type: 3}
    - {fileID: 2800000, guid: c9b60137c5921a645b863bd369961797, type: 3}
    - {fileID: 2800000, guid: 0ac09261875f2774dbb4689d7b9e1e92, type: 3}
    - {fileID: 2800000, guid: ee493b754ac7e82459e8c99526ec61d9, type: 3}
    - {fileID: 2800000, guid: 04e0640e99b7be94bb278769afd87fb1, type: 3}
    - {fileID: 2800000, guid: f4c7899372c93e440a6e7e011f9eade6, type: 3}
    - {fileID: 2800000, guid: 46dd7f4631ff9914d908267b50c92737, type: 3}
    - {fileID: 2800000, guid: 04784e0b9bbe5be489f732934ae4d2b2, type: 3}
    - {fileID: 2800000, guid: c9037be3f9dfa28458a948fa02f08668, type: 3}
    totalSpriteSurfaceArea: 458447
    bindAsDefault: 1
    isAtlasV2: 0
    cachedData: {fileID: 0}
  m_MasterAtlas: {fileID: 0}
  m_PackedSprites:
  - {fileID: 21300000, guid: f45dd330ed2efdc4e964bd9f6e0231b5, type: 3}
  - {fileID: 21300000, guid: 0ca9d14097bae2c4abeee430a7a8c9ef, type: 3}
  - {fileID: 21300000, guid: 181cc95059bfd3d4a81c82e124d1e005, type: 3}
  - {fileID: 21300000, guid: 9880d960b7657bd43979fdd065a6411d, type: 3}
  - {fileID: 21300000, guid: df09ee60602b1b148a442623ebd89dc2, type: 3}
  - {fileID: 21300000, guid: 27a8d47016bb740458ab306decb3fc69, type: 3}
  - {fileID: 21300000, guid: 3f761b8073c13d248bc83404e9334f8a, type: 3}
  - {fileID: 21300000, guid: 0ac09261875f2774dbb4689d7b9e1e92, type: 3}
  - {fileID: 21300000, guid: fd52dcc16f7d33d429b1f91c54d0c767, type: 3}
  - {fileID: 21300000, guid: 790ab972ee452bf49ac35d84246dc27c, type: 3}
  - {fileID: 21300000, guid: f4c7899372c93e440a6e7e011f9eade6, type: 3}
  - {fileID: 21300000, guid: c9037be3f9dfa28458a948fa02f08668, type: 3}
  - {fileID: 21300000, guid: 2fa87484941830f49ac374d79b1af222, type: 3}
  - {fileID: 21300000, guid: 3595c5c443cb2d64c9666acce0e94a86, type: 3}
  - {fileID: 21300000, guid: 060bf1f4dd95c424d83b49562499c377, type: 3}
  - {fileID: 21300000, guid: 245125052b0ef8943adf18533f83c88f, type: 3}
  - {fileID: 21300000, guid: 9e48d6256c3567d47bfbe9b76f939330, type: 3}
  - {fileID: 21300000, guid: 9241e265b49b8e74c884271c6748afc3, type: 3}
  - {fileID: 21300000, guid: ee493b754ac7e82459e8c99526ec61d9, type: 3}
  - {fileID: 21300000, guid: e3e1e316a48089a428bac8a9397efbfd, type: 3}
  - {fileID: 21300000, guid: cb854636aca272242a1d11a7452ebd80, type: 3}
  - {fileID: 21300000, guid: 46dd7f4631ff9914d908267b50c92737, type: 3}
  - {fileID: 21300000, guid: c9b60137c5921a645b863bd369961797, type: 3}
  - {fileID: 21300000, guid: 370409d73cdd5ae4b840c78f46d378c4, type: 3}
  - {fileID: 21300000, guid: 5083c9d7d8d013e4d81389c6024ceb0e, type: 3}
  - {fileID: 21300000, guid: 4c83ce18de446d44fbda815afcd581c9, type: 3}
  - {fileID: 21300000, guid: 6974cd681f9a2db4a8c483dcc9cb6acb, type: 3}
  - {fileID: 21300000, guid: 24bc4f68e077a0d459fdc6e1b022bc58, type: 3}
  - {fileID: 21300000, guid: f7809078877f26446bf4e483360a9297, type: 3}
  - {fileID: 21300000, guid: 5d9f2a7893fcf3f4cae7d7581d3804de, type: 3}
  - {fileID: 21300000, guid: 846563e8257d3f94b8622782171d34f8, type: 3}
  - {fileID: 21300000, guid: 16f191b947e428147aaaee1c740f9bb9, type: 3}
  - {fileID: 21300000, guid: 0724103a035b6374cb8165704cf5adeb, type: 3}
  - {fileID: 21300000, guid: 5bebfbfa03d65d146bfde2a2d0f17245, type: 3}
  - {fileID: 21300000, guid: 04784e0b9bbe5be489f732934ae4d2b2, type: 3}
  - {fileID: 21300000, guid: 18eefd2b922bf7446af294a2caeb9bef, type: 3}
  - {fileID: 21300000, guid: bd7a755b9136bfe419f3860754753916, type: 3}
  - {fileID: 21300000, guid: d2c86e8b36440e1499c95ca347ca5faa, type: 3}
  - {fileID: 21300000, guid: 89aa94acc02f7b24693e371b64276707, type: 3}
  - {fileID: 21300000, guid: ff2354fc36000ee4d977ccca435cc2b8, type: 3}
  - {fileID: 21300000, guid: 04e0640e99b7be94bb278769afd87fb1, type: 3}
  - {fileID: 21300000, guid: bc64768ee66d4ed45be958e3e4d49bc9, type: 3}
  - {fileID: 21300000, guid: 66602c2fa65442e4e8f167a7e95c040a, type: 3}
  - {fileID: 21300000, guid: ef83534fe70317949af5ad3af51a1a8b, type: 3}
  - {fileID: 21300000, guid: a3a28c5ff1c89e349a48c18d645dbfb1, type: 3}
  m_PackedSpriteNamesToIndex:
  - 26.M.Zeus 2
  - 1.M.toturial - 1 sao
  - 2.M.Toturial - 2 sao
  - "45.M.Th\u1EA7n Ra -3"
  - 29.M.Poseidon 2
  - 20.M.Medusa 2
  - 19.M.Medusa 1
  - 38.M.Hunter (Asgard) -2
  - 24.M.Hades 3
  - 13.M.Indus 1
  - 41.M.Thor Thunder - 2
  - "44.M.Th\u1EA7n Ra-2"
  - 30.M.Poseidon 3
  - 32.M.Pearl (Atlantic) 2
  - "17.M.Ai c\u1EADp 2"
  - 34.M.Platium (atlantic) 1
  - 7.M.Anasazi 1
  - 3.M.Toturial - 3 sao
  - 39.M.Hunter (Asgard) - 3
  - 23.M.Hades 2
  - 10.M.Viking 1
  - 42.M.Thor Thunder - 3
  - 37.M.Hunter (Asgard) - 1
  - 25.M.Zeus 1
  - 35.M.Platium (atlantic)2
  - 8.M.Anasazi 2
  - 4.M.Maya - 1
  - 36.M.Platium (atlantic) 3
  - 22.M.Hades 1
  - "18.M.ai c\u1EADp 3"
  - 6.M.Maya 3
  - 12.M.viking 3
  - 14.M.Indus 2
  - 28.M.Poseidon 1
  - "43.M.Th\u1EA7n Ra -1"
  - 9.M.Anasazi 3
  - 11.M.Viking 2
  - 27.M.Zeus 3
  - 15.M.Indus 3
  - 33.M.Pearl (Atlantic) 3
  - 40.M.Thor Thunder - 1
  - "16.M.Ai c\u1EADp 1"
  - 21.M.Medusa 3
  - 5.M.Maya 2
  - 31.M.Pearl (Atlantic)1
  m_RenderDataMap: {}
  m_Tag: New Sprite Atlas
  m_IsVariant: 0
